<?xml version="1.0" encoding="UTF-8"?>
<glyph name="fl" format="1">
  <advance width="740"/>
  <unicode hex="FB02"/>
  <outline>
    <contour>
      <point x="30" y="417" type="line"/>
      <point x="30" y="502" type="line"/>
      <point x="97" y="502" type="line"/>
      <point x="97" y="520" type="line" smooth="yes"/>
      <point x="97" y="585"/>
      <point x="105" y="615"/>
      <point x="133" y="652" type="curve" smooth="yes"/>
      <point x="174" y="707"/>
      <point x="263" y="736"/>
      <point x="387" y="736" type="curve" smooth="yes"/>
      <point x="434" y="736"/>
      <point x="459" y="734"/>
      <point x="635" y="718" type="curve"/>
      <point x="635" y="165" type="line" smooth="yes"/>
      <point x="635" y="108"/>
      <point x="641" y="97"/>
      <point x="679" y="89" type="curve" smooth="yes"/>
      <point x="710" y="82" type="line"/>
      <point x="710" y="0" type="line"/>
      <point x="398" y="0" type="line"/>
      <point x="398" y="82" type="line"/>
      <point x="429" y="89" type="line" smooth="yes"/>
      <point x="467" y="97"/>
      <point x="473" y="108"/>
      <point x="473" y="165" type="curve" smooth="yes"/>
      <point x="473" y="502" type="line" smooth="yes"/>
      <point x="473" y="560"/>
      <point x="472" y="577"/>
      <point x="465" y="596" type="curve" smooth="yes"/>
      <point x="453" y="629"/>
      <point x="420" y="647"/>
      <point x="372" y="647" type="curve" smooth="yes"/>
      <point x="325" y="647"/>
      <point x="292" y="635"/>
      <point x="275" y="612" type="curve"/>
      <point x="262" y="592"/>
      <point x="259" y="578"/>
      <point x="259" y="522" type="curve" smooth="yes"/>
      <point x="259" y="502" type="line"/>
      <point x="348" y="502" type="line"/>
      <point x="348" y="417" type="line"/>
      <point x="259" y="417" type="line"/>
      <point x="259" y="165" type="line" smooth="yes"/>
      <point x="259" y="108"/>
      <point x="265" y="97"/>
      <point x="303" y="89" type="curve" smooth="yes"/>
      <point x="334" y="82" type="line"/>
      <point x="334" y="0" type="line"/>
      <point x="22" y="0" type="line"/>
      <point x="22" y="82" type="line"/>
      <point x="53" y="89" type="line" smooth="yes"/>
      <point x="91" y="97"/>
      <point x="97" y="108"/>
      <point x="97" y="165" type="curve" smooth="yes"/>
      <point x="97" y="417" type="line"/>
    </contour>
  </outline>
  <lib>
    <dict>
      <key>com.fontlab.hintData</key>
      <dict>
	<key>hhints</key>
	<array>
	  <dict>
	    <key>position</key>	    <integer>0</integer>
	    <key>width</key>	    <integer>82</integer>
	  </dict>
	  <dict>
	    <key>position</key>	    <integer>417</integer>
	    <key>width</key>	    <integer>85</integer>
	  </dict>
	  <dict>
	    <key>position</key>	    <integer>647</integer>
	    <key>width</key>	    <integer>89</integer>
	  </dict>
	</array>
	<key>vhints</key>
	<array>
	  <dict>
	    <key>position</key>
	    <integer>97</integer>
	    <key>width</key>
	    <integer>162</integer>
	  </dict>
	  <dict>
	    <key>position</key>
	    <integer>473</integer>
	    <key>width</key>
	    <integer>162</integer>
	  </dict>
	</array>
      </dict>
    </dict>
  </lib>
</glyph>
