<?xml version="1.0" encoding="UTF-8"?>
<glyph name="Ntilde" format="1">
  <advance width="740"/>
  <unicode hex="00D1"/>
  <outline>
    <contour>
      <point x="315" y="681" type="line"/>
      <point x="543" y="288" type="line"/>
      <point x="543" y="513" type="line" smooth="yes"/>
      <point x="543" y="577"/>
      <point x="531" y="591"/>
      <point x="475" y="597" type="curve" smooth="yes"/>
      <point x="455" y="599" type="line"/>
      <point x="455" y="681" type="line"/>
      <point x="724" y="681" type="line"/>
      <point x="724" y="599" type="line"/>
      <point x="704" y="597" type="line" smooth="yes"/>
      <point x="648" y="591"/>
      <point x="636" y="577"/>
      <point x="636" y="513" type="curve" smooth="yes"/>
      <point x="636" y="0" type="line"/>
      <point x="512" y="0" type="line"/>
      <point x="201" y="526" type="line"/>
      <point x="201" y="168" type="line" smooth="yes"/>
      <point x="201" y="104"/>
      <point x="213" y="90"/>
      <point x="269" y="84" type="curve" smooth="yes"/>
      <point x="289" y="82" type="line"/>
      <point x="289" y="0" type="line"/>
      <point x="20" y="0" type="line"/>
      <point x="20" y="82" type="line"/>
      <point x="40" y="84" type="line" smooth="yes"/>
      <point x="96" y="90"/>
      <point x="108" y="104"/>
      <point x="108" y="168" type="curve" smooth="yes"/>
      <point x="108" y="513" type="line" smooth="yes"/>
      <point x="108" y="577"/>
      <point x="96" y="591"/>
      <point x="40" y="597" type="curve" smooth="yes"/>
      <point x="20" y="599" type="line"/>
      <point x="20" y="681" type="line"/>
    </contour>
    <contour>
      <point x="501" y="878" type="curve"/>
      <point x="551" y="853" type="line"/>
      <point x="529" y="779"/>
      <point x="493" y="748"/>
      <point x="428" y="748" type="curve" smooth="yes"/>
      <point x="399" y="748"/>
      <point x="391" y="750"/>
      <point x="327" y="772" type="curve" smooth="yes"/>
      <point x="314" y="776"/>
      <point x="299" y="779"/>
      <point x="289" y="779" type="curve" smooth="yes"/>
      <point x="273" y="779"/>
      <point x="264" y="773"/>
      <point x="251" y="755" type="curve"/>
      <point x="199" y="785" type="line"/>
      <point x="220" y="846"/>
      <point x="269" y="884"/>
      <point x="325" y="884" type="curve" smooth="yes"/>
      <point x="345" y="884"/>
      <point x="367" y="880"/>
      <point x="394" y="870" type="curve" smooth="yes"/>
      <point x="437" y="855"/>
      <point x="443" y="854"/>
      <point x="460" y="854" type="curve" smooth="yes"/>
      <point x="481" y="854"/>
      <point x="490" y="859"/>
    </contour>
  </outline>
  <lib>
    <dict>
      <key>com.fontlab.hintData</key>
      <dict>
	<key>hhints</key>
	<array>
	  <dict>
	    <key>position</key>	    <integer>0</integer>
	    <key>width</key>	    <integer>82</integer>
	  </dict>
	  <dict>
	    <key>position</key>	    <integer>599</integer>
	    <key>width</key>	    <integer>82</integer>
	  </dict>
	  <dict>
	    <key>position</key>	    <integer>736</integer>
	    <key>width</key>	    <integer>106</integer>
	  </dict>
	  <dict>
	    <key>position</key>	    <integer>767</integer>
	    <key>width</key>	    <integer>105</integer>
	  </dict>
	</array>
	<key>vhints</key>
	<array>
	  <dict>
	    <key>position</key>
	    <integer>108</integer>
	    <key>width</key>
	    <integer>93</integer>
	  </dict>
	  <dict>
	    <key>position</key>
	    <integer>543</integer>
	    <key>width</key>
	    <integer>93</integer>
	  </dict>
	</array>
      </dict>
    </dict>
  </lib>
</glyph>
