<?xml version="1.0" encoding="UTF-8"?>
<glyph name="uni048C" format="1">
  <advance width="660"/>
  <unicode hex="048C"/>
  <outline>
    <contour>
      <point x="283" y="165" type="line" smooth="yes"/>
      <point x="283" y="129"/>
      <point x="284" y="118"/>
      <point x="290" y="110" type="curve" smooth="yes"/>
      <point x="297" y="99"/>
      <point x="321" y="92"/>
      <point x="351" y="92" type="curve" smooth="yes"/>
      <point x="419" y="92"/>
      <point x="466" y="136"/>
      <point x="466" y="201" type="curve" smooth="yes"/>
      <point x="466" y="274"/>
      <point x="412" y="316"/>
      <point x="316" y="316" type="curve" smooth="yes"/>
      <point x="307" y="316"/>
      <point x="299" y="316"/>
      <point x="283" y="314" type="curve"/>
    </contour>
    <contour>
      <point x="283" y="528" type="curve"/>
      <point x="284" y="528" type="line"/>
      <point x="353" y="528" type="line"/>
      <point x="353" y="443" type="line"/>
      <point x="283" y="443" type="line"/>
      <point x="283" y="405" type="line"/>
      <point x="378" y="405" type="line" smooth="yes"/>
      <point x="561" y="405"/>
      <point x="658" y="335"/>
      <point x="658" y="203" type="curve" smooth="yes"/>
      <point x="658" y="137"/>
      <point x="630" y="78"/>
      <point x="580" y="43" type="curve"/>
      <point x="537" y="11"/>
      <point x="484" y="0"/>
      <point x="379" y="0" type="curve" smooth="yes"/>
      <point x="20" y="0" type="line"/>
      <point x="20" y="82" type="line"/>
      <point x="40" y="84" type="line" smooth="yes"/>
      <point x="96" y="90"/>
      <point x="108" y="104"/>
      <point x="108" y="168" type="curve" smooth="yes"/>
      <point x="108" y="443" type="line"/>
      <point x="38" y="443" type="line"/>
      <point x="38" y="528" type="line"/>
      <point x="108" y="528" type="line"/>
      <point x="106" y="579"/>
      <point x="91" y="592"/>
      <point x="40" y="597" type="curve" smooth="yes"/>
      <point x="20" y="599" type="line"/>
      <point x="20" y="681" type="line"/>
      <point x="371" y="681" type="line"/>
      <point x="371" y="599" type="line"/>
      <point x="351" y="597" type="line" smooth="yes"/>
      <point x="300" y="592"/>
      <point x="285" y="579"/>
    </contour>
  </outline>
  <lib>
    <dict>
      <key>com.fontlab.hintData</key>
      <dict>
	<key>hhints</key>
	<array>
	  <dict>
	    <key>position</key>	    <integer>0</integer>
	    <key>width</key>	    <integer>92</integer>
	  </dict>
	  <dict>
	    <key>position</key>	    <integer>316</integer>
	    <key>width</key>	    <integer>89</integer>
	  </dict>
	  <dict>
	    <key>position</key>	    <integer>443</integer>
	    <key>width</key>	    <integer>85</integer>
	  </dict>
	  <dict>
	    <key>position</key>	    <integer>599</integer>
	    <key>width</key>	    <integer>82</integer>
	  </dict>
	</array>
	<key>vhints</key>
	<array>
	  <dict>
	    <key>position</key>
	    <integer>108</integer>
	    <key>width</key>
	    <integer>175</integer>
	  </dict>
	  <dict>
	    <key>position</key>
	    <integer>466</integer>
	    <key>width</key>
	    <integer>192</integer>
	  </dict>
	</array>
      </dict>
    </dict>
  </lib>
</glyph>
