<?xml version="1.0" encoding="UTF-8"?>
<glyph name="Ecaron" format="1">
  <advance width="547"/>
  <unicode hex="011A"/>
  <outline>
    <contour>
      <point x="495" y="718" type="line"/>
      <point x="495" y="591" type="line"/>
      <point x="182" y="591" type="line"/>
      <point x="182" y="440" type="line"/>
      <point x="470" y="440" type="line"/>
      <point x="470" y="313" type="line"/>
      <point x="182" y="313" type="line"/>
      <point x="182" y="127" type="line"/>
      <point x="509" y="127" type="line"/>
      <point x="509" y="0" type="line"/>
      <point x="62" y="0" type="line"/>
      <point x="62" y="718" type="line"/>
    </contour>
    <contour>
      <point x="418" y="936" type="line"/>
      <point x="325" y="790" type="line"/>
      <point x="222" y="790" type="line"/>
      <point x="129" y="936" type="line"/>
      <point x="222" y="936" type="line"/>
      <point x="273" y="854" type="line"/>
      <point x="325" y="936" type="line"/>
    </contour>
  </outline>
  <lib>
    <dict>
      <key>com.fontlab.hintData</key>
      <dict>
	<key>hhints</key>
	<array>
	  <dict>
	    <key>position</key>	    <integer>0</integer>
	    <key>width</key>	    <integer>127</integer>
	  </dict>
	  <dict>
	    <key>position</key>	    <integer>313</integer>
	    <key>width</key>	    <integer>127</integer>
	  </dict>
	  <dict>
	    <key>position</key>	    <integer>591</integer>
	    <key>width</key>	    <integer>127</integer>
	  </dict>
	</array>
	<key>vhints</key>
	<array>
	  <dict>
	    <key>position</key>
	    <integer>62</integer>
	    <key>width</key>
	    <integer>120</integer>
	  </dict>
	</array>
      </dict>
    </dict>
  </lib>
</glyph>
