<?xml version="1.0" encoding="UTF-8"?>
<glyph name="emdash" format="1">
  <advance width="820"/>
  <unicode hex="2014"/>
  <outline>
    <contour>
      <point x="820" y="333" type="line"/>
      <point x="820" y="226" type="line"/>
      <point x="0" y="226" type="line"/>
      <point x="0" y="333" type="line"/>
    </contour>
  </outline>
  <lib>
    <dict>
      <key>com.fontlab.hintData</key>
      <dict>
	<key>hhints</key>
	<array>
	  <dict>
	    <key>position</key>	    <integer>226</integer>
	    <key>width</key>	    <integer>107</integer>
	  </dict>
	</array>
      </dict>
    </dict>
  </lib>
</glyph>
