<?xml version="1.0" encoding="UTF-8"?>
<glyph name="Ograve" format="1">
  <advance width="638"/>
  <unicode hex="00D2"/>
  <outline>
    <contour>
      <point x="323" y="737" type="curve" smooth="yes"/>
      <point x="398" y="737"/>
      <point x="472" y="701"/>
      <point x="521" y="642" type="curve" smooth="yes"/>
      <point x="574" y="578"/>
      <point x="602" y="480"/>
      <point x="602" y="359" type="curve" smooth="yes"/>
      <point x="602" y="238"/>
      <point x="574" y="140"/>
      <point x="521" y="76" type="curve" smooth="yes"/>
      <point x="472" y="16"/>
      <point x="398" y="-19"/>
      <point x="319" y="-19" type="curve" smooth="yes"/>
      <point x="216" y="-19"/>
      <point x="126" y="39"/>
      <point x="79" y="135" type="curve" smooth="yes"/>
      <point x="51" y="194"/>
      <point x="36" y="270"/>
      <point x="36" y="358" type="curve" smooth="yes"/>
      <point x="36" y="480"/>
      <point x="64" y="578"/>
      <point x="117" y="642" type="curve" smooth="yes"/>
      <point x="167" y="703"/>
      <point x="241" y="737"/>
    </contour>
    <contour>
      <point x="321" y="610" type="curve" smooth="yes"/>
      <point x="220" y="610"/>
      <point x="159" y="516"/>
      <point x="159" y="361" type="curve" smooth="yes"/>
      <point x="159" y="203"/>
      <point x="219" y="108"/>
      <point x="319" y="108" type="curve" smooth="yes"/>
      <point x="419" y="108"/>
      <point x="479" y="203"/>
      <point x="479" y="362" type="curve" smooth="yes"/>
      <point x="479" y="446"/>
      <point x="460" y="516"/>
      <point x="425" y="558" type="curve"/>
      <point x="399" y="591"/>
      <point x="360" y="610"/>
    </contour>
    <contour>
      <point x="284" y="790" type="line"/>
      <point x="164" y="936" type="line"/>
      <point x="290" y="936" type="line"/>
      <point x="367" y="790" type="line"/>
    </contour>
  </outline>
  <lib>
    <dict>
      <key>com.fontlab.hintData</key>
      <dict>
	<key>hhints</key>
	<array>
	  <dict>
	    <key>position</key>	    <integer>-19</integer>
	    <key>width</key>	    <integer>127</integer>
	  </dict>
	  <dict>
	    <key>position</key>	    <integer>610</integer>
	    <key>width</key>	    <integer>127</integer>
	  </dict>
	</array>
	<key>vhints</key>
	<array>
	  <dict>
	    <key>position</key>
	    <integer>36</integer>
	    <key>width</key>
	    <integer>123</integer>
	  </dict>
	  <dict>
	    <key>position</key>
	    <integer>479</integer>
	    <key>width</key>
	    <integer>123</integer>
	  </dict>
	</array>
      </dict>
    </dict>
  </lib>
</glyph>
