<?xml version="1.0" encoding="UTF-8"?>
<glyph name="aacute" format="1">
  <advance width="500"/>
  <unicode hex="00E1"/>
  <outline>
    <contour>
      <point x="324" y="82" type="line"/>
      <point x="200" y="-4" type="line" smooth="yes"/>
      <point x="193" y="-9"/>
      <point x="176" y="-12"/>
      <point x="158" y="-12" type="curve" smooth="yes"/>
      <point x="79" y="-12"/>
      <point x="32" y="33"/>
      <point x="32" y="111" type="curve" smooth="yes"/>
      <point x="32" y="198"/>
      <point x="89" y="245"/>
      <point x="225" y="270" type="curve" smooth="yes"/>
      <point x="324" y="288" type="line"/>
      <point x="321" y="379"/>
      <point x="282" y="416"/>
      <point x="188" y="416" type="curve" smooth="yes"/>
      <point x="142" y="416"/>
      <point x="132" y="409"/>
      <point x="111" y="362" type="curve"/>
      <point x="98" y="331" type="line"/>
      <point x="72" y="338" type="line"/>
      <point x="72" y="403" type="line"/>
      <point x="125" y="435" type="line" smooth="yes"/>
      <point x="163" y="458"/>
      <point x="203" y="469"/>
      <point x="246" y="469" type="curve" smooth="yes"/>
      <point x="362" y="469"/>
      <point x="404" y="416"/>
      <point x="404" y="270" type="curve" smooth="yes"/>
      <point x="404" y="87" type="line" smooth="yes"/>
      <point x="404" y="38"/>
      <point x="408" y="30"/>
      <point x="432" y="29" type="curve" smooth="yes"/>
      <point x="471" y="27" type="line"/>
      <point x="471" y="-3" type="line"/>
      <point x="427" y="-1"/>
      <point x="402" y="0"/>
      <point x="397" y="0" type="curve" smooth="yes"/>
      <point x="384" y="0"/>
      <point x="384" y="0"/>
      <point x="319" y="-3" type="curve"/>
    </contour>
    <contour>
      <point x="324" y="124" type="curve"/>
      <point x="324" y="256" type="line"/>
      <point x="248" y="245"/>
      <point x="193" y="231"/>
      <point x="168" y="216" type="curve" smooth="yes"/>
      <point x="138" y="197"/>
      <point x="118" y="162"/>
      <point x="118" y="125" type="curve" smooth="yes"/>
      <point x="118" y="82"/>
      <point x="153" y="45"/>
      <point x="193" y="45" type="curve" smooth="yes"/>
      <point x="232" y="45"/>
      <point x="295" y="83"/>
    </contour>
    <contour>
      <point x="162" y="506" type="line"/>
      <point x="300" y="644" type="line" smooth="yes"/>
      <point x="322" y="666"/>
      <point x="340" y="677"/>
      <point x="355" y="677" type="curve" smooth="yes"/>
      <point x="372" y="677"/>
      <point x="386" y="662"/>
      <point x="386" y="643" type="curve" smooth="yes"/>
      <point x="386" y="625"/>
      <point x="379" y="617"/>
      <point x="346" y="596" type="curve" smooth="yes"/>
      <point x="202" y="506" type="line"/>
    </contour>
  </outline>
  <lib>
    <dict>
      <key>com.fontlab.hintData</key>
      <dict>
	<key>hhints</key>
	<array>
	  <dict>
	    <key>position</key>	    <integer>-12</integer>
	    <key>width</key>	    <integer>57</integer>
	  </dict>
	  <dict>
	    <key>position</key>	    <integer>-3</integer>
	    <key>width</key>	    <integer>30</integer>
	  </dict>
	  <dict>
	    <key>position</key>	    <integer>416</integer>
	    <key>width</key>	    <integer>53</integer>
	  </dict>
	</array>
	<key>vhints</key>
	<array>
	  <dict>
	    <key>position</key>
	    <integer>32</integer>
	    <key>width</key>
	    <integer>86</integer>
	  </dict>
	  <dict>
	    <key>position</key>
	    <integer>324</integer>
	    <key>width</key>
	    <integer>80</integer>
	  </dict>
	</array>
      </dict>
    </dict>
  </lib>
</glyph>
