<?xml version="1.0" encoding="UTF-8"?>
<glyph name="Kcommaaccent" format="1">
  <advance width="726"/>
  <unicode hex="0136"/>
  <outline>
    <contour>
      <point x="216.0" y="325.0" type="line"/>
      <point x="216.0" y="120.0" type="line" smooth="yes"/>
      <point x="216.0" y="41.0"/>
      <point x="221.0" y="33.0"/>
      <point x="267.0" y="30.0" type="curve" smooth="yes"/>
      <point x="315.0" y="27.0" type="line"/>
      <point x="315.0" y="-3.0" type="line"/>
      <point x="256.0" y="-1.0"/>
      <point x="220.0" y="17.0"/>
      <point x="168.0" y="17.0" type="curve" smooth="yes"/>
      <point x="116.0" y="17.0"/>
      <point x="81.0" y="-1.0"/>
      <point x="22.0" y="-3.0" type="curve"/>
      <point x="22.0" y="27.0" type="line"/>
      <point x="70.0" y="30.0" type="line" smooth="yes"/>
      <point x="116.0" y="33.0"/>
      <point x="121.0" y="41.0"/>
      <point x="121.0" y="120.0" type="curve" smooth="yes"/>
      <point x="121.0" y="569.0" type="line" smooth="yes"/>
      <point x="121.0" y="648.0"/>
      <point x="116.0" y="656.0"/>
      <point x="70.0" y="659.0" type="curve" smooth="yes"/>
      <point x="22.0" y="662.0" type="line"/>
      <point x="22.0" y="692.0" type="line"/>
      <point x="94.0" y="690.0"/>
      <point x="118.0" y="672.0"/>
      <point x="168.0" y="672.0" type="curve" smooth="yes"/>
      <point x="220.0" y="672.0"/>
      <point x="242.0" y="689.0"/>
      <point x="315.0" y="692.0" type="curve"/>
      <point x="315.0" y="662.0" type="line"/>
      <point x="267.0" y="659.0" type="line" smooth="yes"/>
      <point x="221.0" y="656.0"/>
      <point x="216.0" y="648.0"/>
      <point x="216.0" y="569.0" type="curve" smooth="yes"/>
      <point x="216.0" y="355.0" type="line"/>
      <point x="494.0" y="626.0" type="line" smooth="yes"/>
      <point x="510.0" y="642.0"/>
      <point x="523.0" y="659.0"/>
      <point x="523.0" y="665.0" type="curve" smooth="yes"/>
      <point x="523.0" y="692.0" type="line"/>
      <point x="581.0" y="690.0"/>
      <point x="598" y="677"/>
      <point x="612" y="677" type="curve" smooth="yes"/>
      <point x="629" y="677"/>
      <point x="629.0" y="689.0"/>
      <point x="692.0" y="692.0" type="curve"/>
      <point x="692.0" y="662.0" type="line"/>
      <point x="650.0" y="660.0" type="line" smooth="yes"/>
      <point x="624.0" y="659.0"/>
      <point x="599.0" y="646.0"/>
      <point x="572.0" y="622.0" type="curve" smooth="yes"/>
      <point x="306.0" y="382.0" type="line"/>
      <point x="636.0" y="70.0" type="line" smooth="yes"/>
      <point x="667.0" y="41.0"/>
      <point x="683.0" y="30.0"/>
      <point x="698.0" y="29.0" type="curve" smooth="yes"/>
      <point x="719.0" y="27.0" type="line"/>
      <point x="719.0" y="-3.0" type="line"/>
      <point x="669.0" y="0.0"/>
      <point x="667" y="19"/>
      <point x="654" y="19" type="curve" smooth="yes"/>
      <point x="644" y="19"/>
      <point x="644.0" y="0.0"/>
      <point x="574.0" y="-3.0" type="curve"/>
      <point x="226.0" y="332.0" type="line"/>
    </contour>
    <contour>
      <point x="303.0" y="-253.0" type="curve"/>
      <point x="264.0" y="-274.0" type="line"/>
      <point x="250.0" y="-265.0" type="line"/>
      <point x="293.0" y="-196.0"/>
      <point x="326" y="-155"/>
      <point x="332" y="-83" type="curve"/>
      <point x="379" y="-70"/>
      <point x="375.0" y="-48.0"/>
      <point x="408.0" y="-37.0" type="curve"/>
      <point x="419.0" y="-49.0" type="line"/>
      <point x="389.0" y="-127.0"/>
      <point x="355.0" y="-186.0"/>
    </contour>
  </outline>
  <lib>
    <dict>
      <key>com.fontlab.hintData</key>
      <dict>
        <key>hhints</key>
        <array>
          <dict>
            <key>position</key>
            <integer>-3</integer>
            <key>width</key>
            <integer>30</integer>
          </dict>
          <dict>
            <key>position</key>
            <integer>662</integer>
            <key>width</key>
            <integer>30</integer>
          </dict>
        </array>
        <key>vhints</key>
        <array>
          <dict>
            <key>position</key>
            <integer>121</integer>
            <key>width</key>
            <integer>95</integer>
          </dict>
        </array>
      </dict>
      <key>com.typemytype.robofont.layerData</key>
      <dict>
      </dict>
    </dict>
  </lib>
</glyph>
