<?xml version="1.0" encoding="UTF-8"?>
<glyph name="uni04DF" format="1">
  <advance width="486"/>
  <unicode hex="04DF"/>
  <outline>
    <contour>
      <point x="136" y="746" type="line"/>
      <point x="210" y="746" type="line"/>
      <point x="210" y="620" type="line"/>
      <point x="136" y="620" type="line"/>
    </contour>
    <contour>
      <point x="283" y="746" type="line"/>
      <point x="357" y="746" type="line"/>
      <point x="357" y="620" type="line"/>
      <point x="283" y="620" type="line"/>
    </contour>
    <contour>
      <point x="27" y="151" type="curve"/>
      <point x="94" y="151" type="line"/>
      <point x="94" y="151"/>
      <point x="137" y="55"/>
      <point x="246" y="55" type="curve" smooth="yes"/>
      <point x="328" y="55"/>
      <point x="393" y="96"/>
      <point x="393" y="151" type="curve" smooth="yes"/>
      <point x="393" y="220"/>
      <point x="332" y="255"/>
      <point x="256" y="255" type="curve" smooth="yes"/>
      <point x="184" y="255" type="line"/>
      <point x="184" y="328" type="line"/>
      <point x="256" y="328" type="line" smooth="yes"/>
      <point x="307" y="328"/>
      <point x="352" y="354"/>
      <point x="352" y="417" type="curve" smooth="yes"/>
      <point x="352" y="464"/>
      <point x="294" y="492"/>
      <point x="246" y="492" type="curve" smooth="yes"/>
      <point x="160" y="492"/>
      <point x="134" y="417"/>
      <point x="134" y="417" type="curve"/>
      <point x="67" y="417" type="line"/>
      <point x="67" y="417"/>
      <point x="102" y="560"/>
      <point x="246" y="560" type="curve" smooth="yes"/>
      <point x="356" y="560"/>
      <point x="419" y="499"/>
      <point x="419" y="417" type="curve" smooth="yes"/>
      <point x="419" y="366"/>
      <point x="386" y="312"/>
      <point x="351" y="297" type="curve"/>
      <point x="414" y="288"/>
      <point x="463" y="216"/>
      <point x="463" y="151" type="curve" smooth="yes"/>
      <point x="463" y="59"/>
      <point x="380" y="-13"/>
      <point x="246" y="-13" type="curve" smooth="yes"/>
      <point x="72" y="-13"/>
      <point x="27" y="151"/>
    </contour>
    <contour>
      <point x="463" y="-13" type="line"/>
      <point x="463" y="746" type="line"/>
      <point x="27" y="746" type="line"/>
    </contour>
  </outline>
  <lib>
    <dict>
      <key>com.fontlab.hintData</key>
      <dict>
        <key>hhints</key>
        <array>
          <dict>
            <key>position</key>
            <integer>-13</integer>
            <key>width</key>
            <integer>68</integer>
          </dict>
          <dict>
            <key>position</key>
            <integer>255</integer>
            <key>width</key>
            <integer>73</integer>
          </dict>
          <dict>
            <key>position</key>
            <integer>492</integer>
            <key>width</key>
            <integer>68</integer>
          </dict>
          <dict>
            <key>position</key>
            <integer>620</integer>
            <key>width</key>
            <integer>126</integer>
          </dict>
        </array>
        <key>vhints</key>
        <array>
          <dict>
            <key>position</key>
            <integer>136</integer>
            <key>width</key>
            <integer>74</integer>
          </dict>
          <dict>
            <key>position</key>
            <integer>283</integer>
            <key>width</key>
            <integer>74</integer>
          </dict>
          <dict>
            <key>position</key>
            <integer>352</integer>
            <key>width</key>
            <integer>67</integer>
          </dict>
          <dict>
            <key>position</key>
            <integer>393</integer>
            <key>width</key>
            <integer>70</integer>
          </dict>
        </array>
      </dict>
    </dict>
  </lib>
</glyph>
