<?xml version="1.0" encoding="UTF-8"?>
<glyph name="two" format="1">
  <advance width="556"/>
  <unicode hex="0032"/>
  <outline>
    <contour>
      <point x="505" y="216" type="line"/>
      <point x="486" y="0" type="line"/>
      <point x="35" y="0" type="line"/>
      <point x="35" y="28" type="line"/>
      <point x="79" y="86"/>
      <point x="97" y="109"/>
      <point x="133" y="151" type="curve"/>
      <point x="211" y="235" type="line"/>
      <point x="270" y="297" type="line" smooth="yes"/>
      <point x="353" y="385"/>
      <point x="388" y="452"/>
      <point x="388" y="526" type="curve" smooth="yes"/>
      <point x="388" y="610"/>
      <point x="338" y="661"/>
      <point x="256" y="661" type="curve" smooth="yes"/>
      <point x="209" y="661"/>
      <point x="167" y="643"/>
      <point x="142" y="613" type="curve" smooth="yes"/>
      <point x="128" y="596"/>
      <point x="118" y="573"/>
      <point x="118" y="558" type="curve" smooth="yes"/>
      <point x="118" y="545"/>
      <point x="120" y="544"/>
      <point x="157" y="528" type="curve" smooth="yes"/>
      <point x="179" y="519"/>
      <point x="193" y="496"/>
      <point x="193" y="471" type="curve" smooth="yes"/>
      <point x="193" y="435"/>
      <point x="168" y="410"/>
      <point x="131" y="410" type="curve" smooth="yes"/>
      <point x="83" y="410"/>
      <point x="51" y="453"/>
      <point x="51" y="516" type="curve" smooth="yes"/>
      <point x="51" y="622"/>
      <point x="149" y="704"/>
      <point x="276" y="704" type="curve" smooth="yes"/>
      <point x="406" y="704"/>
      <point x="501" y="622"/>
      <point x="501" y="509" type="curve" smooth="yes"/>
      <point x="501" y="461"/>
      <point x="485" y="416"/>
      <point x="453" y="372" type="curve" smooth="yes"/>
      <point x="430" y="342"/>
      <point x="391" y="307"/>
      <point x="300" y="237" type="curve" smooth="yes"/>
      <point x="236" y="187"/>
      <point x="213" y="166"/>
      <point x="144" y="94" type="curve"/>
      <point x="368" y="94" type="line" smooth="yes"/>
      <point x="430" y="94"/>
      <point x="438" y="101"/>
      <point x="451" y="165" type="curve" smooth="yes"/>
      <point x="461" y="216" type="line"/>
    </contour>
  </outline>
  <lib>
    <dict>
      <key>com.fontlab.hintData</key>
      <dict>
	<key>hhints</key>
	<array>
	  <dict>
	    <key>position</key>	    <integer>0</integer>
	    <key>width</key>	    <integer>94</integer>
	  </dict>
	  <dict>
	    <key>position</key>	    <integer>661</integer>
	    <key>width</key>	    <integer>43</integer>
	  </dict>
	</array>
	<key>vhints</key>
	<array>
	  <dict>
	    <key>position</key>
	    <integer>51</integer>
	    <key>width</key>
	    <integer>67</integer>
	  </dict>
	  <dict>
	    <key>position</key>
	    <integer>388</integer>
	    <key>width</key>
	    <integer>113</integer>
	  </dict>
	</array>
      </dict>
    </dict>
  </lib>
</glyph>
