<?xml version="1.0" encoding="UTF-8"?>
<glyph name="Ubreve" format="1">
  <advance width="815"/>
  <unicode hex="016C"/>
  <outline>
    <contour>
      <point x="514" y="979" type="curve"/>
      <point x="550" y="979" type="line"/>
      <point x="550" y="965" type="line" smooth="yes"/>
      <point x="550" y="884"/>
      <point x="488" y="822"/>
      <point x="408" y="822" type="curve" smooth="yes"/>
      <point x="326" y="822"/>
      <point x="266" y="884"/>
      <point x="266" y="966" type="curve" smooth="yes"/>
      <point x="266" y="979" type="line"/>
      <point x="302" y="979" type="line"/>
      <point x="308" y="919"/>
      <point x="346" y="884"/>
      <point x="408" y="884" type="curve" smooth="yes"/>
      <point x="470" y="884"/>
      <point x="508" y="919"/>
    </contour>
    <contour>
      <point x="683" y="505" type="curve" smooth="yes"/>
      <point x="683" y="278" type="line" smooth="yes"/>
      <point x="683" y="189"/>
      <point x="671" y="136"/>
      <point x="639" y="90" type="curve" smooth="yes"/>
      <point x="591" y="19"/>
      <point x="513" y="-15"/>
      <point x="400" y="-15" type="curve" smooth="yes"/>
      <point x="287" y="-15"/>
      <point x="199" y="22"/>
      <point x="153" y="88" type="curve" smooth="yes"/>
      <point x="134" y="116"/>
      <point x="126" y="148"/>
      <point x="123" y="201" type="curve"/>
      <point x="123" y="270" type="line"/>
      <point x="123" y="599" type="line"/>
      <point x="123" y="628" type="line" smooth="yes"/>
      <point x="123" y="670"/>
      <point x="114" y="675"/>
      <point x="34" y="675" type="curve" smooth="yes"/>
      <point x="17" y="675" type="line"/>
      <point x="17" y="722" type="line"/>
      <point x="344" y="722" type="line"/>
      <point x="344" y="675" type="line"/>
      <point x="325" y="675" type="line" smooth="yes"/>
      <point x="244" y="675"/>
      <point x="235" y="670"/>
      <point x="235" y="628" type="curve" smooth="yes"/>
      <point x="235" y="599" type="line"/>
      <point x="235" y="264" type="line" smooth="yes"/>
      <point x="235" y="171"/>
      <point x="240" y="147"/>
      <point x="267" y="110" type="curve" smooth="yes"/>
      <point x="300" y="65"/>
      <point x="359" y="39"/>
      <point x="427" y="39" type="curve" smooth="yes"/>
      <point x="508" y="39"/>
      <point x="573" y="75"/>
      <point x="605" y="137" type="curve" smooth="yes"/>
      <point x="624" y="172"/>
      <point x="629" y="204"/>
      <point x="629" y="284" type="curve" smooth="yes"/>
      <point x="629" y="505" type="line" smooth="yes"/>
      <point x="629" y="642"/>
      <point x="609" y="671"/>
      <point x="514" y="675" type="curve"/>
      <point x="514" y="722" type="line"/>
      <point x="799" y="722" type="line"/>
      <point x="799" y="675" type="line"/>
      <point x="703" y="671"/>
      <point x="683" y="642"/>
    </contour>
  </outline>
  <lib>
    <dict>
      <key>com.fontlab.hintData</key>
      <dict>
	<key>hhints</key>
	<array>
	  <dict>
	    <key>position</key>	    <integer>-15</integer>
	    <key>width</key>	    <integer>54</integer>
	  </dict>
	  <dict>
	    <key>position</key>	    <integer>675</integer>
	    <key>width</key>	    <integer>47</integer>
	  </dict>
	  <dict>
	    <key>position</key>	    <integer>822</integer>
	    <key>width</key>	    <integer>62</integer>
	  </dict>
	</array>
	<key>vhints</key>
	<array>
	  <dict>
	    <key>position</key>
	    <integer>123</integer>
	    <key>width</key>
	    <integer>112</integer>
	  </dict>
	  <dict>
	    <key>position</key>
	    <integer>266</integer>
	    <key>width</key>
	    <integer>36</integer>
	  </dict>
	  <dict>
	    <key>position</key>
	    <integer>514</integer>
	    <key>width</key>
	    <integer>36</integer>
	  </dict>
	  <dict>
	    <key>position</key>
	    <integer>629</integer>
	    <key>width</key>
	    <integer>54</integer>
	  </dict>
	</array>
      </dict>
    </dict>
  </lib>
</glyph>
