<?xml version="1.0" encoding="UTF-8"?>
<glyph name="afii10057" format="1">
  <advance width="600"/>
  <unicode hex="0408"/>
  <outline>
    <contour>
      <point x="200" y="720" type="curve" smooth="yes"/>
      <point x="233" y="720"/>
      <point x="257" y="694"/>
      <point x="257" y="660" type="curve" smooth="yes"/>
      <point x="257" y="629"/>
      <point x="231" y="604"/>
      <point x="200" y="604" type="curve" smooth="yes"/>
      <point x="167" y="604"/>
      <point x="141" y="629"/>
      <point x="141" y="660" type="curve" smooth="yes"/>
      <point x="141" y="694"/>
      <point x="167" y="720"/>
    </contour>
    <contour>
      <point x="400" y="720" type="curve" smooth="yes"/>
      <point x="434" y="720"/>
      <point x="459" y="694"/>
      <point x="459" y="660" type="curve" smooth="yes"/>
      <point x="459" y="629"/>
      <point x="432" y="604"/>
      <point x="400" y="604" type="curve" smooth="yes"/>
      <point x="369" y="604"/>
      <point x="341" y="629"/>
      <point x="341" y="660" type="curve" smooth="yes"/>
      <point x="341" y="694"/>
      <point x="369" y="720"/>
    </contour>
    <contour>
      <point x="348" y="468" type="line"/>
      <point x="348" y="97" type="line"/>
      <point x="446" y="97" type="line" smooth="yes"/>
      <point x="472" y="97"/>
      <point x="479" y="95"/>
      <point x="489" y="88" type="curve" smooth="yes"/>
      <point x="503" y="78"/>
      <point x="510" y="64"/>
      <point x="510" y="48" type="curve" smooth="yes"/>
      <point x="510" y="16"/>
      <point x="489" y="0"/>
      <point x="446" y="0" type="curve" smooth="yes"/>
      <point x="153" y="0" type="line" smooth="yes"/>
      <point x="130" y="0"/>
      <point x="118" y="2"/>
      <point x="110" y="9" type="curve" smooth="yes"/>
      <point x="97" y="19"/>
      <point x="90" y="34"/>
      <point x="90" y="48" type="curve" smooth="yes"/>
      <point x="90" y="65"/>
      <point x="98" y="81"/>
      <point x="113" y="90" type="curve"/>
      <point x="122" y="97"/>
      <point x="128" y="97"/>
      <point x="153" y="97" type="curve" smooth="yes"/>
      <point x="251" y="97" type="line"/>
      <point x="251" y="468" type="line"/>
      <point x="153" y="468" type="line" smooth="yes"/>
      <point x="129" y="468"/>
      <point x="118" y="470"/>
      <point x="110" y="477" type="curve" smooth="yes"/>
      <point x="97" y="487"/>
      <point x="90" y="501"/>
      <point x="90" y="516" type="curve" smooth="yes"/>
      <point x="90" y="533"/>
      <point x="98" y="549"/>
      <point x="113" y="558" type="curve"/>
      <point x="122" y="565"/>
      <point x="128" y="565"/>
      <point x="153" y="565" type="curve" smooth="yes"/>
      <point x="446" y="565" type="line" smooth="yes"/>
      <point x="472" y="565"/>
      <point x="479" y="563"/>
      <point x="489" y="556" type="curve" smooth="yes"/>
      <point x="503" y="546"/>
      <point x="510" y="532"/>
      <point x="510" y="516" type="curve" smooth="yes"/>
      <point x="510" y="500"/>
      <point x="501" y="484"/>
      <point x="486" y="474" type="curve" smooth="yes"/>
      <point x="479" y="470"/>
      <point x="469" y="468"/>
      <point x="446" y="468" type="curve" smooth="yes"/>
    </contour>
  </outline>
  <lib>
    <dict>
      <key>com.fontlab.hintData</key>
      <dict>
	<key>hhints</key>
	<array>
	  <dict>
	    <key>position</key>	    <integer>0</integer>
	    <key>width</key>	    <integer>97</integer>
	  </dict>
	  <dict>
	    <key>position</key>	    <integer>468</integer>
	    <key>width</key>	    <integer>97</integer>
	  </dict>
	  <dict>
	    <key>position</key>	    <integer>604</integer>
	    <key>width</key>	    <integer>116</integer>
	  </dict>
	</array>
	<key>vhints</key>
	<array>
	  <dict>
	    <key>position</key>
	    <integer>141</integer>
	    <key>width</key>
	    <integer>116</integer>
	  </dict>
	  <dict>
	    <key>position</key>
	    <integer>251</integer>
	    <key>width</key>
	    <integer>97</integer>
	  </dict>
	  <dict>
	    <key>position</key>
	    <integer>341</integer>
	    <key>width</key>
	    <integer>118</integer>
	  </dict>
	</array>
      </dict>
    </dict>
  </lib>
</glyph>
