<?xml version="1.0" encoding="UTF-8"?>
<glyph name="sterling" format="1">
  <advance width="600"/>
  <unicode hex="00A3"/>
  <outline>
    <contour>
      <point x="314" y="243" type="curve" smooth="yes"/>
      <point x="269" y="243" type="line"/>
      <point x="270" y="231"/>
      <point x="270" y="221"/>
      <point x="270" y="216" type="curve" smooth="yes"/>
      <point x="270" y="172"/>
      <point x="264" y="142"/>
      <point x="247" y="100" type="curve"/>
      <point x="450" y="100" type="line"/>
      <point x="454" y="130"/>
      <point x="471" y="146"/>
      <point x="499" y="146" type="curve" smooth="yes"/>
      <point x="530" y="146"/>
      <point x="550" y="124"/>
      <point x="550" y="90" type="curve" smooth="yes"/>
      <point x="550" y="32"/>
      <point x="512" y="0"/>
      <point x="442" y="0" type="curve" smooth="yes"/>
      <point x="121" y="0" type="line" smooth="yes"/>
      <point x="98" y="0"/>
      <point x="85" y="3"/>
      <point x="76" y="10" type="curve" smooth="yes"/>
      <point x="63" y="19"/>
      <point x="55" y="35"/>
      <point x="55" y="51" type="curve" smooth="yes"/>
      <point x="55" y="78"/>
      <point x="70" y="93"/>
      <point x="105" y="100" type="curve" smooth="yes"/>
      <point x="130" y="105"/>
      <point x="141" y="113"/>
      <point x="150" y="132" type="curve" smooth="yes"/>
      <point x="163" y="157"/>
      <point x="169" y="188"/>
      <point x="169" y="224" type="curve" smooth="yes"/>
      <point x="169" y="227"/>
      <point x="169" y="235"/>
      <point x="168" y="243" type="curve"/>
      <point x="99" y="243" type="line" smooth="yes"/>
      <point x="74" y="243"/>
      <point x="63" y="245"/>
      <point x="54" y="252" type="curve" smooth="yes"/>
      <point x="41" y="262"/>
      <point x="33" y="277"/>
      <point x="33" y="293" type="curve" smooth="yes"/>
      <point x="33" y="310"/>
      <point x="42" y="327"/>
      <point x="57" y="336" type="curve" smooth="yes"/>
      <point x="66" y="342"/>
      <point x="74" y="343"/>
      <point x="99" y="343" type="curve" smooth="yes"/>
      <point x="143" y="343" type="line"/>
      <point x="131" y="379"/>
      <point x="126" y="403"/>
      <point x="126" y="432" type="curve" smooth="yes"/>
      <point x="126" y="529"/>
      <point x="198" y="598"/>
      <point x="299" y="598" type="curve" smooth="yes"/>
      <point x="377" y="598"/>
      <point x="457" y="546"/>
      <point x="457" y="495" type="curve" smooth="yes"/>
      <point x="457" y="467"/>
      <point x="435" y="444"/>
      <point x="408" y="444" type="curve" smooth="yes"/>
      <point x="389" y="444"/>
      <point x="384" y="447"/>
      <point x="361" y="472" type="curve" smooth="yes"/>
      <point x="345" y="490"/>
      <point x="325" y="498"/>
      <point x="298" y="498" type="curve" smooth="yes"/>
      <point x="257" y="498"/>
      <point x="226" y="472"/>
      <point x="226" y="437" type="curve" smooth="yes"/>
      <point x="226" y="416"/>
      <point x="226" y="414"/>
      <point x="246" y="343" type="curve"/>
      <point x="314" y="343" type="line" smooth="yes"/>
      <point x="341" y="343"/>
      <point x="350" y="341"/>
      <point x="360" y="334" type="curve" smooth="yes"/>
      <point x="373" y="324"/>
      <point x="381" y="309"/>
      <point x="381" y="293" type="curve" smooth="yes"/>
      <point x="381" y="276"/>
      <point x="372" y="260"/>
      <point x="357" y="250" type="curve" smooth="yes"/>
      <point x="348" y="245"/>
      <point x="338" y="243"/>
    </contour>
  </outline>
  <lib>
    <dict>
      <key>com.fontlab.hintData</key>
      <dict>
	<key>hhints</key>
	<array>
	  <dict>
	    <key>position</key>	    <integer>0</integer>
	    <key>width</key>	    <integer>100</integer>
	  </dict>
	  <dict>
	    <key>position</key>	    <integer>243</integer>
	    <key>width</key>	    <integer>100</integer>
	  </dict>
	  <dict>
	    <key>position</key>	    <integer>424</integer>
	    <key>width</key>	    <integer>20</integer>
	  </dict>
	  <dict>
	    <key>position</key>	    <integer>498</integer>
	    <key>width</key>	    <integer>100</integer>
	  </dict>
	</array>
	<key>vhints</key>
	<array>
	  <dict>
	    <key>position</key>
	    <integer>126</integer>
	    <key>width</key>
	    <integer>100</integer>
	  </dict>
	  <dict>
	    <key>position</key>
	    <integer>169</integer>
	    <key>width</key>
	    <integer>101</integer>
	  </dict>
	</array>
      </dict>
    </dict>
  </lib>
</glyph>
