<?xml version="1.0" encoding="UTF-8"?>
<glyph name="gcircumflex" format="1">
  <advance width="500"/>
  <unicode hex="011D"/>
  <outline>
    <contour>
      <point x="367" y="511" type="line"/>
      <point x="255" y="609" type="line"/>
      <point x="143" y="511" type="line"/>
      <point x="87" y="511" type="line"/>
      <point x="209" y="687" type="line"/>
      <point x="301" y="687" type="line"/>
      <point x="424" y="511" type="line"/>
    </contour>
    <contour>
      <point x="482" y="398" type="line"/>
      <point x="401" y="398" type="line"/>
      <point x="429" y="370"/>
      <point x="441" y="340"/>
      <point x="441" y="300" type="curve" smooth="yes"/>
      <point x="441" y="247"/>
      <point x="418" y="206"/>
      <point x="373" y="180" type="curve" smooth="yes"/>
      <point x="339" y="160"/>
      <point x="314" y="154"/>
      <point x="267" y="154" type="curve"/>
      <point x="222" y="155" type="line" smooth="yes"/>
      <point x="182" y="155"/>
      <point x="154" y="133"/>
      <point x="154" y="103" type="curve" smooth="yes"/>
      <point x="154" y="75"/>
      <point x="174" y="68"/>
      <point x="254" y="68" type="curve" smooth="yes"/>
      <point x="319" y="68" type="line" smooth="yes"/>
      <point x="421" y="68"/>
      <point x="483" y="22"/>
      <point x="483" y="-55" type="curve" smooth="yes"/>
      <point x="483" y="-154"/>
      <point x="395" y="-206"/>
      <point x="229" y="-206" type="curve" smooth="yes"/>
      <point x="103" y="-206"/>
      <point x="28" y="-172"/>
      <point x="28" y="-114" type="curve" smooth="yes"/>
      <point x="28" y="-73"/>
      <point x="61" y="-48"/>
      <point x="124" y="-39" type="curve"/>
      <point x="60" y="-16"/>
      <point x="42" y="2"/>
      <point x="42" y="43" type="curve" smooth="yes"/>
      <point x="42" y="95"/>
      <point x="82" y="133"/>
      <point x="161" y="160" type="curve"/>
      <point x="114" y="180"/>
      <point x="95" y="193"/>
      <point x="73" y="217" type="curve"/>
      <point x="50" y="245"/>
      <point x="37" y="278"/>
      <point x="37" y="312" type="curve" smooth="yes"/>
      <point x="37" y="407"/>
      <point x="121" y="473"/>
      <point x="240" y="473" type="curve" smooth="yes"/>
      <point x="280" y="473"/>
      <point x="308" y="467"/>
      <point x="352" y="451" type="curve"/>
      <point x="482" y="451" type="line"/>
    </contour>
    <contour>
      <point x="324" y="-52" type="curve" smooth="yes"/>
      <point x="151" y="-52" type="line"/>
      <point x="123" y="-75"/>
      <point x="116" y="-86"/>
      <point x="116" y="-107" type="curve" smooth="yes"/>
      <point x="116" y="-151"/>
      <point x="162" y="-174"/>
      <point x="250" y="-174" type="curve" smooth="yes"/>
      <point x="349" y="-174"/>
      <point x="404" y="-148"/>
      <point x="404" y="-102" type="curve" smooth="yes"/>
      <point x="404" y="-69"/>
      <point x="378" y="-52"/>
    </contour>
    <contour>
      <point x="240" y="442" type="curve" smooth="yes"/>
      <point x="193" y="442"/>
      <point x="174" y="405"/>
      <point x="174" y="311" type="curve" smooth="yes"/>
      <point x="174" y="218"/>
      <point x="192" y="182"/>
      <point x="240" y="182" type="curve" smooth="yes"/>
      <point x="287" y="182"/>
      <point x="306" y="218"/>
      <point x="306" y="311" type="curve" smooth="yes"/>
      <point x="306" y="404"/>
      <point x="287" y="442"/>
    </contour>
  </outline>
  <lib>
    <dict>
      <key>com.fontlab.hintData</key>
      <dict>
	<key>hhints</key>
	<array>
	  <dict>
	    <key>position</key>	    <integer>-206</integer>
	    <key>width</key>	    <integer>32</integer>
	  </dict>
	  <dict>
	    <key>position</key>	    <integer>-52</integer>
	    <key>width</key>	    <integer>120</integer>
	  </dict>
	  <dict>
	    <key>position</key>	    <integer>154</integer>
	    <key>width</key>	    <integer>28</integer>
	  </dict>
	  <dict>
	    <key>position</key>	    <integer>398</integer>
	    <key>width</key>	    <integer>53</integer>
	  </dict>
	  <dict>
	    <key>position</key>	    <integer>442</integer>
	    <key>width</key>	    <integer>31</integer>
	  </dict>
	  <dict>
	    <key>position</key>	    <integer>667</integer>
	    <key>width</key>	    <integer>20</integer>
	  </dict>
	</array>
	<key>vhints</key>
	<array>
	  <dict>
	    <key>position</key>
	    <integer>28</integer>
	    <key>width</key>
	    <integer>88</integer>
	  </dict>
	  <dict>
	    <key>position</key>
	    <integer>37</integer>
	    <key>width</key>
	    <integer>137</integer>
	  </dict>
	  <dict>
	    <key>position</key>
	    <integer>42</integer>
	    <key>width</key>
	    <integer>112</integer>
	  </dict>
	  <dict>
	    <key>position</key>
	    <integer>306</integer>
	    <key>width</key>
	    <integer>135</integer>
	  </dict>
	  <dict>
	    <key>position</key>
	    <integer>404</integer>
	    <key>width</key>
	    <integer>79</integer>
	  </dict>
	</array>
      </dict>
    </dict>
  </lib>
</glyph>
