<?xml version="1.0" encoding="UTF-8"?>
<glyph name="Ntilde" format="1">
  <advance width="722"/>
  <unicode hex="00D1"/>
  <outline>
    <contour>
      <point x="230" y="676" type="line"/>
      <point x="579" y="247" type="line"/>
      <point x="579" y="552" type="line" smooth="yes"/>
      <point x="579" y="623"/>
      <point x="560" y="644"/>
      <point x="486" y="651" type="curve"/>
      <point x="486" y="676" type="line"/>
      <point x="701" y="676" type="line"/>
      <point x="701" y="651" type="line"/>
      <point x="636" y="641"/>
      <point x="623" y="628"/>
      <point x="623" y="571" type="curve" smooth="yes"/>
      <point x="623" y="-18" type="line"/>
      <point x="595" y="-18" type="line"/>
      <point x="148" y="526" type="line"/>
      <point x="148" y="124" type="line" smooth="yes"/>
      <point x="148" y="53"/>
      <point x="166" y="34"/>
      <point x="243" y="25" type="curve"/>
      <point x="243" y="0" type="line"/>
      <point x="16" y="0" type="line"/>
      <point x="16" y="25" type="line"/>
      <point x="89" y="34"/>
      <point x="104" y="48"/>
      <point x="104" y="105" type="curve" smooth="yes"/>
      <point x="104" y="579" type="line"/>
      <point x="56" y="636"/>
      <point x="39" y="651"/>
      <point x="19" y="651" type="curve"/>
      <point x="19" y="676" type="line"/>
    </contour>
    <contour>
      <point x="214" y="759" type="curve"/>
      <point x="172" y="759" type="line"/>
      <point x="190" y="845"/>
      <point x="226" y="884"/>
      <point x="288" y="884" type="curve" smooth="yes"/>
      <point x="309" y="884"/>
      <point x="333" y="878"/>
      <point x="361" y="865" type="curve" smooth="yes"/>
      <point x="401" y="847" type="line" smooth="yes"/>
      <point x="425" y="836"/>
      <point x="429" y="835"/>
      <point x="440" y="835" type="curve" smooth="yes"/>
      <point x="467" y="835"/>
      <point x="481" y="848"/>
      <point x="494" y="884" type="curve"/>
      <point x="537" y="884" type="line"/>
      <point x="514" y="797"/>
      <point x="477" y="757"/>
      <point x="420" y="757" type="curve" smooth="yes"/>
      <point x="400" y="757"/>
      <point x="375" y="763"/>
      <point x="356" y="771" type="curve" smooth="yes"/>
      <point x="327" y="784" type="line" smooth="yes"/>
      <point x="284" y="803"/>
      <point x="276" y="806"/>
      <point x="263" y="806" type="curve" smooth="yes"/>
      <point x="237" y="806"/>
      <point x="218" y="787"/>
    </contour>
  </outline>
  <lib>
    <dict>
      <key>com.fontlab.hintData</key>
      <dict>
	<key>hhints</key>
	<array>
	  <dict>
	    <key>position</key>	    <integer>-18</integer>
	    <key>width</key>	    <integer>20</integer>
	  </dict>
	  <dict>
	    <key>position</key>	    <integer>0</integer>
	    <key>width</key>	    <integer>25</integer>
	  </dict>
	  <dict>
	    <key>position</key>	    <integer>651</integer>
	    <key>width</key>	    <integer>25</integer>
	  </dict>
	  <dict>
	    <key>position</key>	    <integer>757</integer>
	    <key>width</key>	    <integer>78</integer>
	  </dict>
	  <dict>
	    <key>position</key>	    <integer>806</integer>
	    <key>width</key>	    <integer>78</integer>
	  </dict>
	</array>
	<key>vhints</key>
	<array>
	  <dict>
	    <key>position</key>
	    <integer>104</integer>
	    <key>width</key>
	    <integer>44</integer>
	  </dict>
	  <dict>
	    <key>position</key>
	    <integer>579</integer>
	    <key>width</key>
	    <integer>44</integer>
	  </dict>
	</array>
      </dict>
    </dict>
  </lib>
</glyph>
