<?xml version="1.0" encoding="UTF-8"?>
<glyph name="u" format="1">
  <advance width="556"/>
  <unicode hex="0075"/>
  <outline>
    <contour>
      <point x="343" y="-13" type="curve"/>
      <point x="343" y="52" type="line"/>
      <point x="285" y="2"/>
      <point x="250" y="-14"/>
      <point x="198" y="-14" type="curve" smooth="yes"/>
      <point x="115" y="-14"/>
      <point x="65" y="38"/>
      <point x="65" y="126" type="curve" smooth="yes"/>
      <point x="65" y="378" type="line" smooth="yes"/>
      <point x="65" y="420"/>
      <point x="57" y="429"/>
      <point x="16" y="437" type="curve"/>
      <point x="16" y="461" type="line"/>
      <point x="204" y="461" type="line"/>
      <point x="204" y="122" type="line" smooth="yes"/>
      <point x="204" y="71"/>
      <point x="219" y="51"/>
      <point x="260" y="51" type="curve" smooth="yes"/>
      <point x="288" y="51"/>
      <point x="309" y="62"/>
      <point x="342" y="95" type="curve"/>
      <point x="342" y="378" type="line" smooth="yes"/>
      <point x="342" y="421"/>
      <point x="330" y="433"/>
      <point x="280" y="437" type="curve"/>
      <point x="280" y="461" type="line"/>
      <point x="481" y="461" type="line"/>
      <point x="481" y="101" type="line" smooth="yes"/>
      <point x="481" y="58"/>
      <point x="493" y="45"/>
      <point x="537" y="43" type="curve"/>
      <point x="537" y="20" type="line"/>
      <point x="475" y="13" type="line" smooth="yes"/>
      <point x="410" y="6"/>
      <point x="386" y="2"/>
    </contour>
  </outline>
  <lib>
    <dict>
      <key>com.fontlab.hintData</key>
      <dict>
	<key>hhints</key>
	<array>
	  <dict>
	    <key>position</key>	    <integer>-14</integer>
	    <key>width</key>	    <integer>65</integer>
	  </dict>
	  <dict>
	    <key>position</key>	    <integer>20</integer>
	    <key>width</key>	    <integer>23</integer>
	  </dict>
	  <dict>
	    <key>position</key>	    <integer>437</integer>
	    <key>width</key>	    <integer>24</integer>
	  </dict>
	</array>
	<key>vhints</key>
	<array>
	  <dict>
	    <key>position</key>
	    <integer>65</integer>
	    <key>width</key>
	    <integer>139</integer>
	  </dict>
	  <dict>
	    <key>position</key>
	    <integer>342</integer>
	    <key>width</key>
	    <integer>139</integer>
	  </dict>
	</array>
      </dict>
    </dict>
  </lib>
</glyph>
