<?xml version="1.0" encoding="UTF-8"?>
<glyph name="uni04B9" format="1">
  <advance width="556"/>
  <unicode hex="04B9"/>
  <outline>
    <contour>
      <point x="304" y="24" type="line"/>
      <point x="338" y="28"/>
      <point x="351" y="44"/>
      <point x="351" y="81" type="curve"/>
      <point x="353" y="81" type="line"/>
      <point x="353" y="182" type="line"/>
      <point x="339" y="173"/>
      <point x="325" y="167"/>
      <point x="307" y="163" type="curve"/>
      <point x="307" y="79" type="line"/>
      <point x="255" y="79" type="line"/>
      <point x="255" y="156" type="line"/>
      <point x="244" y="155"/>
      <point x="232" y="155"/>
      <point x="220" y="155" type="curve" smooth="yes"/>
      <point x="150" y="156"/>
      <point x="74" y="185"/>
      <point x="74" y="251" type="curve" smooth="yes"/>
      <point x="74" y="380" type="line" smooth="yes"/>
      <point x="74" y="417"/>
      <point x="61" y="433"/>
      <point x="27" y="437" type="curve"/>
      <point x="27" y="461" type="line"/>
      <point x="262" y="461" type="line"/>
      <point x="262" y="437" type="line"/>
      <point x="223" y="434"/>
      <point x="213" y="422"/>
      <point x="213" y="380" type="curve" smooth="yes"/>
      <point x="213" y="224" type="line"/>
      <point x="214" y="210"/>
      <point x="233" y="202"/>
      <point x="255" y="198" type="curve"/>
      <point x="255" y="287" type="line"/>
      <point x="307" y="287" type="line"/>
      <point x="307" y="199" type="line"/>
      <point x="331" y="206"/>
      <point x="353" y="222"/>
      <point x="353" y="222" type="curve"/>
      <point x="353" y="380" type="line" smooth="yes"/>
      <point x="353" y="422"/>
      <point x="343" y="434"/>
      <point x="304" y="437" type="curve"/>
      <point x="304" y="461" type="line"/>
      <point x="539" y="461" type="line"/>
      <point x="539" y="437" type="line"/>
      <point x="500" y="434"/>
      <point x="490" y="422"/>
      <point x="490" y="380" type="curve" smooth="yes"/>
      <point x="490" y="81" type="line" smooth="yes"/>
      <point x="490" y="39"/>
      <point x="500" y="27"/>
      <point x="539" y="24" type="curve"/>
      <point x="539" y="0" type="line"/>
      <point x="304" y="0" type="line"/>
    </contour>
  </outline>
  <lib>
    <dict>
      <key>com.fontlab.hintData</key>
      <dict>
	<key>hhints</key>
	<array>
	  <dict>
	    <key>position</key>	    <integer>0</integer>
	    <key>width</key>	    <integer>24</integer>
	  </dict>
	  <dict>
	    <key>position</key>	    <integer>437</integer>
	    <key>width</key>	    <integer>24</integer>
	  </dict>
	</array>
	<key>vhints</key>
	<array>
	  <dict>
	    <key>position</key>
	    <integer>74</integer>
	    <key>width</key>
	    <integer>139</integer>
	  </dict>
	  <dict>
	    <key>position</key>
	    <integer>255</integer>
	    <key>width</key>
	    <integer>52</integer>
	  </dict>
	  <dict>
	    <key>position</key>
	    <integer>351</integer>
	    <key>width</key>
	    <integer>139</integer>
	  </dict>
	</array>
      </dict>
    </dict>
  </lib>
</glyph>
