<?xml version="1.0" encoding="UTF-8"?>
<glyph name="uni04B4" format="1">
  <advance width="1046"/>
  <unicode hex="04B4"/>
  <outline>
    <contour>
      <point x="415" y="644" type="curve"/>
      <point x="415" y="47" type="line"/>
      <point x="777" y="47" type="line"/>
      <point x="777" y="580" type="line" smooth="yes"/>
      <point x="777" y="629"/>
      <point x="760" y="643"/>
      <point x="687" y="651" type="curve"/>
      <point x="687" y="676" type="line"/>
      <point x="1027" y="676" type="line"/>
      <point x="1027" y="651" type="line"/>
      <point x="955" y="642"/>
      <point x="939" y="629"/>
      <point x="939" y="580" type="curve" smooth="yes"/>
      <point x="939" y="105" type="line" smooth="yes"/>
      <point x="939" y="55"/>
      <point x="959" y="39"/>
      <point x="1027" y="34" type="curve"/>
      <point x="1027" y="-167" type="line"/>
      <point x="1003" y="-167" type="line"/>
      <point x="989" y="-104"/>
      <point x="978" y="-77"/>
      <point x="956" y="-52" type="curve" smooth="yes"/>
      <point x="925" y="-17"/>
      <point x="866" y="0"/>
      <point x="774" y="0" type="curve" smooth="yes"/>
      <point x="168" y="0" type="line"/>
      <point x="168" y="25" type="line"/>
      <point x="235" y="31"/>
      <point x="253" y="46"/>
      <point x="253" y="96" type="curve" smooth="yes"/>
      <point x="253" y="644" type="line"/>
      <point x="129" y="640"/>
      <point x="77" y="594"/>
      <point x="60" y="475" type="curve"/>
      <point x="31" y="475" type="line"/>
      <point x="34" y="676" type="line"/>
      <point x="634" y="676" type="line"/>
      <point x="636" y="475" type="line"/>
      <point x="607" y="475" type="line"/>
      <point x="590" y="594"/>
      <point x="538" y="640"/>
    </contour>
  </outline>
  <lib>
    <dict>
      <key>com.fontlab.hintData</key>
      <dict>
	<key>hhints</key>
	<array>
	  <dict>
	    <key>position</key>	    <integer>0</integer>
	    <key>width</key>	    <integer>25</integer>
	  </dict>
	  <dict>
	    <key>position</key>	    <integer>0</integer>
	    <key>width</key>	    <integer>47</integer>
	  </dict>
	  <dict>
	    <key>position</key>	    <integer>475</integer>
	    <key>width</key>	    <integer>21</integer>
	  </dict>
	  <dict>
	    <key>position</key>	    <integer>644</integer>
	    <key>width</key>	    <integer>32</integer>
	  </dict>
	  <dict>
	    <key>position</key>	    <integer>651</integer>
	    <key>width</key>	    <integer>25</integer>
	  </dict>
	</array>
	<key>vhints</key>
	<array>
	  <dict>
	    <key>position</key>
	    <integer>31</integer>
	    <key>width</key>
	    <integer>29</integer>
	  </dict>
	  <dict>
	    <key>position</key>
	    <integer>253</integer>
	    <key>width</key>
	    <integer>162</integer>
	  </dict>
	  <dict>
	    <key>position</key>
	    <integer>607</integer>
	    <key>width</key>
	    <integer>29</integer>
	  </dict>
	  <dict>
	    <key>position</key>
	    <integer>777</integer>
	    <key>width</key>
	    <integer>162</integer>
	  </dict>
	</array>
      </dict>
    </dict>
  </lib>
</glyph>
