<?xml version="1.0" encoding="UTF-8"?>
<glyph name="w" format="1">
  <advance width="722"/>
  <unicode hex="0077"/>
  <outline>
    <contour>
      <point x="707" y="461" type="line"/>
      <point x="707" y="437" type="line"/>
      <point x="681" y="432"/>
      <point x="673" y="424"/>
      <point x="657" y="387" type="curve"/>
      <point x="502" y="-14" type="line"/>
      <point x="479" y="-14" type="line"/>
      <point x="377" y="296" type="line"/>
      <point x="252" y="-14" type="line"/>
      <point x="228" y="-14" type="line"/>
      <point x="80" y="360" type="line" smooth="yes"/>
      <point x="53" y="426"/>
      <point x="49" y="432"/>
      <point x="23" y="437" type="curve"/>
      <point x="23" y="461" type="line"/>
      <point x="245" y="461" type="line"/>
      <point x="245" y="437" type="line"/>
      <point x="217" y="433"/>
      <point x="207" y="425"/>
      <point x="207" y="409" type="curve" smooth="yes"/>
      <point x="207" y="396"/>
      <point x="218" y="364"/>
      <point x="246" y="294" type="curve" smooth="yes"/>
      <point x="251" y="280"/>
      <point x="258" y="261"/>
      <point x="267" y="240" type="curve"/>
      <point x="291" y="176" type="line"/>
      <point x="359" y="347" type="line"/>
      <point x="353" y="366" type="line"/>
      <point x="334" y="432"/>
      <point x="333" y="433"/>
      <point x="294" y="437" type="curve"/>
      <point x="294" y="461" type="line"/>
      <point x="528" y="461" type="line"/>
      <point x="528" y="437" type="line"/>
      <point x="490" y="434"/>
      <point x="480" y="429"/>
      <point x="480" y="413" type="curve" smooth="yes"/>
      <point x="480" y="404"/>
      <point x="487" y="376"/>
      <point x="507" y="307" type="curve" smooth="yes"/>
      <point x="528" y="233"/>
      <point x="531" y="221"/>
      <point x="541" y="180" type="curve"/>
      <point x="553" y="214"/>
      <point x="561" y="235"/>
      <point x="576" y="274" type="curve" smooth="yes"/>
      <point x="607" y="353"/>
      <point x="620" y="390"/>
      <point x="620" y="402" type="curve" smooth="yes"/>
      <point x="620" y="425"/>
      <point x="609" y="433"/>
      <point x="572" y="437" type="curve"/>
      <point x="572" y="461" type="line"/>
    </contour>
  </outline>
  <lib>
    <dict>
      <key>com.fontlab.hintData</key>
      <dict>
	<key>hhints</key>
	<array>
	  <dict>
	    <key>position</key>	    <integer>-14</integer>
	    <key>width</key>	    <integer>20</integer>
	  </dict>
	  <dict>
	    <key>position</key>	    <integer>441</integer>
	    <key>width</key>	    <integer>20</integer>
	  </dict>
	</array>
      </dict>
    </dict>
  </lib>
</glyph>
