<?xml version="1.0" encoding="UTF-8"?>
<glyph name="onesuperior" format="1">
  <advance width="372"/>
  <unicode hex="00B9"/>
  <outline>
    <contour>
      <point x="225" y="681" type="line"/>
      <point x="225" y="359" type="line" smooth="yes"/>
      <point x="225" y="328"/>
      <point x="228" y="317"/>
      <point x="238" y="310" type="curve" smooth="yes"/>
      <point x="244" y="305"/>
      <point x="266" y="300"/>
      <point x="277" y="300" type="curve" smooth="yes"/>
      <point x="302" y="300" type="line"/>
      <point x="302" y="273" type="line"/>
      <point x="80" y="273" type="line"/>
      <point x="80" y="300" type="line"/>
      <point x="106" y="300" type="line" smooth="yes"/>
      <point x="119" y="300"/>
      <point x="143" y="308"/>
      <point x="151" y="316" type="curve" smooth="yes"/>
      <point x="157" y="321"/>
      <point x="158" y="330"/>
      <point x="158" y="361" type="curve" smooth="yes"/>
      <point x="158" y="585" type="line" smooth="yes"/>
      <point x="158" y="629"/>
      <point x="153" y="634"/>
      <point x="111" y="636" type="curve" smooth="yes"/>
      <point x="82" y="637" type="line"/>
      <point x="82" y="663" type="line"/>
      <point x="146" y="670"/>
      <point x="159" y="672"/>
      <point x="200" y="681" type="curve"/>
    </contour>
  </outline>
  <lib>
    <dict>
      <key>com.fontlab.hintData</key>
      <dict>
	<key>hhints</key>
	<array>
	  <dict>
	    <key>position</key>	    <integer>273</integer>
	    <key>width</key>	    <integer>27</integer>
	  </dict>
	  <dict>
	    <key>position</key>	    <integer>661</integer>
	    <key>width</key>	    <integer>20</integer>
	  </dict>
	</array>
	<key>vhints</key>
	<array>
	  <dict>
	    <key>position</key>
	    <integer>158</integer>
	    <key>width</key>
	    <integer>67</integer>
	  </dict>
	</array>
      </dict>
    </dict>
  </lib>
</glyph>
