<?xml version="1.0" encoding="UTF-8"?>
<glyph name="Udieresis" format="1">
  <advance width="780"/>
  <unicode hex="00DC"/>
  <outline>
    <contour>
      <point x="664" y="537" type="curve" smooth="yes"/>
      <point x="664" y="204" type="line" smooth="yes"/>
      <point x="664" y="137"/>
      <point x="652" y="97"/>
      <point x="622" y="63" type="curve" smooth="yes"/>
      <point x="575" y="10"/>
      <point x="506" y="-13"/>
      <point x="392" y="-13" type="curve" smooth="yes"/>
      <point x="309" y="-13"/>
      <point x="253" y="0"/>
      <point x="203" y="32" type="curve" smooth="yes"/>
      <point x="138" y="73"/>
      <point x="115" y="118"/>
      <point x="115" y="202" type="curve" smooth="yes"/>
      <point x="115" y="537" type="line" smooth="yes"/>
      <point x="115" y="619"/>
      <point x="102" y="640"/>
      <point x="50" y="647" type="curve" smooth="yes"/>
      <point x="25" y="650" type="line"/>
      <point x="25" y="681" type="line"/>
      <point x="317" y="681" type="line"/>
      <point x="317" y="650" type="line"/>
      <point x="280" y="647" type="line" smooth="yes"/>
      <point x="230" y="643"/>
      <point x="215" y="618"/>
      <point x="215" y="537" type="curve" smooth="yes"/>
      <point x="215" y="270" type="line" smooth="yes"/>
      <point x="215" y="179"/>
      <point x="221" y="141"/>
      <point x="239" y="109" type="curve" smooth="yes"/>
      <point x="265" y="61"/>
      <point x="325" y="35"/>
      <point x="407" y="35" type="curve" smooth="yes"/>
      <point x="481" y="35"/>
      <point x="539" y="55"/>
      <point x="570" y="91" type="curve" smooth="yes"/>
      <point x="599" y="125"/>
      <point x="607" y="164"/>
      <point x="607" y="272" type="curve" smooth="yes"/>
      <point x="607" y="537" type="line" smooth="yes"/>
      <point x="607" y="618"/>
      <point x="593" y="642"/>
      <point x="542" y="647" type="curve" smooth="yes"/>
      <point x="509" y="650" type="line"/>
      <point x="509" y="681" type="line"/>
      <point x="754" y="681" type="line"/>
      <point x="754" y="650" type="line"/>
      <point x="729" y="647" type="line" smooth="yes"/>
      <point x="677" y="640"/>
      <point x="664" y="619"/>
    </contour>
    <contour>
      <point x="325" y="871" type="curve" smooth="yes"/>
      <point x="356" y="871"/>
      <point x="383" y="844"/>
      <point x="383" y="812" type="curve" smooth="yes"/>
      <point x="383" y="780"/>
      <point x="356" y="753"/>
      <point x="324" y="753" type="curve" smooth="yes"/>
      <point x="292" y="753"/>
      <point x="265" y="780"/>
      <point x="265" y="812" type="curve" smooth="yes"/>
      <point x="265" y="845"/>
      <point x="292" y="871"/>
    </contour>
    <contour>
      <point x="488" y="871" type="curve" smooth="yes"/>
      <point x="519" y="871"/>
      <point x="546" y="844"/>
      <point x="546" y="812" type="curve" smooth="yes"/>
      <point x="546" y="780"/>
      <point x="519" y="753"/>
      <point x="487" y="753" type="curve" smooth="yes"/>
      <point x="455" y="753"/>
      <point x="428" y="780"/>
      <point x="428" y="812" type="curve" smooth="yes"/>
      <point x="428" y="845"/>
      <point x="455" y="871"/>
    </contour>
  </outline>
  <lib>
    <dict>
      <key>com.fontlab.hintData</key>
      <dict>
	<key>hhints</key>
	<array>
	  <dict>
	    <key>position</key>	    <integer>-13</integer>
	    <key>width</key>	    <integer>48</integer>
	  </dict>
	  <dict>
	    <key>position</key>	    <integer>650</integer>
	    <key>width</key>	    <integer>31</integer>
	  </dict>
	</array>
	<key>vhints</key>
	<array>
	  <dict>
	    <key>position</key>
	    <integer>25</integer>
	    <key>width</key>
	    <integer>118</integer>
	  </dict>
	  <dict>
	    <key>position</key>
	    <integer>115</integer>
	    <key>width</key>
	    <integer>100</integer>
	  </dict>
	  <dict>
	    <key>position</key>
	    <integer>188</integer>
	    <key>width</key>
	    <integer>118</integer>
	  </dict>
	  <dict>
	    <key>position</key>
	    <integer>607</integer>
	    <key>width</key>
	    <integer>57</integer>
	  </dict>
	</array>
      </dict>
    </dict>
  </lib>
</glyph>
