<?xml version="1.0" encoding="UTF-8"?>
<glyph name="afii10088" format="1">
  <advance width="560"/>
  <unicode hex="0446"/>
  <outline>
    <contour>
      <point x="63" y="547" type="line"/>
      <point x="137" y="547" type="line"/>
      <point x="137" y="67" type="line"/>
      <point x="393" y="67" type="line"/>
      <point x="393" y="547" type="line"/>
      <point x="467" y="547" type="line"/>
      <point x="467" y="67" type="line"/>
      <point x="533" y="67" type="line"/>
      <point x="533" y="-129" type="line"/>
      <point x="459" y="-129" type="line"/>
      <point x="459" y="0" type="line"/>
      <point x="63" y="0" type="line"/>
    </contour>
  </outline>
  <lib>
    <dict>
      <key>com.fontlab.hintData</key>
      <dict>
        <key>hhints</key>
        <array>
          <dict>
            <key>position</key>
            <integer>0</integer>
            <key>width</key>
            <integer>67</integer>
          </dict>
          <dict>
            <key>position</key>
            <integer>527</integer>
            <key>width</key>
            <integer>20</integer>
          </dict>
        </array>
        <key>vhints</key>
        <array>
          <dict>
            <key>position</key>
            <integer>63</integer>
            <key>width</key>
            <integer>74</integer>
          </dict>
          <dict>
            <key>position</key>
            <integer>393</integer>
            <key>width</key>
            <integer>74</integer>
          </dict>
          <dict>
            <key>position</key>
            <integer>459</integer>
            <key>width</key>
            <integer>74</integer>
          </dict>
        </array>
      </dict>
      <key>com.typemytype.robofont.layerData</key>
      <dict>
      </dict>
    </dict>
  </lib>
</glyph>
