<?xml version="1.0" encoding="UTF-8"?>
<glyph name="tilde" format="1">
  <advance width="439"/>
  <unicode hex="02DC"/>
  <outline>
    <contour>
      <point x="332" y="728" type="curve"/>
      <point x="365" y="682" type="line"/>
      <point x="349" y="656"/>
      <point x="307" y="633"/>
      <point x="274" y="633" type="curve" smooth="yes"/>
      <point x="260" y="633"/>
      <point x="241" y="639"/>
      <point x="208" y="655" type="curve"/>
      <point x="193" y="661"/>
      <point x="179" y="665"/>
      <point x="168" y="665" type="curve" smooth="yes"/>
      <point x="149" y="665"/>
      <point x="141" y="661"/>
      <point x="115" y="639" type="curve" smooth="yes"/>
      <point x="108" y="633" type="line"/>
      <point x="75" y="679" type="line"/>
      <point x="98" y="709"/>
      <point x="133" y="728"/>
      <point x="168" y="728" type="curve" smooth="yes"/>
      <point x="186" y="728"/>
      <point x="197" y="725"/>
      <point x="227" y="711" type="curve" smooth="yes"/>
      <point x="243" y="704"/>
      <point x="266" y="697"/>
      <point x="275" y="697" type="curve" smooth="yes"/>
      <point x="294" y="697"/>
      <point x="312" y="707"/>
    </contour>
  </outline>
  <lib>
    <dict>
      <key>com.fontlab.hintData</key>
      <dict>
        <key>hhints</key>
        <array>
          <dict>
            <key>position</key>
            <integer>633</integer>
            <key>width</key>
            <integer>64</integer>
          </dict>
          <dict>
            <key>position</key>
            <integer>665</integer>
            <key>width</key>
            <integer>63</integer>
          </dict>
        </array>
      </dict>
      <key>com.typemytype.robofont.layerData</key>
      <dict>
      </dict>
    </dict>
  </lib>
</glyph>
