<?xml version="1.0" encoding="UTF-8"?>
<glyph name="Uacute" format="1">
  <advance width="655"/>
  <unicode hex="00DA"/>
  <outline>
    <contour>
      <point x="76" y="739" type="line"/>
      <point x="150" y="739" type="line"/>
      <point x="150" y="278" type="line" smooth="yes"/>
      <point x="150" y="211"/>
      <point x="161" y="160"/>
      <point x="184" y="125" type="curve" smooth="yes"/>
      <point x="212" y="82"/>
      <point x="267" y="55"/>
      <point x="328" y="55" type="curve" smooth="yes"/>
      <point x="388" y="55"/>
      <point x="443" y="82"/>
      <point x="471" y="125" type="curve" smooth="yes"/>
      <point x="494" y="160"/>
      <point x="505" y="211"/>
      <point x="505" y="278" type="curve" smooth="yes"/>
      <point x="505" y="739" type="line"/>
      <point x="579" y="739" type="line"/>
      <point x="579" y="278" type="line" smooth="yes"/>
      <point x="579" y="183"/>
      <point x="564" y="127"/>
      <point x="527" y="78" type="curve" smooth="yes"/>
      <point x="483" y="21"/>
      <point x="409" y="-13"/>
      <point x="327" y="-13" type="curve" smooth="yes"/>
      <point x="246" y="-13"/>
      <point x="172" y="21"/>
      <point x="128" y="78" type="curve" smooth="yes"/>
      <point x="91" y="127"/>
      <point x="76" y="183"/>
      <point x="76" y="278" type="curve" smooth="yes"/>
    </contour>
    <contour>
      <point x="247" y="848" type="line"/>
      <point x="440" y="964" type="line"/>
      <point x="474" y="906" type="line"/>
      <point x="281" y="792" type="line"/>
    </contour>
  </outline>
  <lib>
    <dict>
      <key>com.fontlab.hintData</key>
      <dict>
        <key>hhints</key>
        <array>
          <dict>
            <key>position</key>
            <integer>-13</integer>
            <key>width</key>
            <integer>68</integer>
          </dict>
          <dict>
            <key>position</key>
            <integer>719</integer>
            <key>width</key>
            <integer>20</integer>
          </dict>
        </array>
        <key>vhints</key>
        <array>
          <dict>
            <key>position</key>
            <integer>76</integer>
            <key>width</key>
            <integer>74</integer>
          </dict>
          <dict>
            <key>position</key>
            <integer>505</integer>
            <key>width</key>
            <integer>74</integer>
          </dict>
        </array>
      </dict>
      <key>com.typemytype.robofont.layerData</key>
      <dict>
      </dict>
    </dict>
  </lib>
</glyph>
