<?xml version="1.0" encoding="UTF-8"?>
<glyph name="afii10022" format="1">
  <advance width="611"/>
  <unicode hex="0415"/>
  <outline>
    <contour>
      <point x="234.763003466" y="803.890982946" type="line"/>
      <point x="400.033842439" y="843.921724826" type="line"/>
      <point x="530.232563039" y="898.843400264" type="line"/>
      <point x="624.696175147" y="930.587950639" type="line"/>
      <point x="738.60996224" y="953.931774824" type="line"/>
      <point x="679.512644779" y="785.422256544" type="line"/>
      <point x="646.225666708" y="774.606661741" type="line"/>
      <point x="666.311771342" y="849.478077332" type="line"/>
      <point x="651.139823211" y="880.298128179" type="line"/>
      <point x="517.562866269" y="851.616815045" type="line"/>
      <point x="403.817117909" y="806.246883246" type="line"/>
      <point x="321.30958041" y="498.698145353" type="line"/>
      <point x="424.99874622" y="529.234410938" type="line"/>
      <point x="534.916262982" y="576.514861562" type="line"/>
      <point x="550.559156966" y="608.935563753" type="line"/>
      <point x="571.383323255" y="670.377781198" type="line"/>
      <point x="599.915018744" y="679.64829103" type="line"/>
      <point x="561.215877848" y="545.104559914" type="line"/>
      <point x="529.768161023" y="418.174270425" type="line"/>
      <point x="501.236465534" y="408.903760594" type="line"/>
      <point x="514.713185619" y="475.31888362" type="line"/>
      <point x="514.830158348" y="501.64344597" type="line"/>
      <point x="405.362636842" y="478.692838826" type="line"/>
      <point x="306.47676468" y="443.408484608" type="line"/>
      <point x="219.952006255" y="120.885463598" type="line"/>
      <point x="311.634465413" y="142.263202583" type="line"/>
      <point x="490.337068345" y="212.944744734" type="line"/>
      <point x="546.134275937" y="314.139872191" type="line"/>
      <point x="561.396136328" y="354.848466857" type="line"/>
      <point x="594.683114398" y="365.66406166" type="line"/>
      <point x="531.877593003" y="183.332128194" type="line"/>
      <point x="369.033933855" y="116.752007015" type="line"/>
      <point x="216.531868721" y="69.3040067855" type="line"/>
      <point x="152.406043001" y="60.0343474385" type="line"/>
      <point x="31.4088705709" y="7.0509740122" type="line"/>
      <point x="40.6793804022" y="41.6070119777" type="line"/>
      <point x="75.8444659719" y="56.1872275717" type="line"/>
      <point x="152.159877797" y="175.615208181" type="line"/>
      <point x="290.908508272" y="692.803909731" type="line"/>
      <point x="270.216155433" y="780.712156913" type="line"/>
      <point x="225.492493634" y="769.33494498" type="line"/>
    </contour>
  </outline>
  <lib>
    <dict>
      <key>com.fontlab.hintData</key>
      <dict>
        <key>hhints</key>
        <array>
          <dict>
            <key>position</key>
            <integer>-3</integer>
            <key>width</key>
            <integer>30</integer>
          </dict>
          <dict>
            <key>position</key>
            <integer>-1</integer>
            <key>width</key>
            <integer>40</integer>
          </dict>
          <dict>
            <key>position</key>
            <integer>330</integer>
            <key>width</key>
            <integer>45</integer>
          </dict>
          <dict>
            <key>position</key>
            <integer>650</integer>
            <key>width</key>
            <integer>41</integer>
          </dict>
          <dict>
            <key>position</key>
            <integer>662</integer>
            <key>width</key>
            <integer>30</integer>
          </dict>
        </array>
        <key>vhints</key>
        <array>
          <dict>
            <key>position</key>
            <integer>121</integer>
            <key>width</key>
            <integer>95</integer>
          </dict>
          <dict>
            <key>position</key>
            <integer>451</integer>
            <key>width</key>
            <integer>30</integer>
          </dict>
          <dict>
            <key>position</key>
            <integer>505</integer>
            <key>width</key>
            <integer>35</integer>
          </dict>
          <dict>
            <key>position</key>
            <integer>537</integer>
            <key>width</key>
            <integer>35</integer>
          </dict>
        </array>
      </dict>
      <key>com.typemytype.robofont.layerData</key>
      <dict>
      </dict>
    </dict>
  </lib>
</glyph>
