<?xml version="1.0" encoding="UTF-8"?>
<glyph name="logicalnot" format="1">
  <advance width="606"/>
  <unicode hex="00AC"/>
  <outline>
    <contour>
      <point x="572.74858371" y="533.079829836" type="line"/>
      <point x="150.479490475" y="395.876284333" type="line"/>
      <point x="167.78444216" y="460.380888535" type="line"/>
      <point x="643.312700308" y="614.889385723" type="line"/>
      <point x="561.114179804" y="308.492515762" type="line"/>
      <point x="507.855014891" y="291.187564077" type="line"/>
    </contour>
  </outline>
  <lib>
    <dict>
      <key>com.fontlab.hintData</key>
      <dict>
        <key>hhints</key>
        <array>
          <dict>
            <key>position</key>
            <integer>330</integer>
            <key>width</key>
            <integer>56</integer>
          </dict>
        </array>
        <key>vhints</key>
        <array>
          <dict>
            <key>position</key>
            <integer>495</integer>
            <key>width</key>
            <integer>56</integer>
          </dict>
        </array>
      </dict>
      <key>com.typemytype.robofont.layerData</key>
      <dict>
      </dict>
    </dict>
  </lib>
</glyph>
