<?xml version="1.0" encoding="UTF-8"?>
<glyph name="uni04F2" format="1">
  <advance width="667"/>
  <unicode hex="04F2"/>
  <outline>
    <contour>
      <point x="335.478972061" y="849.233131558" type="line"/>
      <point x="340.543271636" y="851.930084462" type="line"/>
      <point x="395.260664198" y="761.408233936" type="line"/>
      <point x="447.572261493" y="403.033288185" type="line"/>
      <point x="760.364234448" y="976.772099705" type="line"/>
      <point x="836.448755752" y="1001.49345925" type="line"/>
      <point x="379.67843499" y="221.150988617" type="line"/>
      <point x="224.284354051" y="52.8966219276" type="line"/>
      <point x="179.986681974" y="68.9958402754" type="line"/>
      <point x="188.351091419" y="139.007184003" type="line"/>
      <point x="200.951826527" y="153.616033268" type="line"/>
      <point x="261.393453846" y="145.916690627" type="line"/>
      <point x="364.101447731" y="263.40551874" type="line"/>
      <point x="306.629528729" y="631.669858795" type="line"/>
      <point x="236.383159974" y="758.15306584" type="line"/>
      <point x="209.729571985" y="752.6471768" type="line"/>
      <point x="218.691064821" y="786.051346832" type="line"/>
    </contour>
    <contour>
      <point x="550.114403661" y="1167.11749571" type="line"/>
      <point x="612.620072872" y="1222.12507217" type="line"/>
      <point x="631.905264063" y="1193.69295723" type="line"/>
      <point x="579.363210208" y="1124.04789784" type="line"/>
      <point x="420.686915059" y="969.447546247" type="line"/>
      <point x="382.644654407" y="957.086866472" type="line"/>
    </contour>
    <contour>
      <point x="702.28344627" y="1216.56021482" type="line"/>
      <point x="764.78911548" y="1271.56779127" type="line"/>
      <point x="784.074306672" y="1243.13567633" type="line"/>
      <point x="731.532252811" y="1173.49061694" type="line"/>
      <point x="572.855957666" y="1018.89026535" type="line"/>
      <point x="534.813697014" y="1006.52958557" type="line"/>
    </contour>
  </outline>
  <lib>
    <dict>
      <key>com.fontlab.hintData</key>
      <dict>
        <key>hhints</key>
        <array>
          <dict>
            <key>position</key>
            <integer>674</integer>
            <key>width</key>
            <integer>20</integer>
          </dict>
        </array>
      </dict>
      <key>com.typemytype.robofont.layerData</key>
      <dict>
      </dict>
    </dict>
  </lib>
</glyph>
