<?xml version="1.0" encoding="UTF-8"?>
<glyph name="afii10036" format="1">
  <advance width="420"/>
  <unicode hex="0422"/>
  <outline>
    <contour>
      <point x="142" y="0" type="line"/>
      <point x="255" y="607" type="line"/>
      <point x="119" y="607" type="line"/>
      <point x="143" y="739" type="line"/>
      <point x="555" y="739" type="line"/>
      <point x="531" y="607" type="line"/>
      <point x="392" y="607" type="line"/>
      <point x="279" y="0" type="line"/>
    </contour>
  </outline>
  <lib>
    <dict>
      <key>com.fontlab.hintData</key>
      <dict>
	<key>hhints</key>
	<array>
	  <dict>
	    <key>position</key>	    <integer>0</integer>
	    <key>width</key>	    <integer>21</integer>
	  </dict>
	  <dict>
	    <key>position</key>	    <integer>607</integer>
	    <key>width</key>	    <integer>132</integer>
	  </dict>
	</array>
	<key>vhints</key>
	<array>
	  <dict>
	    <key>position</key>
	    <integer>119</integer>
	    <key>width</key>
	    <integer>436</integer>
	  </dict>
	</array>
      </dict>
    </dict>
  </lib>
</glyph>
