<?xml version="1.0" encoding="UTF-8"?>
<glyph name="ncommaaccent" format="1">
  <advance width="600"/>
  <unicode hex="0146"/>
  <outline>
    <contour>
      <point x="54" y="0" type="line"/>
      <point x="157" y="554" type="line"/>
      <point x="280" y="554" type="line"/>
      <point x="270" y="501" type="line"/>
      <point x="331" y="550"/>
      <point x="374" y="567"/>
      <point x="435" y="567" type="curve" smooth="yes"/>
      <point x="549" y="567"/>
      <point x="613" y="509"/>
      <point x="613" y="403" type="curve" smooth="yes"/>
      <point x="613" y="375"/>
      <point x="609" y="341"/>
      <point x="601" y="297" type="curve" smooth="yes"/>
      <point x="546" y="0" type="line"/>
      <point x="413" y="0" type="line"/>
      <point x="463" y="271" type="line" smooth="yes"/>
      <point x="469" y="304"/>
      <point x="472" y="334"/>
      <point x="472" y="363" type="curve" smooth="yes"/>
      <point x="472" y="417"/>
      <point x="443" y="445"/>
      <point x="388" y="445" type="curve" smooth="yes"/>
      <point x="347" y="445"/>
      <point x="311" y="428"/>
      <point x="282" y="394" type="curve" smooth="yes"/>
      <point x="261" y="368"/>
      <point x="248" y="333"/>
      <point x="235" y="261" type="curve" smooth="yes"/>
      <point x="187" y="0" type="line"/>
    </contour>
    <contour>
      <point x="173" y="-245" type="line"/>
      <point x="266" y="-53" type="line"/>
      <point x="371" y="-53" type="line"/>
      <point x="277" y="-245" type="line"/>
    </contour>
  </outline>
  <lib>
    <dict>
      <key>com.fontlab.hintData</key>
      <dict>
	<key>hhints</key>
	<array>
	  <dict>
	    <key>position</key>	    <integer>0</integer>
	    <key>width</key>	    <integer>20</integer>
	  </dict>
	  <dict>
	    <key>position</key>	    <integer>445</integer>
	    <key>width</key>	    <integer>122</integer>
	  </dict>
	  <dict>
	    <key>position</key>	    <integer>534</integer>
	    <key>width</key>	    <integer>20</integer>
	  </dict>
	</array>
	<key>vhints</key>
	<array>
	  <dict>
	    <key>position</key>
	    <integer>472</integer>
	    <key>width</key>
	    <integer>141</integer>
	  </dict>
	</array>
      </dict>
    </dict>
  </lib>
</glyph>
