<?xml version="1.0" encoding="UTF-8"?>
<glyph name="uni0493" format="1">
  <advance width="434"/>
  <unicode hex="0493"/>
  <outline>
    <contour>
      <point x="253" y="250" type="line"/>
      <point x="207" y="0" type="line"/>
      <point x="74" y="0" type="line"/>
      <point x="120" y="250" type="line"/>
      <point x="50" y="250" type="line"/>
      <point x="67" y="349" type="line"/>
      <point x="139" y="349" type="line"/>
      <point x="177" y="554" type="line"/>
      <point x="502" y="554" type="line"/>
      <point x="479" y="433" type="line"/>
      <point x="287" y="433" type="line"/>
      <point x="271" y="349" type="line"/>
      <point x="347" y="349" type="line"/>
      <point x="329" y="250" type="line"/>
    </contour>
  </outline>
  <lib>
    <dict>
      <key>com.fontlab.hintData</key>
      <dict>
	<key>hhints</key>
	<array>
	  <dict>
	    <key>position</key>	    <integer>0</integer>
	    <key>width</key>	    <integer>21</integer>
	  </dict>
	  <dict>
	    <key>position</key>	    <integer>250</integer>
	    <key>width</key>	    <integer>99</integer>
	  </dict>
	  <dict>
	    <key>position</key>	    <integer>433</integer>
	    <key>width</key>	    <integer>121</integer>
	  </dict>
	</array>
	<key>vhints</key>
	<array>
	  <dict>
	    <key>position</key>
	    <integer>50</integer>
	    <key>width</key>
	    <integer>452</integer>
	  </dict>
	</array>
      </dict>
    </dict>
  </lib>
</glyph>
