<?xml version="1.0" encoding="UTF-8"?>
<glyph name="ebreve" format="1">
  <advance width="389"/>
  <unicode hex="0115"/>
  <outline>
    <contour>
      <point x="132" y="741" type="curve"/>
      <point x="161" y="741" type="line"/>
      <point x="167" y="675"/>
      <point x="204" y="641"/>
      <point x="270" y="641" type="curve" smooth="yes"/>
      <point x="330" y="641"/>
      <point x="366" y="668"/>
      <point x="404" y="741" type="curve"/>
      <point x="433" y="741" type="line"/>
      <point x="419" y="689"/>
      <point x="409" y="667"/>
      <point x="388" y="641" type="curve" smooth="yes"/>
      <point x="356" y="601"/>
      <point x="315" y="582"/>
      <point x="263" y="582" type="curve" smooth="yes"/>
      <point x="211" y="582"/>
      <point x="173" y="602"/>
      <point x="152" y="640" type="curve" smooth="yes"/>
      <point x="137" y="667"/>
      <point x="132" y="690"/>
    </contour>
    <contour>
      <point x="328" y="111" type="line"/>
      <point x="336" y="92" type="line"/>
      <point x="244" y="17"/>
      <point x="188" y="-11"/>
      <point x="131" y="-11" type="curve" smooth="yes"/>
      <point x="59" y="-11"/>
      <point x="15" y="35"/>
      <point x="15" y="113" type="curve" smooth="yes"/>
      <point x="15" y="180"/>
      <point x="45" y="299"/>
      <point x="75" y="349" type="curve" smooth="yes"/>
      <point x="114" y="413"/>
      <point x="225" y="482"/>
      <point x="290" y="482" type="curve" smooth="yes"/>
      <point x="340" y="482"/>
      <point x="374" y="451"/>
      <point x="374" y="404" type="curve" smooth="yes"/>
      <point x="374" y="342"/>
      <point x="335" y="296"/>
      <point x="250" y="259" type="curve" smooth="yes"/>
      <point x="225" y="248"/>
      <point x="198" y="238"/>
      <point x="181" y="234" type="curve" smooth="yes"/>
      <point x="99" y="214" type="line"/>
      <point x="94" y="185"/>
      <point x="91" y="158"/>
      <point x="91" y="133" type="curve" smooth="yes"/>
      <point x="91" y="73"/>
      <point x="120" y="36"/>
      <point x="167" y="36" type="curve" smooth="yes"/>
      <point x="203" y="36"/>
      <point x="251" y="56"/>
      <point x="304" y="94" type="curve" smooth="yes"/>
    </contour>
    <contour>
      <point x="113" y="274" type="curve" smooth="yes"/>
      <point x="104" y="237" type="line"/>
      <point x="149" y="247"/>
      <point x="185" y="258"/>
      <point x="213" y="272" type="curve" smooth="yes"/>
      <point x="265" y="297"/>
      <point x="300" y="344"/>
      <point x="300" y="388" type="curve" smooth="yes"/>
      <point x="300" y="420"/>
      <point x="281" y="440"/>
      <point x="252" y="440" type="curve" smooth="yes"/>
      <point x="228" y="440"/>
      <point x="197" y="428"/>
      <point x="179" y="412" type="curve" smooth="yes"/>
      <point x="150" y="386"/>
      <point x="130" y="343"/>
    </contour>
  </outline>
  <lib>
    <dict>
      <key>com.fontlab.hintData</key>
      <dict>
	<key>hhints</key>
	<array>
	  <dict>
	    <key>position</key>	    <integer>-11</integer>
	    <key>width</key>	    <integer>47</integer>
	  </dict>
	  <dict>
	    <key>position</key>	    <integer>440</integer>
	    <key>width</key>	    <integer>42</integer>
	  </dict>
	  <dict>
	    <key>position</key>	    <integer>582</integer>
	    <key>width</key>	    <integer>59</integer>
	  </dict>
	</array>
	<key>vhints</key>
	<array>
	  <dict>
	    <key>position</key>
	    <integer>15</integer>
	    <key>width</key>
	    <integer>76</integer>
	  </dict>
	  <dict>
	    <key>position</key>
	    <integer>132</integer>
	    <key>width</key>
	    <integer>29</integer>
	  </dict>
	  <dict>
	    <key>position</key>
	    <integer>300</integer>
	    <key>width</key>
	    <integer>74</integer>
	  </dict>
	</array>
      </dict>
    </dict>
  </lib>
</glyph>
