<?xml version="1.0" encoding="UTF-8"?>
<glyph name="Idotaccent" format="1">
  <advance width="333"/>
  <unicode hex="0130"/>
  <outline>
    <contour>
      <point x="103" y="664" type="line"/>
      <point x="106" y="692" type="line"/>
      <point x="170" y="690" type="line" smooth="yes"/>
      <point x="213" y="689"/>
      <point x="231" y="689"/>
      <point x="248" y="689" type="curve" smooth="yes"/>
      <point x="345" y="692" type="line"/>
      <point x="354" y="692" type="line"/>
      <point x="351" y="664" type="line"/>
      <point x="316" y="661" type="line" smooth="yes"/>
      <point x="277" y="657"/>
      <point x="272" y="652"/>
      <point x="265" y="613" type="curve" smooth="yes"/>
      <point x="176" y="78" type="line" smooth="yes"/>
      <point x="175" y="74"/>
      <point x="174" y="63"/>
      <point x="174" y="57" type="curve" smooth="yes"/>
      <point x="174" y="37"/>
      <point x="184" y="30"/>
      <point x="210" y="28" type="curve" smooth="yes"/>
      <point x="262" y="25" type="line"/>
      <point x="259" y="-3" type="line"/>
      <point x="227" y="-3" type="line"/>
      <point x="133" y="0" type="line"/>
      <point x="39" y="-3" type="line"/>
      <point x="7" y="-3" type="line"/>
      <point x="10" y="25" type="line"/>
      <point x="46" y="28" type="line" smooth="yes"/>
      <point x="86" y="31"/>
      <point x="89" y="36"/>
      <point x="104" y="125" type="curve" smooth="yes"/>
      <point x="176" y="559" type="line" smooth="yes"/>
      <point x="179" y="576"/>
      <point x="185" y="629"/>
      <point x="185" y="636" type="curve" smooth="yes"/>
      <point x="185" y="653"/>
      <point x="174" y="661"/>
      <point x="150" y="662" type="curve" smooth="yes"/>
    </contour>
    <contour>
      <point x="250" y="855" type="curve" smooth="yes"/>
      <point x="278" y="855"/>
      <point x="303" y="830"/>
      <point x="303" y="802" type="curve" smooth="yes"/>
      <point x="303" y="773"/>
      <point x="278" y="747"/>
      <point x="249" y="747" type="curve" smooth="yes"/>
      <point x="220" y="747"/>
      <point x="195" y="773"/>
      <point x="195" y="802" type="curve" smooth="yes"/>
      <point x="195" y="830"/>
      <point x="220" y="855"/>
    </contour>
  </outline>
  <lib>
    <dict>
      <key>com.fontlab.hintData</key>
      <dict>
	<key>hhints</key>
	<array>
	  <dict>
	    <key>position</key>	    <integer>-3</integer>
	    <key>width</key>	    <integer>20</integer>
	  </dict>
	  <dict>
	    <key>position</key>	    <integer>672</integer>
	    <key>width</key>	    <integer>20</integer>
	  </dict>
	</array>
      </dict>
    </dict>
  </lib>
</glyph>
