<?xml version="1.0" encoding="UTF-8"?>
<glyph name="uni04DD" format="1">
  <advance width="983"/>
  <unicode hex="04DD"/>
  <outline>
    <contour>
      <point x="459" y="682" type="curve" smooth="yes"/>
      <point x="485" y="682"/>
      <point x="509" y="658"/>
      <point x="509" y="633" type="curve" smooth="yes"/>
      <point x="509" y="607"/>
      <point x="485" y="582"/>
      <point x="459" y="582" type="curve" smooth="yes"/>
      <point x="433" y="582"/>
      <point x="409" y="607"/>
      <point x="409" y="633" type="curve" smooth="yes"/>
      <point x="409" y="659"/>
      <point x="433" y="682"/>
    </contour>
    <contour>
      <point x="659" y="682" type="curve" smooth="yes"/>
      <point x="685" y="682"/>
      <point x="709" y="658"/>
      <point x="709" y="633" type="curve" smooth="yes"/>
      <point x="709" y="607"/>
      <point x="685" y="582"/>
      <point x="659" y="582" type="curve" smooth="yes"/>
      <point x="633" y="582"/>
      <point x="609" y="607"/>
      <point x="609" y="633" type="curve" smooth="yes"/>
      <point x="609" y="659"/>
      <point x="633" y="682"/>
    </contour>
    <contour>
      <point x="402" y="2" type="line"/>
      <point x="448" y="206" type="line"/>
      <point x="363" y="206" type="line"/>
      <point x="347" y="151"/>
      <point x="322" y="104"/>
      <point x="290" y="76" type="curve" smooth="yes"/>
      <point x="234" y="25"/>
      <point x="160" y="-11"/>
      <point x="115" y="-11" type="curve" smooth="yes"/>
      <point x="78" y="-11"/>
      <point x="43" y="-2"/>
      <point x="19" y="13" type="curve"/>
      <point x="28" y="39"/>
      <point x="35" y="76"/>
      <point x="43" y="141" type="curve"/>
      <point x="66" y="141" type="line"/>
      <point x="66" y="81" type="line" smooth="yes"/>
      <point x="66" y="57"/>
      <point x="102" y="38"/>
      <point x="147" y="38" type="curve" smooth="yes"/>
      <point x="178" y="38"/>
      <point x="202" y="46"/>
      <point x="223" y="62" type="curve" smooth="yes"/>
      <point x="272" y="100"/>
      <point x="307" y="204"/>
      <point x="307" y="312" type="curve" smooth="yes"/>
      <point x="307" y="391"/>
      <point x="278" y="431"/>
      <point x="222" y="431" type="curve" smooth="yes"/>
      <point x="187" y="431"/>
      <point x="149" y="414"/>
      <point x="77" y="366" type="curve" smooth="yes"/>
      <point x="62" y="356" type="line"/>
      <point x="54" y="376" type="line"/>
      <point x="104" y="417" type="line" smooth="yes"/>
      <point x="159" y="462"/>
      <point x="207" y="482"/>
      <point x="261" y="482" type="curve" smooth="yes"/>
      <point x="341" y="482"/>
      <point x="383" y="431"/>
      <point x="383" y="335" type="curve" smooth="yes"/>
      <point x="383" y="309"/>
      <point x="379" y="282"/>
      <point x="374" y="257" type="curve"/>
      <point x="459" y="257" type="line"/>
      <point x="510" y="465" type="line"/>
      <point x="578" y="482" type="line"/>
      <point x="585" y="473" type="line"/>
      <point x="533" y="257" type="line"/>
      <point x="618" y="257" type="line"/>
      <point x="634" y="315"/>
      <point x="661" y="365"/>
      <point x="694" y="395" type="curve" smooth="yes"/>
      <point x="750" y="446"/>
      <point x="824" y="482"/>
      <point x="869" y="482" type="curve" smooth="yes"/>
      <point x="906" y="482"/>
      <point x="941" y="473"/>
      <point x="965" y="458" type="curve"/>
      <point x="956" y="432"/>
      <point x="949" y="395"/>
      <point x="941" y="330" type="curve"/>
      <point x="918" y="330" type="line"/>
      <point x="918" y="390" type="line" smooth="yes"/>
      <point x="918" y="414"/>
      <point x="882" y="433"/>
      <point x="837" y="433" type="curve" smooth="yes"/>
      <point x="806" y="433"/>
      <point x="782" y="425"/>
      <point x="761" y="409" type="curve" smooth="yes"/>
      <point x="712" y="371"/>
      <point x="677" y="267"/>
      <point x="677" y="159" type="curve" smooth="yes"/>
      <point x="677" y="80"/>
      <point x="706" y="40"/>
      <point x="762" y="40" type="curve" smooth="yes"/>
      <point x="797" y="40"/>
      <point x="835" y="57"/>
      <point x="907" y="105" type="curve" smooth="yes"/>
      <point x="922" y="115" type="line"/>
      <point x="930" y="95" type="line"/>
      <point x="880" y="54" type="line" smooth="yes"/>
      <point x="825" y="9"/>
      <point x="777" y="-11"/>
      <point x="723" y="-11" type="curve" smooth="yes"/>
      <point x="643" y="-11"/>
      <point x="601" y="40"/>
      <point x="601" y="136" type="curve" smooth="yes"/>
      <point x="601" y="160"/>
      <point x="603" y="183"/>
      <point x="607" y="206" type="curve"/>
      <point x="521" y="206" type="line"/>
      <point x="521" y="206"/>
      <point x="490" y="72"/>
      <point x="480" y="8" type="curve"/>
      <point x="458" y="4"/>
      <point x="434" y="-2"/>
      <point x="409" y="-9" type="curve"/>
    </contour>
  </outline>
  <lib>
    <dict>
      <key>com.fontlab.hintData</key>
      <dict>
	<key>hhints</key>
	<array>
	  <dict>
	    <key>position</key>	    <integer>-11</integer>
	    <key>width</key>	    <integer>49</integer>
	  </dict>
	  <dict>
	    <key>position</key>	    <integer>206</integer>
	    <key>width</key>	    <integer>51</integer>
	  </dict>
	  <dict>
	    <key>position</key>	    <integer>431</integer>
	    <key>width</key>	    <integer>51</integer>
	  </dict>
	  <dict>
	    <key>position</key>	    <integer>582</integer>
	    <key>width</key>	    <integer>100</integer>
	  </dict>
	</array>
	<key>vhints</key>
	<array>
	  <dict>
	    <key>position</key>
	    <integer>43</integer>
	    <key>width</key>
	    <integer>23</integer>
	  </dict>
	  <dict>
	    <key>position</key>
	    <integer>307</integer>
	    <key>width</key>
	    <integer>76</integer>
	  </dict>
	  <dict>
	    <key>position</key>
	    <integer>409</integer>
	    <key>width</key>
	    <integer>100</integer>
	  </dict>
	  <dict>
	    <key>position</key>
	    <integer>601</integer>
	    <key>width</key>
	    <integer>76</integer>
	  </dict>
	  <dict>
	    <key>position</key>
	    <integer>609</integer>
	    <key>width</key>
	    <integer>100</integer>
	  </dict>
	  <dict>
	    <key>position</key>
	    <integer>918</integer>
	    <key>width</key>
	    <integer>23</integer>
	  </dict>
	</array>
      </dict>
    </dict>
  </lib>
</glyph>
