<?xml version="1.0" encoding="UTF-8"?>
<glyph name="afii10066" format="1">
  <advance width="600"/>
  <unicode hex="0431"/>
  <outline>
    <contour>
      <point x="543" y="484" type="line"/>
      <point x="342" y="484"/>
      <point x="232" y="499"/>
      <point x="179" y="388" type="curve"/>
      <point x="226" y="420"/>
      <point x="274" y="437"/>
      <point x="332" y="437" type="curve" smooth="yes"/>
      <point x="405" y="437"/>
      <point x="456" y="417"/>
      <point x="492" y="374" type="curve" smooth="yes"/>
      <point x="526" y="332"/>
      <point x="538" y="275"/>
      <point x="525" y="211" type="curve"/>
      <point x="511" y="148"/>
      <point x="476" y="93"/>
      <point x="422" y="50" type="curve" smooth="yes"/>
      <point x="368" y="7"/>
      <point x="309" y="-15"/>
      <point x="238" y="-15" type="curve" smooth="yes"/>
      <point x="98" y="-15"/>
      <point x="12" y="68"/>
      <point x="45" y="226" type="curve"/>
      <point x="109" y="522"/>
      <point x="212" y="551"/>
      <point x="460" y="550" type="curve"/>
      <point x="461" y="557" type="line"/>
      <point x="466" y="582"/>
      <point x="470" y="591"/>
      <point x="480" y="601" type="curve" smooth="yes"/>
      <point x="492" y="613"/>
      <point x="509" y="621"/>
      <point x="523" y="621" type="curve" smooth="yes"/>
      <point x="540" y="621"/>
      <point x="554" y="612"/>
      <point x="560" y="598" type="curve" smooth="yes"/>
      <point x="564" y="589"/>
      <point x="564" y="581"/>
      <point x="559" y="557" type="curve" smooth="yes"/>
    </contour>
    <contour>
      <point x="311" y="340" type="curve" smooth="yes"/>
      <point x="264" y="340"/>
      <point x="230" y="329"/>
      <point x="197" y="301" type="curve"/>
      <point x="166" y="277"/>
      <point x="146" y="244"/>
      <point x="139" y="213" type="curve"/>
      <point x="125" y="136"/>
      <point x="172" y="84"/>
      <point x="257" y="84" type="curve" smooth="yes"/>
      <point x="303" y="84"/>
      <point x="339" y="97"/>
      <point x="371" y="122" type="curve" smooth="yes"/>
      <point x="401" y="146"/>
      <point x="421" y="178"/>
      <point x="428" y="211" type="curve" smooth="yes"/>
      <point x="435" y="244"/>
      <point x="427" y="277"/>
      <point x="408" y="301" type="curve"/>
      <point x="388" y="329"/>
      <point x="358" y="340"/>
    </contour>
  </outline>
  <lib>
    <dict>
      <key>com.fontlab.hintData</key>
      <dict>
	<key>hhints</key>
	<array>
	  <dict>
	    <key>position</key>	    <integer>-15</integer>
	    <key>width</key>	    <integer>99</integer>
	  </dict>
	  <dict>
	    <key>position</key>	    <integer>340</integer>
	    <key>width</key>	    <integer>97</integer>
	  </dict>
	  <dict>
	    <key>position</key>	    <integer>484</integer>
	    <key>width</key>	    <integer>66</integer>
	  </dict>
	</array>
      </dict>
    </dict>
  </lib>
</glyph>
