<?xml version="1.0" encoding="UTF-8"?>
<glyph name="Oslash" format="1">
  <advance width="600"/>
  <unicode hex="00D8"/>
  <outline>
    <contour>
      <point x="165" y="28" type="curve"/>
      <point x="97" y="-40" type="line" smooth="yes"/>
      <point x="72" y="-65"/>
      <point x="63" y="-70"/>
      <point x="44" y="-70" type="curve" smooth="yes"/>
      <point x="21" y="-70"/>
      <point x="4" y="-54"/>
      <point x="4" y="-33" type="curve" smooth="yes"/>
      <point x="4" y="-16"/>
      <point x="10" y="-5"/>
      <point x="35" y="19" type="curve" smooth="yes"/>
      <point x="108" y="92" type="line"/>
      <point x="85" y="132"/>
      <point x="75" y="171"/>
      <point x="75" y="220" type="curve" smooth="yes"/>
      <point x="75" y="413"/>
      <point x="247" y="597"/>
      <point x="427" y="597" type="curve" smooth="yes"/>
      <point x="480" y="597"/>
      <point x="525" y="581"/>
      <point x="566" y="549" type="curve"/>
      <point x="624" y="607" type="line" smooth="yes"/>
      <point x="649" y="632"/>
      <point x="660" y="638"/>
      <point x="678" y="638" type="curve" smooth="yes"/>
      <point x="700" y="638"/>
      <point x="717" y="622"/>
      <point x="717" y="600" type="curve" smooth="yes"/>
      <point x="717" y="582"/>
      <point x="711" y="573"/>
      <point x="687" y="548" type="curve" smooth="yes"/>
      <point x="621" y="483" type="line"/>
      <point x="640" y="449"/>
      <point x="649" y="409"/>
      <point x="649" y="365" type="curve" smooth="yes"/>
      <point x="649" y="270"/>
      <point x="610" y="174"/>
      <point x="542" y="102" type="curve" smooth="yes"/>
      <point x="473" y="30"/>
      <point x="381" y="-14"/>
      <point x="298" y="-14" type="curve" smooth="yes"/>
      <point x="248" y="-14"/>
      <point x="203" y="0"/>
    </contour>
    <contour>
      <point x="538" y="400" type="curve"/>
      <point x="244" y="107" type="line"/>
      <point x="267" y="93"/>
      <point x="292" y="86"/>
      <point x="319" y="86" type="curve" smooth="yes"/>
      <point x="435" y="86"/>
      <point x="546" y="212"/>
      <point x="546" y="342" type="curve" smooth="yes"/>
      <point x="546" y="364"/>
      <point x="544" y="380"/>
    </contour>
    <contour>
      <point x="190" y="174" type="curve"/>
      <point x="487" y="471" type="line"/>
      <point x="463" y="488"/>
      <point x="436" y="497"/>
      <point x="405" y="497" type="curve" smooth="yes"/>
      <point x="290" y="497"/>
      <point x="178" y="371"/>
      <point x="178" y="243" type="curve" smooth="yes"/>
      <point x="178" y="217"/>
      <point x="182" y="197"/>
    </contour>
  </outline>
  <lib>
    <dict>
      <key>com.fontlab.hintData</key>
      <dict>
	<key>hhints</key>
	<array>
	  <dict>
	    <key>position</key>	    <integer>-14</integer>
	    <key>width</key>	    <integer>100</integer>
	  </dict>
	  <dict>
	    <key>position</key>	    <integer>497</integer>
	    <key>width</key>	    <integer>100</integer>
	  </dict>
	</array>
	<key>vhints</key>
	<array>
	  <dict>
	    <key>position</key>
	    <integer>75</integer>
	    <key>width</key>
	    <integer>103</integer>
	  </dict>
	  <dict>
	    <key>position</key>
	    <integer>546</integer>
	    <key>width</key>
	    <integer>103</integer>
	  </dict>
	</array>
      </dict>
    </dict>
  </lib>
</glyph>
