<?xml version="1.0" encoding="UTF-8"?>
<glyph name="y" format="1">
  <advance width="600"/>
  <unicode hex="0079"/>
  <outline>
    <contour>
      <point x="243" y="3" type="line"/>
      <point x="142" y="337" type="line"/>
      <point x="115" y="341"/>
      <point x="102" y="353"/>
      <point x="102" y="377" type="curve" smooth="yes"/>
      <point x="102" y="393"/>
      <point x="111" y="411"/>
      <point x="125" y="422" type="curve" smooth="yes"/>
      <point x="140" y="434"/>
      <point x="149" y="437"/>
      <point x="180" y="437" type="curve" smooth="yes"/>
      <point x="270" y="437" type="line" smooth="yes"/>
      <point x="290" y="437"/>
      <point x="296" y="436"/>
      <point x="304" y="433" type="curve" smooth="yes"/>
      <point x="317" y="429"/>
      <point x="326" y="414"/>
      <point x="326" y="398" type="curve" smooth="yes"/>
      <point x="326" y="362"/>
      <point x="297" y="338"/>
      <point x="255" y="337" type="curve"/>
      <point x="323" y="114" type="line"/>
      <point x="489" y="337" type="line"/>
      <point x="484" y="337" type="line" smooth="yes"/>
      <point x="452" y="337"/>
      <point x="435" y="351"/>
      <point x="435" y="377" type="curve" smooth="yes"/>
      <point x="435" y="393"/>
      <point x="444" y="411"/>
      <point x="458" y="422" type="curve" smooth="yes"/>
      <point x="472" y="434"/>
      <point x="482" y="437"/>
      <point x="513" y="437" type="curve" smooth="yes"/>
      <point x="605" y="437" type="line" smooth="yes"/>
      <point x="625" y="437"/>
      <point x="632" y="436"/>
      <point x="640" y="433" type="curve" smooth="yes"/>
      <point x="653" y="429"/>
      <point x="662" y="414"/>
      <point x="662" y="397" type="curve" smooth="yes"/>
      <point x="662" y="365"/>
      <point x="636" y="341"/>
      <point x="599" y="337" type="curve"/>
      <point x="274" y="-105" type="line"/>
      <point x="279" y="-105" type="line" smooth="yes"/>
      <point x="298" y="-105"/>
      <point x="306" y="-106"/>
      <point x="314" y="-109" type="curve" smooth="yes"/>
      <point x="327" y="-113"/>
      <point x="336" y="-128"/>
      <point x="336" y="-144" type="curve" smooth="yes"/>
      <point x="336" y="-161"/>
      <point x="327" y="-178"/>
      <point x="313" y="-190" type="curve" smooth="yes"/>
      <point x="299" y="-202"/>
      <point x="287" y="-205"/>
      <point x="258" y="-205" type="curve" smooth="yes"/>
      <point x="44" y="-205" type="line" smooth="yes"/>
      <point x="3" y="-205"/>
      <point x="-13" y="-194"/>
      <point x="-13" y="-165" type="curve" smooth="yes"/>
      <point x="-13" y="-149"/>
      <point x="-4" y="-132"/>
      <point x="10" y="-120" type="curve" smooth="yes"/>
      <point x="25" y="-108"/>
      <point x="34" y="-105"/>
      <point x="65" y="-105" type="curve" smooth="yes"/>
      <point x="165" y="-105" type="line"/>
    </contour>
  </outline>
  <lib>
    <dict>
      <key>com.fontlab.hintData</key>
      <dict>
	<key>hhints</key>
	<array>
	  <dict>
	    <key>position</key>	    <integer>-205</integer>
	    <key>width</key>	    <integer>100</integer>
	  </dict>
	  <dict>
	    <key>position</key>	    <integer>417</integer>
	    <key>width</key>	    <integer>20</integer>
	  </dict>
	</array>
      </dict>
    </dict>
  </lib>
</glyph>
