<?xml version="1.0" encoding="UTF-8"?>
<glyph name="eng" format="1">
  <advance width="610"/>
  <unicode hex="014B"/>
  <outline>
    <contour>
      <point x="547" y="95" type="line" smooth="yes"/>
      <point x="547" y="9"/>
      <point x="535" y="-61"/>
      <point x="515" y="-98" type="curve" smooth="yes"/>
      <point x="495" y="-135"/>
      <point x="470" y="-168"/>
      <point x="443" y="-179" type="curve" smooth="yes"/>
      <point x="417" y="-190"/>
      <point x="358" y="-201"/>
      <point x="309" y="-201" type="curve"/>
      <point x="309" y="-139" type="line"/>
      <point x="383" y="-139"/>
      <point x="413" y="-123"/>
      <point x="432" y="-101" type="curve" smooth="yes"/>
      <point x="462" y="-67"/>
      <point x="473" y="-21"/>
      <point x="473" y="55" type="curve" smooth="yes"/>
      <point x="473" y="287" type="line" smooth="yes"/>
      <point x="473" y="359"/>
      <point x="463" y="399"/>
      <point x="437" y="433" type="curve"/>
      <point x="407" y="470"/>
      <point x="358" y="492"/>
      <point x="304" y="492" type="curve" smooth="yes"/>
      <point x="246" y="492"/>
      <point x="195" y="467"/>
      <point x="166" y="425" type="curve" smooth="yes"/>
      <point x="145" y="394"/>
      <point x="137" y="362"/>
      <point x="137" y="301" type="curve" smooth="yes"/>
      <point x="137" y="0" type="line"/>
      <point x="63" y="0" type="line"/>
      <point x="63" y="547" type="line"/>
      <point x="137" y="547" type="line"/>
      <point x="137" y="476" type="line"/>
      <point x="183" y="532"/>
      <point x="241" y="560"/>
      <point x="313" y="560" type="curve" smooth="yes"/>
      <point x="390" y="560"/>
      <point x="456" y="529"/>
      <point x="499" y="475" type="curve"/>
      <point x="534" y="428"/>
      <point x="547" y="379"/>
      <point x="547" y="287" type="curve" smooth="yes"/>
    </contour>
  </outline>
  <lib>
    <dict>
      <key>com.fontlab.hintData</key>
      <dict>
        <key>hhints</key>
        <array>
          <dict>
            <key>position</key>
            <integer>-201</integer>
            <key>width</key>
            <integer>62</integer>
          </dict>
          <dict>
            <key>position</key>
            <integer>0</integer>
            <key>width</key>
            <integer>21</integer>
          </dict>
          <dict>
            <key>position</key>
            <integer>492</integer>
            <key>width</key>
            <integer>68</integer>
          </dict>
        </array>
        <key>vhints</key>
        <array>
          <dict>
            <key>position</key>
            <integer>63</integer>
            <key>width</key>
            <integer>74</integer>
          </dict>
          <dict>
            <key>position</key>
            <integer>473</integer>
            <key>width</key>
            <integer>74</integer>
          </dict>
        </array>
      </dict>
      <key>com.typemytype.robofont.layerData</key>
      <dict>
      </dict>
    </dict>
  </lib>
</glyph>
