<?xml version="1.0" encoding="UTF-8"?>
<glyph name="Nacute" format="1">
  <advance width="740"/>
  <unicode hex="0143"/>
  <outline>
    <contour>
      <point x="76" y="0" type="line"/>
      <point x="76" y="739" type="line"/>
      <point x="176" y="739" type="line"/>
      <point x="590" y="126" type="line"/>
      <point x="590" y="739" type="line"/>
      <point x="664" y="739" type="line"/>
      <point x="664" y="0" type="line"/>
      <point x="590" y="0" type="line"/>
      <point x="150" y="650" type="line"/>
      <point x="150" y="0" type="line"/>
    </contour>
    <contour>
      <point x="257" y="848" type="line"/>
      <point x="450" y="964" type="line"/>
      <point x="484" y="906" type="line"/>
      <point x="291" y="792" type="line"/>
    </contour>
  </outline>
  <lib>
    <dict>
      <key>com.fontlab.hintData</key>
      <dict>
        <key>hhints</key>
        <array>
          <dict>
            <key>position</key>
            <integer>0</integer>
            <key>width</key>
            <integer>20</integer>
          </dict>
          <dict>
            <key>position</key>
            <integer>719</integer>
            <key>width</key>
            <integer>20</integer>
          </dict>
        </array>
        <key>vhints</key>
        <array>
          <dict>
            <key>position</key>
            <integer>76</integer>
            <key>width</key>
            <integer>74</integer>
          </dict>
          <dict>
            <key>position</key>
            <integer>590</integer>
            <key>width</key>
            <integer>74</integer>
          </dict>
        </array>
      </dict>
      <key>com.typemytype.robofont.layerData</key>
      <dict>
      </dict>
    </dict>
  </lib>
</glyph>
