<?xml version="1.0" encoding="UTF-8"?>
<glyph name="a" format="1">
  <advance width="683"/>
  <unicode hex="0061"/>
  <outline>
    <contour>
      <point x="721" y="547" type="line"/>
      <point x="620" y="0" type="line"/>
      <point x="546" y="0" type="line"/>
      <point x="564" y="96" type="line"/>
      <point x="483" y="14"/>
      <point x="426" y="-13"/>
      <point x="333" y="-13" type="curve" smooth="yes"/>
      <point x="186" y="-13"/>
      <point x="88" y="79"/>
      <point x="88" y="216" type="curve" smooth="yes"/>
      <point x="88" y="401"/>
      <point x="248" y="560"/>
      <point x="434" y="560" type="curve" smooth="yes"/>
      <point x="486" y="560"/>
      <point x="532" y="548"/>
      <point x="568" y="524" type="curve" smooth="yes"/>
      <point x="595" y="506"/>
      <point x="609" y="489"/>
      <point x="629" y="450" type="curve"/>
      <point x="647" y="547" type="line"/>
    </contour>
    <contour>
      <point x="427" y="492" type="curve" smooth="yes"/>
      <point x="288" y="492"/>
      <point x="165" y="371"/>
      <point x="165" y="235" type="curve" smooth="yes"/>
      <point x="165" y="128"/>
      <point x="239" y="55"/>
      <point x="348" y="55" type="curve" smooth="yes"/>
      <point x="481" y="55"/>
      <point x="601" y="181"/>
      <point x="601" y="319" type="curve" smooth="yes"/>
      <point x="601" y="419"/>
      <point x="527" y="492"/>
    </contour>
  </outline>
  <lib>
    <dict>
      <key>com.fontlab.hintData</key>
      <dict>
	<key>hhints</key>
	<array>
	  <dict>
	    <key>position</key>	    <integer>-13</integer>
	    <key>width</key>	    <integer>68</integer>
	  </dict>
	  <dict>
	    <key>position</key>	    <integer>492</integer>
	    <key>width</key>	    <integer>68</integer>
	  </dict>
	  <dict>
	    <key>position</key>	    <integer>527</integer>
	    <key>width</key>	    <integer>20</integer>
	  </dict>
	</array>
	<key>vhints</key>
	<array>
	  <dict>
	    <key>position</key>
	    <integer>88</integer>
	    <key>width</key>
	    <integer>77</integer>
	  </dict>
	</array>
      </dict>
    </dict>
  </lib>
</glyph>
