<?xml version="1.0" encoding="UTF-8"?>
<glyph name="afii10033" format="1">
  <advance width="595"/>
  <unicode hex="041F"/>
  <outline>
    <contour>
      <point x="528" y="718" type="line"/>
      <point x="528" y="0" type="line"/>
      <point x="448" y="0" type="line"/>
      <point x="448" y="631" type="line"/>
      <point x="141" y="631" type="line"/>
      <point x="141" y="0" type="line"/>
      <point x="61" y="0" type="line"/>
      <point x="61" y="718" type="line"/>
    </contour>
  </outline>
  <lib>
    <dict>
      <key>com.fontlab.hintData</key>
      <dict>
	<key>hhints</key>
	<array>
	  <dict>
	    <key>position</key>	    <integer>0</integer>
	    <key>width</key>	    <integer>21</integer>
	  </dict>
	  <dict>
	    <key>position</key>	    <integer>631</integer>
	    <key>width</key>	    <integer>87</integer>
	  </dict>
	</array>
	<key>vhints</key>
	<array>
	  <dict>
	    <key>position</key>
	    <integer>61</integer>
	    <key>width</key>
	    <integer>80</integer>
	  </dict>
	  <dict>
	    <key>position</key>
	    <integer>448</integer>
	    <key>width</key>
	    <integer>80</integer>
	  </dict>
	</array>
      </dict>
    </dict>
  </lib>
</glyph>
