<?xml version="1.0" encoding="UTF-8"?>
<glyph name="afii10106" format="1">
  <advance width="709"/>
  <unicode hex="0459"/>
  <outline>
    <contour>
      <point x="386" y="523" type="line"/>
      <point x="386" y="306" type="line"/>
      <point x="512" y="306" type="line" smooth="yes"/>
      <point x="626" y="306"/>
      <point x="684" y="234"/>
      <point x="684" y="161" type="curve" smooth="yes"/>
      <point x="684" y="67"/>
      <point x="613" y="0"/>
      <point x="493" y="0" type="curve" smooth="yes"/>
      <point x="315" y="0" type="line"/>
      <point x="315" y="454" type="line"/>
      <point x="171" y="454" type="line"/>
      <point x="172" y="298"/>
      <point x="171" y="0"/>
      <point x="21" y="0" type="curve"/>
      <point x="21" y="70" type="line"/>
      <point x="83" y="70"/>
      <point x="99" y="291"/>
      <point x="99" y="523" type="curve"/>
    </contour>
    <contour>
      <point x="386" y="240" type="line"/>
      <point x="386" y="70" type="line"/>
      <point x="489" y="70" type="line" smooth="yes"/>
      <point x="567" y="70"/>
      <point x="612" y="101"/>
      <point x="612" y="161" type="curve" smooth="yes"/>
      <point x="612" y="220"/>
      <point x="566" y="240"/>
      <point x="475" y="240" type="curve" smooth="yes"/>
    </contour>
  </outline>
  <lib>
    <dict>
      <key>com.fontlab.hintData</key>
      <dict>
	<key>hhints</key>
	<array>
	  <dict>
	    <key>position</key>	    <integer>0</integer>
	    <key>width</key>	    <integer>70</integer>
	  </dict>
	  <dict>
	    <key>position</key>	    <integer>240</integer>
	    <key>width</key>	    <integer>66</integer>
	  </dict>
	  <dict>
	    <key>position</key>	    <integer>454</integer>
	    <key>width</key>	    <integer>69</integer>
	  </dict>
	</array>
	<key>vhints</key>
	<array>
	  <dict>
	    <key>position</key>
	    <integer>99</integer>
	    <key>width</key>
	    <integer>72</integer>
	  </dict>
	  <dict>
	    <key>position</key>
	    <integer>315</integer>
	    <key>width</key>
	    <integer>71</integer>
	  </dict>
	  <dict>
	    <key>position</key>
	    <integer>612</integer>
	    <key>width</key>
	    <integer>72</integer>
	  </dict>
	</array>
      </dict>
    </dict>
  </lib>
</glyph>
