<?xml version="1.0" encoding="UTF-8"?>
<glyph name="breve" format="1">
  <advance width="273"/>
  <unicode hex="02D8"/>
  <outline>
    <contour>
      <point x="224" y="731" type="curve"/>
      <point x="263" y="731" type="line"/>
      <point x="251" y="637"/>
      <point x="212" y="595"/>
      <point x="134" y="595" type="curve" smooth="yes"/>
      <point x="59" y="595"/>
      <point x="21" y="637"/>
      <point x="11" y="731" type="curve"/>
      <point x="51" y="731" type="line"/>
      <point x="53" y="724" type="line"/>
      <point x="66" y="674"/>
      <point x="92" y="652"/>
      <point x="139" y="652" type="curve" smooth="yes"/>
      <point x="188" y="652"/>
      <point x="209" y="672"/>
    </contour>
  </outline>
  <lib>
    <dict>
      <key>com.fontlab.hintData</key>
      <dict>
	<key>hhints</key>
	<array>
	  <dict>
	    <key>position</key>	    <integer>595</integer>
	    <key>width</key>	    <integer>57</integer>
	  </dict>
	  <dict>
	    <key>position</key>	    <integer>711</integer>
	    <key>width</key>	    <integer>20</integer>
	  </dict>
	</array>
      </dict>
    </dict>
  </lib>
</glyph>
