<?xml version="1.0" encoding="UTF-8"?>
<glyph name="gcircumflex" format="1">
  <advance width="456"/>
  <unicode hex="011D"/>
  <outline>
    <contour>
      <point x="258" y="716" type="line"/>
      <point x="204" y="623" type="line"/>
      <point x="139" y="623" type="line"/>
      <point x="220" y="764" type="line"/>
      <point x="297" y="764" type="line"/>
      <point x="378" y="623" type="line"/>
      <point x="312" y="623" type="line"/>
    </contour>
    <contour>
      <point x="409" y="523" type="line"/>
      <point x="409" y="43" type="line" smooth="yes"/>
      <point x="409" y="-41"/>
      <point x="399" y="-93"/>
      <point x="374" y="-136" type="curve" smooth="yes"/>
      <point x="342" y="-191"/>
      <point x="286" y="-220"/>
      <point x="211" y="-220" type="curve" smooth="yes"/>
      <point x="169" y="-220"/>
      <point x="133" y="-209"/>
      <point x="105" y="-188" type="curve" smooth="yes"/>
      <point x="71" y="-161"/>
      <point x="57" y="-131"/>
      <point x="46" y="-64" type="curve"/>
      <point x="118" y="-64" type="line"/>
      <point x="131" y="-123"/>
      <point x="159" y="-147"/>
      <point x="214" y="-147" type="curve" smooth="yes"/>
      <point x="265" y="-147"/>
      <point x="299" y="-128"/>
      <point x="318" y="-88" type="curve" smooth="yes"/>
      <point x="332" y="-60"/>
      <point x="337" y="-27"/>
      <point x="337" y="37" type="curve" smooth="yes"/>
      <point x="337" y="58" type="line"/>
      <point x="309" y="7"/>
      <point x="273" y="-15"/>
      <point x="220" y="-15" type="curve" smooth="yes"/>
      <point x="107" y="-15"/>
      <point x="33" y="100"/>
      <point x="33" y="274" type="curve" smooth="yes"/>
      <point x="33" y="432"/>
      <point x="104" y="538"/>
      <point x="210" y="538" type="curve" smooth="yes"/>
      <point x="268" y="538"/>
      <point x="302" y="514"/>
      <point x="341" y="446" type="curve"/>
      <point x="341" y="523" type="line"/>
    </contour>
    <contour>
      <point x="225" y="460" type="curve" smooth="yes"/>
      <point x="147" y="460"/>
      <point x="108" y="397"/>
      <point x="108" y="269" type="curve" smooth="yes"/>
      <point x="108" y="138"/>
      <point x="150" y="62"/>
      <point x="222" y="62" type="curve" smooth="yes"/>
      <point x="296" y="62"/>
      <point x="340" y="132"/>
      <point x="340" y="247" type="curve" smooth="yes"/>
      <point x="340" y="385"/>
      <point x="299" y="460"/>
    </contour>
  </outline>
  <lib>
    <dict>
      <key>com.fontlab.hintData</key>
      <dict>
	<key>hhints</key>
	<array>
	  <dict>
	    <key>position</key>	    <integer>-220</integer>
	    <key>width</key>	    <integer>73</integer>
	  </dict>
	  <dict>
	    <key>position</key>	    <integer>-15</integer>
	    <key>width</key>	    <integer>77</integer>
	  </dict>
	  <dict>
	    <key>position</key>	    <integer>460</integer>
	    <key>width</key>	    <integer>78</integer>
	  </dict>
	</array>
	<key>vhints</key>
	<array>
	  <dict>
	    <key>position</key>
	    <integer>33</integer>
	    <key>width</key>
	    <integer>75</integer>
	  </dict>
	  <dict>
	    <key>position</key>
	    <integer>337</integer>
	    <key>width</key>
	    <integer>72</integer>
	  </dict>
	  <dict>
	    <key>position</key>
	    <integer>341</integer>
	    <key>width</key>
	    <integer>68</integer>
	  </dict>
	</array>
      </dict>
    </dict>
  </lib>
</glyph>
