<?xml version="1.0" encoding="UTF-8"?>
<glyph name="R" format="1">
  <advance width="796"/>
  <unicode hex="0052"/>
  <outline>
    <contour>
      <point x="304" y="350" type="line"/>
      <point x="249" y="144" type="line" smooth="yes"/>
      <point x="241" y="112"/>
      <point x="236" y="90"/>
      <point x="236" y="81" type="curve" smooth="yes"/>
      <point x="236" y="59"/>
      <point x="250" y="54"/>
      <point x="315" y="54" type="curve" smooth="yes"/>
      <point x="341" y="54" type="line"/>
      <point x="333" y="0" type="line"/>
      <point x="-41" y="0" type="line"/>
      <point x="-34" y="54" type="line"/>
      <point x="-30" y="54" type="line" smooth="yes"/>
      <point x="12" y="54"/>
      <point x="36" y="58"/>
      <point x="46" y="68" type="curve" smooth="yes"/>
      <point x="55" y="76"/>
      <point x="55" y="76"/>
      <point x="73" y="144" type="curve" smooth="yes"/>
      <point x="189" y="578" type="line" smooth="yes"/>
      <point x="200" y="618"/>
      <point x="203" y="632"/>
      <point x="203" y="641" type="curve" smooth="yes"/>
      <point x="203" y="663"/>
      <point x="189" y="668"/>
      <point x="124" y="668" type="curve" smooth="yes"/>
      <point x="105" y="668" type="line"/>
      <point x="112" y="722" type="line"/>
      <point x="459" y="722" type="line" smooth="yes"/>
      <point x="557" y="722"/>
      <point x="623" y="712"/>
      <point x="671" y="690" type="curve" smooth="yes"/>
      <point x="719" y="668"/>
      <point x="751" y="615"/>
      <point x="751" y="555" type="curve" smooth="yes"/>
      <point x="751" y="441"/>
      <point x="653" y="374"/>
      <point x="464" y="359" type="curve"/>
      <point x="515" y="345"/>
      <point x="538" y="331"/>
      <point x="564" y="304" type="curve"/>
      <point x="592" y="273"/>
      <point x="603" y="239"/>
      <point x="603" y="181" type="curve" smooth="yes"/>
      <point x="603" y="147" type="line" smooth="yes"/>
      <point x="603" y="81"/>
      <point x="603" y="81"/>
      <point x="610" y="72" type="curve" smooth="yes"/>
      <point x="615" y="65"/>
      <point x="621" y="61"/>
      <point x="628" y="61" type="curve" smooth="yes"/>
      <point x="646" y="61"/>
      <point x="668" y="82"/>
      <point x="682" y="114" type="curve" smooth="yes"/>
      <point x="687" y="125"/>
      <point x="690" y="132"/>
      <point x="699" y="157" type="curve"/>
      <point x="742" y="136" type="line"/>
      <point x="708" y="33"/>
      <point x="652" y="-15"/>
      <point x="567" y="-15" type="curve" smooth="yes"/>
      <point x="483" y="-15"/>
      <point x="424" y="44"/>
      <point x="424" y="127" type="curve" smooth="yes"/>
      <point x="424" y="148"/>
      <point x="427" y="179"/>
      <point x="431" y="211" type="curve" smooth="yes"/>
      <point x="434" y="232"/>
      <point x="436" y="254"/>
      <point x="436" y="269" type="curve" smooth="yes"/>
      <point x="436" y="324"/>
      <point x="403" y="350"/>
      <point x="334" y="350" type="curve" smooth="yes"/>
    </contour>
    <contour>
      <point x="319" y="404" type="line"/>
      <point x="353" y="404" type="line" smooth="yes"/>
      <point x="443" y="404"/>
      <point x="469" y="409"/>
      <point x="502" y="435" type="curve"/>
      <point x="542" y="464"/>
      <point x="567" y="517"/>
      <point x="567" y="570" type="curve" smooth="yes"/>
      <point x="567" y="633"/>
      <point x="529" y="668"/>
      <point x="459" y="668" type="curve" smooth="yes"/>
      <point x="434" y="668" type="line" smooth="yes"/>
      <point x="398" y="668"/>
      <point x="388" y="661"/>
      <point x="380" y="630" type="curve" smooth="yes"/>
    </contour>
  </outline>
  <lib>
    <dict>
      <key>com.fontlab.hintData</key>
      <dict>
	<key>hhints</key>
	<array>
	  <dict>
	    <key>position</key>	    <integer>-15</integer>
	    <key>width</key>	    <integer>76</integer>
	  </dict>
	  <dict>
	    <key>position</key>	    <integer>350</integer>
	    <key>width</key>	    <integer>54</integer>
	  </dict>
	  <dict>
	    <key>position</key>	    <integer>702</integer>
	    <key>width</key>	    <integer>20</integer>
	  </dict>
	</array>
	<key>vhints</key>
	<array>
	  <dict>
	    <key>position</key>
	    <integer>567</integer>
	    <key>width</key>
	    <integer>184</integer>
	  </dict>
	</array>
      </dict>
    </dict>
  </lib>
</glyph>
