<?xml version="1.0" encoding="UTF-8"?>
<glyph name="afii10072" format="1">
  <advance width="986"/>
  <unicode hex="0436"/>
  <outline>
    <contour>
      <point x="440" y="241" type="line"/>
      <point x="423" y="104"/>
      <point x="350" y="-9"/>
      <point x="209" y="-9" type="curve" smooth="yes"/>
      <point x="122" y="-9"/>
      <point x="65" y="38"/>
      <point x="65" y="99" type="curve" smooth="yes"/>
      <point x="65" y="134"/>
      <point x="89" y="160"/>
      <point x="123" y="160" type="curve" smooth="yes"/>
      <point x="145" y="160"/>
      <point x="161" y="146"/>
      <point x="161" y="126" type="curve" smooth="yes"/>
      <point x="161" y="108"/>
      <point x="155" y="92"/>
      <point x="155" y="78" type="curve" smooth="yes"/>
      <point x="155" y="48"/>
      <point x="166" y="28"/>
      <point x="203" y="28" type="curve" smooth="yes"/>
      <point x="236" y="28"/>
      <point x="275" y="66"/>
      <point x="297" y="102" type="curve" smooth="yes"/>
      <point x="319" y="138"/>
      <point x="351" y="243"/>
      <point x="351" y="310" type="curve" smooth="yes"/>
      <point x="351" y="391"/>
      <point x="348" y="448"/>
      <point x="272" y="448" type="curve" smooth="yes"/>
      <point x="218" y="448"/>
      <point x="181" y="422"/>
      <point x="115" y="367" type="curve"/>
      <point x="93" y="392" type="line"/>
      <point x="146" y="453"/>
      <point x="220" y="495"/>
      <point x="301" y="495" type="curve" smooth="yes"/>
      <point x="420" y="495"/>
      <point x="446" y="404"/>
      <point x="443" y="281" type="curve"/>
      <point x="497" y="281" type="line"/>
      <point x="534" y="486" type="line"/>
      <point x="626" y="486" type="line"/>
      <point x="589" y="281" type="line"/>
      <point x="638" y="281" type="line"/>
      <point x="665" y="402"/>
      <point x="731" y="495"/>
      <point x="860" y="495" type="curve" smooth="yes"/>
      <point x="947" y="495"/>
      <point x="1004" y="448"/>
      <point x="1004" y="387" type="curve" smooth="yes"/>
      <point x="1004" y="352"/>
      <point x="980" y="326"/>
      <point x="946" y="326" type="curve" smooth="yes"/>
      <point x="924" y="326"/>
      <point x="908" y="343"/>
      <point x="908" y="360" type="curve" smooth="yes"/>
      <point x="908" y="378"/>
      <point x="914" y="394"/>
      <point x="914" y="408" type="curve" smooth="yes"/>
      <point x="914" y="438"/>
      <point x="903" y="458"/>
      <point x="866" y="458" type="curve" smooth="yes"/>
      <point x="833" y="458"/>
      <point x="797" y="420"/>
      <point x="775" y="384" type="curve" smooth="yes"/>
      <point x="753" y="348"/>
      <point x="718" y="243"/>
      <point x="718" y="176" type="curve" smooth="yes"/>
      <point x="718" y="95"/>
      <point x="721" y="38"/>
      <point x="797" y="38" type="curve" smooth="yes"/>
      <point x="851" y="38"/>
      <point x="888" y="64"/>
      <point x="954" y="119" type="curve"/>
      <point x="976" y="94" type="line"/>
      <point x="923" y="33"/>
      <point x="861" y="-9"/>
      <point x="768" y="-9" type="curve" smooth="yes"/>
      <point x="631" y="-9"/>
      <point x="619" y="111"/>
      <point x="632" y="241" type="curve"/>
      <point x="582" y="241" type="line"/>
      <point x="538" y="0" type="line"/>
      <point x="446" y="0" type="line"/>
      <point x="490" y="241" type="line"/>
    </contour>
  </outline>
  <lib>
    <dict>
      <key>com.fontlab.hintData</key>
      <dict>
	<key>hhints</key>
	<array>
	  <dict>
	    <key>position</key>	    <integer>-9</integer>
	    <key>width</key>	    <integer>37</integer>
	  </dict>
	  <dict>
	    <key>position</key>	    <integer>-9</integer>
	    <key>width</key>	    <integer>47</integer>
	  </dict>
	  <dict>
	    <key>position</key>	    <integer>241</integer>
	    <key>width</key>	    <integer>40</integer>
	  </dict>
	  <dict>
	    <key>position</key>	    <integer>448</integer>
	    <key>width</key>	    <integer>47</integer>
	  </dict>
	  <dict>
	    <key>position</key>	    <integer>458</integer>
	    <key>width</key>	    <integer>37</integer>
	  </dict>
	</array>
	<key>vhints</key>
	<array>
	  <dict>
	    <key>position</key>
	    <integer>65</integer>
	    <key>width</key>
	    <integer>90</integer>
	  </dict>
	  <dict>
	    <key>position</key>
	    <integer>351</integer>
	    <key>width</key>
	    <integer>92</integer>
	  </dict>
	  <dict>
	    <key>position</key>
	    <integer>914</integer>
	    <key>width</key>
	    <integer>90</integer>
	  </dict>
	</array>
      </dict>
    </dict>
  </lib>
</glyph>
