<?xml version="1.0" encoding="UTF-8"?>
<glyph name="afii10037" format="1">
  <advance width="688"/>
  <unicode hex="0423"/>
  <outline>
    <contour>
      <point x="407" y="269" type="line"/>
      <point x="588" y="526" type="line" smooth="yes"/>
      <point x="608" y="555"/>
      <point x="619" y="588"/>
      <point x="620" y="602" type="curve" smooth="yes"/>
      <point x="623" y="630"/>
      <point x="612" y="641"/>
      <point x="561" y="651" type="curve"/>
      <point x="566" y="681" type="line"/>
      <point x="802" y="681" type="line"/>
      <point x="797" y="650" type="line"/>
      <point x="743" y="646"/>
      <point x="731" y="634"/>
      <point x="679" y="559" type="curve" smooth="yes"/>
      <point x="397" y="153" type="line"/>
      <point x="339" y="80"/>
      <point x="306" y="48"/>
      <point x="264" y="22" type="curve" smooth="yes"/>
      <point x="221" y="-5"/>
      <point x="189" y="-14"/>
      <point x="149" y="-14" type="curve" smooth="yes"/>
      <point x="95" y="-14"/>
      <point x="59" y="23"/>
      <point x="66" y="62" type="curve" smooth="yes"/>
      <point x="71" y="88"/>
      <point x="99" y="111"/>
      <point x="128" y="111" type="curve" smooth="yes"/>
      <point x="148" y="111"/>
      <point x="157" y="105"/>
      <point x="177" y="78" type="curve"/>
      <point x="188" y="65"/>
      <point x="197" y="59"/>
      <point x="207" y="59" type="curve"/>
      <point x="235" y="55"/>
      <point x="297" y="111"/>
      <point x="329" y="154" type="curve"/>
      <point x="199" y="587" type="line"/>
      <point x="188" y="633"/>
      <point x="178" y="643"/>
      <point x="130" y="650" type="curve"/>
      <point x="135" y="681" type="line"/>
      <point x="372" y="681" type="line"/>
      <point x="367" y="651" type="line"/>
      <point x="327" y="646"/>
      <point x="310" y="635"/>
      <point x="306" y="614" type="curve" smooth="yes"/>
      <point x="305" y="607"/>
      <point x="305" y="601"/>
      <point x="307" y="594" type="curve" smooth="yes"/>
    </contour>
  </outline>
  <lib>
    <dict>
      <key>com.fontlab.hintData</key>
      <dict>
	<key>hhints</key>
	<array>
	  <dict>
	    <key>position</key>	    <integer>-14</integer>
	    <key>width</key>	    <integer>73</integer>
	  </dict>
	  <dict>
	    <key>position</key>	    <integer>650</integer>
	    <key>width</key>	    <integer>31</integer>
	  </dict>
	</array>
      </dict>
    </dict>
  </lib>
</glyph>
