<?xml version="1.0" encoding="UTF-8"?>
<glyph name="asciitilde" format="1">
  <advance width="600"/>
  <unicode hex="007E"/>
  <outline>
    <contour>
      <point x="552" y="332" type="curve"/>
      <point x="595" y="285" type="line"/>
      <point x="558" y="214"/>
      <point x="507" y="173"/>
      <point x="455" y="173" type="curve" smooth="yes"/>
      <point x="432" y="173"/>
      <point x="407" y="180"/>
      <point x="362" y="199" type="curve" smooth="yes"/>
      <point x="308" y="221" type="line" smooth="yes"/>
      <point x="265" y="239"/>
      <point x="254" y="242"/>
      <point x="235" y="242" type="curve" smooth="yes"/>
      <point x="209" y="242"/>
      <point x="185" y="229"/>
      <point x="168" y="207" type="curve"/>
      <point x="158" y="192"/>
      <point x="152" y="184"/>
      <point x="133" y="152" type="curve"/>
      <point x="91" y="199" type="line"/>
      <point x="142" y="288"/>
      <point x="179" y="319"/>
      <point x="235" y="319" type="curve" smooth="yes"/>
      <point x="256" y="319"/>
      <point x="282" y="313"/>
      <point x="311" y="300" type="curve" smooth="yes"/>
      <point x="376" y="273" type="line" smooth="yes"/>
      <point x="419" y="255"/>
      <point x="437" y="250"/>
      <point x="456" y="250" type="curve" smooth="yes"/>
      <point x="489" y="250"/>
      <point x="517" y="274"/>
    </contour>
  </outline>
  <lib>
    <dict>
      <key>com.fontlab.hintData</key>
      <dict>
	<key>hhints</key>
	<array>
	  <dict>
	    <key>position</key>	    <integer>173</integer>
	    <key>width</key>	    <integer>77</integer>
	  </dict>
	  <dict>
	    <key>position</key>	    <integer>242</integer>
	    <key>width</key>	    <integer>77</integer>
	  </dict>
	</array>
      </dict>
    </dict>
  </lib>
</glyph>
