<?xml version="1.0" encoding="UTF-8"?>
<glyph name="Idieresis" format="1">
  <advance width="320"/>
  <unicode hex="00CF"/>
  <outline>
    <contour>
      <point x="294" y="29" type="line"/>
      <point x="288" y="0" type="line"/>
      <point x="21" y="0" type="line"/>
      <point x="26" y="29" type="line"/>
      <point x="43" y="31" type="line"/>
      <point x="96" y="40"/>
      <point x="114" y="61"/>
      <point x="128" y="128" type="curve"/>
      <point x="205" y="553" type="line" smooth="yes"/>
      <point x="207" y="564"/>
      <point x="209" y="584"/>
      <point x="209" y="594" type="curve" smooth="yes"/>
      <point x="209" y="627"/>
      <point x="191" y="645"/>
      <point x="155" y="650" type="curve" smooth="yes"/>
      <point x="139" y="652" type="line"/>
      <point x="145" y="681" type="line"/>
      <point x="412" y="681" type="line"/>
      <point x="407" y="652" type="line"/>
      <point x="390" y="650" type="line"/>
      <point x="337" y="641"/>
      <point x="319" y="620"/>
      <point x="305" y="553" type="curve"/>
      <point x="228" y="128" type="line" smooth="yes"/>
      <point x="226" y="117"/>
      <point x="224" y="97"/>
      <point x="224" y="87" type="curve" smooth="yes"/>
      <point x="224" y="54"/>
      <point x="242" y="36"/>
      <point x="278" y="31" type="curve" smooth="yes"/>
    </contour>
    <contour>
      <point x="225" y="859" type="curve" smooth="yes"/>
      <point x="253" y="859"/>
      <point x="274" y="838"/>
      <point x="274" y="809" type="curve" smooth="yes"/>
      <point x="274" y="772"/>
      <point x="240" y="739"/>
      <point x="202" y="739" type="curve" smooth="yes"/>
      <point x="173" y="739"/>
      <point x="154" y="760"/>
      <point x="154" y="791" type="curve" smooth="yes"/>
      <point x="154" y="827"/>
      <point x="188" y="859"/>
    </contour>
    <contour>
      <point x="368" y="859" type="curve" smooth="yes"/>
      <point x="396" y="859"/>
      <point x="417" y="838"/>
      <point x="417" y="809" type="curve" smooth="yes"/>
      <point x="417" y="772"/>
      <point x="383" y="739"/>
      <point x="345" y="739" type="curve" smooth="yes"/>
      <point x="316" y="739"/>
      <point x="297" y="760"/>
      <point x="297" y="791" type="curve" smooth="yes"/>
      <point x="297" y="827"/>
      <point x="331" y="859"/>
    </contour>
  </outline>
  <lib>
    <dict>
      <key>com.fontlab.hintData</key>
      <dict>
	<key>hhints</key>
	<array>
	  <dict>
	    <key>position</key>	    <integer>0</integer>
	    <key>width</key>	    <integer>20</integer>
	  </dict>
	  <dict>
	    <key>position</key>	    <integer>661</integer>
	    <key>width</key>	    <integer>20</integer>
	  </dict>
	</array>
      </dict>
    </dict>
  </lib>
</glyph>
