<?xml version="1.0" encoding="UTF-8"?>
<glyph name="rcommaaccent" format="1">
  <advance width="400"/>
  <unicode hex="0157"/>
  <outline>
    <contour>
      <point x="272" y="486" type="line"/>
      <point x="258" y="414" type="line"/>
      <point x="314" y="470"/>
      <point x="364" y="495"/>
      <point x="417" y="495" type="curve" smooth="yes"/>
      <point x="457" y="495"/>
      <point x="481" y="477"/>
      <point x="481" y="446" type="curve" smooth="yes"/>
      <point x="481" y="414"/>
      <point x="454" y="392"/>
      <point x="416" y="392" type="curve" smooth="yes"/>
      <point x="400" y="392"/>
      <point x="391" y="395"/>
      <point x="372" y="405" type="curve" smooth="yes"/>
      <point x="351" y="417"/>
      <point x="345" y="419"/>
      <point x="335" y="419" type="curve" smooth="yes"/>
      <point x="308" y="419"/>
      <point x="282" y="400"/>
      <point x="263" y="368" type="curve"/>
      <point x="251" y="345"/>
      <point x="239" y="305"/>
      <point x="229" y="251" type="curve" smooth="yes"/>
      <point x="183" y="0" type="line"/>
      <point x="91" y="0" type="line"/>
      <point x="156" y="358" type="line" smooth="yes"/>
      <point x="158" y="367"/>
      <point x="159" y="377"/>
      <point x="159" y="383" type="curve" smooth="yes"/>
      <point x="159" y="412"/>
      <point x="144" y="426"/>
      <point x="100" y="433" type="curve" smooth="yes"/>
      <point x="88" y="435" type="line"/>
      <point x="94" y="464" type="line"/>
      <point x="161" y="470"/>
      <point x="177" y="473"/>
      <point x="234" y="486" type="curve"/>
    </contour>
    <contour>
      <point x="59" y="-279" type="curve"/>
      <point x="50" y="-261" type="line"/>
      <point x="100" y="-233"/>
      <point x="130" y="-199"/>
      <point x="142" y="-155" type="curve"/>
      <point x="128" y="-167"/>
      <point x="116" y="-172"/>
      <point x="102" y="-172" type="curve" smooth="yes"/>
      <point x="78" y="-172"/>
      <point x="61" y="-152"/>
      <point x="61" y="-124" type="curve" smooth="yes"/>
      <point x="61" y="-84"/>
      <point x="95" y="-51"/>
      <point x="136" y="-51" type="curve" smooth="yes"/>
      <point x="167" y="-51"/>
      <point x="190" y="-78"/>
      <point x="190" y="-115" type="curve" smooth="yes"/>
      <point x="190" y="-181"/>
      <point x="136" y="-248"/>
    </contour>
  </outline>
  <lib>
    <dict>
      <key>com.fontlab.hintData</key>
      <dict>
	<key>hhints</key>
	<array>
	  <dict>
	    <key>position</key>	    <integer>466</integer>
	    <key>width</key>	    <integer>20</integer>
	  </dict>
	  <dict>
	    <key>position</key>	    <integer>475</integer>
	    <key>width</key>	    <integer>20</integer>
	  </dict>
	</array>
      </dict>
    </dict>
  </lib>
</glyph>
