<?xml version="1.0" encoding="UTF-8"?>
<glyph name="Thorn" format="1">
  <advance width="600"/>
  <unicode hex="00DE"/>
  <outline>
    <contour>
      <point x="235" y="147" type="line"/>
      <point x="231" y="128" type="line" smooth="yes"/>
      <point x="229" y="118"/>
      <point x="227" y="95"/>
      <point x="227" y="85" type="curve" smooth="yes"/>
      <point x="227" y="53"/>
      <point x="248" y="33"/>
      <point x="285" y="31" type="curve" smooth="yes"/>
      <point x="314" y="29" type="line"/>
      <point x="309" y="0" type="line"/>
      <point x="21" y="0" type="line"/>
      <point x="26" y="29" type="line"/>
      <point x="43" y="31" type="line" smooth="yes"/>
      <point x="98" y="38"/>
      <point x="117" y="59"/>
      <point x="131" y="128" type="curve"/>
      <point x="208" y="553" type="line" smooth="yes"/>
      <point x="210" y="561"/>
      <point x="212" y="586"/>
      <point x="212" y="596" type="curve" smooth="yes"/>
      <point x="212" y="628"/>
      <point x="195" y="645"/>
      <point x="155" y="650" type="curve" smooth="yes"/>
      <point x="139" y="652" type="line"/>
      <point x="145" y="681" type="line"/>
      <point x="419" y="681" type="line"/>
      <point x="413" y="652" type="line"/>
      <point x="397" y="650" type="line" smooth="yes"/>
      <point x="339" y="643"/>
      <point x="319" y="618"/>
      <point x="306" y="539" type="curve"/>
      <point x="425" y="539" type="line" smooth="yes"/>
      <point x="515" y="539"/>
      <point x="552" y="532"/>
      <point x="591" y="505" type="curve"/>
      <point x="634" y="477"/>
      <point x="656" y="433"/>
      <point x="656" y="376" type="curve" smooth="yes"/>
      <point x="656" y="306"/>
      <point x="619" y="232"/>
      <point x="566" y="196" type="curve" smooth="yes"/>
      <point x="516" y="162"/>
      <point x="443" y="147"/>
      <point x="327" y="147" type="curve" smooth="yes"/>
    </contour>
    <contour>
      <point x="241" y="184" type="line"/>
      <point x="334" y="184" type="line" smooth="yes"/>
      <point x="436" y="184"/>
      <point x="489" y="207"/>
      <point x="525" y="265" type="curve" smooth="yes"/>
      <point x="546" y="300"/>
      <point x="558" y="340"/>
      <point x="558" y="378" type="curve" smooth="yes"/>
      <point x="558" y="467"/>
      <point x="510" y="502"/>
      <point x="390" y="502" type="curve" smooth="yes"/>
      <point x="298" y="502" type="line"/>
    </contour>
  </outline>
  <lib>
    <dict>
      <key>com.fontlab.hintData</key>
      <dict>
	<key>hhints</key>
	<array>
	  <dict>
	    <key>position</key>	    <integer>0</integer>
	    <key>width</key>	    <integer>20</integer>
	  </dict>
	  <dict>
	    <key>position</key>	    <integer>147</integer>
	    <key>width</key>	    <integer>37</integer>
	  </dict>
	  <dict>
	    <key>position</key>	    <integer>502</integer>
	    <key>width</key>	    <integer>37</integer>
	  </dict>
	  <dict>
	    <key>position</key>	    <integer>661</integer>
	    <key>width</key>	    <integer>20</integer>
	  </dict>
	</array>
	<key>vhints</key>
	<array>
	  <dict>
	    <key>position</key>
	    <integer>558</integer>
	    <key>width</key>
	    <integer>98</integer>
	  </dict>
	</array>
      </dict>
    </dict>
  </lib>
</glyph>
