<?xml version="1.0" encoding="UTF-8"?>
<glyph name="tcaron" format="1">
  <advance width="340"/>
  <unicode hex="0165"/>
  <outline>
    <contour>
      <point x="300" y="665" type="line"/>
      <point x="268" y="486" type="line"/>
      <point x="411" y="486" type="line"/>
      <point x="405" y="454" type="line"/>
      <point x="262" y="454" type="line"/>
      <point x="210" y="170" type="line" smooth="yes"/>
      <point x="201" y="121"/>
      <point x="199" y="109"/>
      <point x="199" y="92" type="curve" smooth="yes"/>
      <point x="199" y="57"/>
      <point x="222" y="33"/>
      <point x="256" y="33" type="curve" smooth="yes"/>
      <point x="289" y="33"/>
      <point x="319" y="46"/>
      <point x="358" y="80" type="curve"/>
      <point x="380" y="55" type="line"/>
      <point x="334" y="12"/>
      <point x="283" y="-9"/>
      <point x="226" y="-9" type="curve" smooth="yes"/>
      <point x="150" y="-9"/>
      <point x="105" y="21"/>
      <point x="105" y="73" type="curve" smooth="yes"/>
      <point x="105" y="93"/>
      <point x="108" y="113"/>
      <point x="115" y="153" type="curve" smooth="yes"/>
      <point x="170" y="454" type="line"/>
      <point x="88" y="454" type="line"/>
      <point x="94" y="486" type="line"/>
      <point x="196" y="493"/>
      <point x="237" y="536"/>
      <point x="264" y="665" type="curve"/>
    </contour>
    <contour>
      <point x="329" y="496" type="curve"/>
      <point x="320" y="514" type="line"/>
      <point x="370" y="542"/>
      <point x="400" y="576"/>
      <point x="412" y="619" type="curve"/>
      <point x="398" y="607"/>
      <point x="387" y="602"/>
      <point x="372" y="602" type="curve" smooth="yes"/>
      <point x="348" y="602"/>
      <point x="331" y="622"/>
      <point x="331" y="650" type="curve" smooth="yes"/>
      <point x="331" y="690"/>
      <point x="365" y="723"/>
      <point x="406" y="723" type="curve" smooth="yes"/>
      <point x="437" y="723"/>
      <point x="460" y="696"/>
      <point x="460" y="659" type="curve" smooth="yes"/>
      <point x="460" y="593"/>
      <point x="406" y="526"/>
    </contour>
  </outline>
  <lib>
    <dict>
      <key>com.fontlab.hintData</key>
      <dict>
	<key>hhints</key>
	<array>
	  <dict>
	    <key>position</key>	    <integer>-9</integer>
	    <key>width</key>	    <integer>42</integer>
	  </dict>
	  <dict>
	    <key>position</key>	    <integer>454</integer>
	    <key>width</key>	    <integer>32</integer>
	  </dict>
	  <dict>
	    <key>position</key>	    <integer>476</integer>
	    <key>width</key>	    <integer>20</integer>
	  </dict>
	</array>
	<key>vhints</key>
	<array>
	  <dict>
	    <key>position</key>
	    <integer>105</integer>
	    <key>width</key>
	    <integer>94</integer>
	  </dict>
	</array>
      </dict>
    </dict>
  </lib>
</glyph>
