<?xml version="1.0" encoding="UTF-8"?>
<glyph name="afii10087" format="1">
  <advance width="456"/>
  <unicode hex="0445"/>
  <outline>
    <contour>
      <point x="342" y="271" type="line"/>
      <point x="443" y="0" type="line"/>
      <point x="301" y="0" type="line"/>
      <point x="254" y="160" type="line"/>
      <point x="151" y="0" type="line"/>
      <point x="12" y="0" type="line"/>
      <point x="208" y="271" type="line"/>
      <point x="110" y="532" type="line"/>
      <point x="250" y="532" type="line"/>
      <point x="297" y="377" type="line"/>
      <point x="396" y="532" type="line"/>
      <point x="531" y="532" type="line"/>
    </contour>
  </outline>
  <lib>
    <dict>
      <key>com.fontlab.hintData</key>
      <dict>
	<key>hhints</key>
	<array>
	  <dict>
	    <key>position</key>	    <integer>0</integer>
	    <key>width</key>	    <integer>21</integer>
	  </dict>
	  <dict>
	    <key>position</key>	    <integer>512</integer>
	    <key>width</key>	    <integer>20</integer>
	  </dict>
	</array>
      </dict>
    </dict>
  </lib>
</glyph>
