<?xml version="1.0" encoding="UTF-8"?>
<glyph name="afii10089" format="1">
  <advance width="418"/>
  <unicode hex="0447"/>
  <outline>
    <contour>
      <point x="458" y="532" type="line"/>
      <point x="364" y="0" type="line"/>
      <point x="250" y="0" type="line"/>
      <point x="282" y="186" type="line"/>
      <point x="256" y="166"/>
      <point x="216" y="164"/>
      <point x="172" y="164" type="curve" smooth="yes"/>
      <point x="129" y="164"/>
      <point x="48" y="192"/>
      <point x="48" y="284" type="curve" smooth="yes"/>
      <point x="48" y="293"/>
      <point x="49" y="303"/>
      <point x="51" y="313" type="curve" smooth="yes"/>
      <point x="90" y="532" type="line"/>
      <point x="204" y="532" type="line"/>
      <point x="165" y="316" type="line" smooth="yes"/>
      <point x="163" y="310"/>
      <point x="162" y="304"/>
      <point x="162" y="298" type="curve" smooth="yes"/>
      <point x="162" y="279"/>
      <point x="176" y="261"/>
      <point x="228" y="261" type="curve" smooth="yes"/>
      <point x="262" y="261"/>
      <point x="293" y="283"/>
      <point x="305" y="316" type="curve"/>
      <point x="344" y="532" type="line"/>
    </contour>
  </outline>
  <lib>
    <dict>
      <key>com.fontlab.hintData</key>
      <dict>
	<key>hhints</key>
	<array>
	  <dict>
	    <key>position</key>	    <integer>0</integer>
	    <key>width</key>	    <integer>21</integer>
	  </dict>
	  <dict>
	    <key>position</key>	    <integer>164</integer>
	    <key>width</key>	    <integer>97</integer>
	  </dict>
	  <dict>
	    <key>position</key>	    <integer>512</integer>
	    <key>width</key>	    <integer>20</integer>
	  </dict>
	</array>
      </dict>
    </dict>
  </lib>
</glyph>
