<?xml version="1.0" encoding="UTF-8"?>
<glyph name="afii10027" format="1">
  <advance width="596"/>
  <unicode hex="0419"/>
  <outline>
    <contour>
      <point x="559" y="936" type="curve"/>
      <point x="612" y="936" type="line"/>
      <point x="585" y="839"/>
      <point x="528" y="790"/>
      <point x="444" y="790" type="curve" smooth="yes"/>
      <point x="374" y="790"/>
      <point x="335" y="832"/>
      <point x="335" y="908" type="curve" smooth="yes"/>
      <point x="335" y="914"/>
      <point x="335" y="924"/>
      <point x="336" y="936" type="curve"/>
      <point x="390" y="936" type="line"/>
      <point x="390" y="930" type="line" smooth="yes"/>
      <point x="390" y="885"/>
      <point x="411" y="866"/>
      <point x="462" y="866" type="curve" smooth="yes"/>
      <point x="515" y="866"/>
      <point x="539" y="883"/>
    </contour>
    <contour>
      <point x="512" y="504" type="line"/>
      <point x="187" y="0" type="line"/>
      <point x="58" y="0" type="line"/>
      <point x="184" y="718" type="line"/>
      <point x="298" y="718" type="line"/>
      <point x="207" y="203" type="line"/>
      <point x="541" y="718" type="line"/>
      <point x="663" y="718" type="line"/>
      <point x="537" y="0" type="line"/>
      <point x="423" y="0" type="line"/>
    </contour>
  </outline>
  <lib>
    <dict>
      <key>com.fontlab.hintData</key>
      <dict>
	<key>hhints</key>
	<array>
	  <dict>
	    <key>position</key>	    <integer>0</integer>
	    <key>width</key>	    <integer>21</integer>
	  </dict>
	  <dict>
	    <key>position</key>	    <integer>698</integer>
	    <key>width</key>	    <integer>20</integer>
	  </dict>
	  <dict>
	    <key>position</key>	    <integer>790</integer>
	    <key>width</key>	    <integer>76</integer>
	  </dict>
	</array>
	<key>vhints</key>
	<array>
	  <dict>
	    <key>position</key>
	    <integer>335</integer>
	    <key>width</key>
	    <integer>55</integer>
	  </dict>
	  <dict>
	    <key>position</key>
	    <integer>336</integer>
	    <key>width</key>
	    <integer>54</integer>
	  </dict>
	</array>
      </dict>
    </dict>
  </lib>
</glyph>
