<?xml version="1.0" encoding="UTF-8"?>
<glyph name="kgreenlandic" format="1">
  <advance width="457"/>
  <unicode hex="0138"/>
  <outline>
    <contour>
      <point x="171" y="0" type="line"/>
      <point x="57" y="0" type="line"/>
      <point x="151" y="532" type="line"/>
      <point x="265" y="532" type="line"/>
      <point x="232" y="346" type="line"/>
      <point x="409" y="532" type="line"/>
      <point x="550" y="532" type="line"/>
      <point x="304" y="282" type="line"/>
      <point x="461" y="0" type="line"/>
      <point x="323" y="0" type="line"/>
      <point x="208" y="208" type="line"/>
    </contour>
  </outline>
  <lib>
    <dict>
      <key>com.fontlab.hintData</key>
      <dict>
	<key>hhints</key>
	<array>
	  <dict>
	    <key>position</key>	    <integer>0</integer>
	    <key>width</key>	    <integer>21</integer>
	  </dict>
	  <dict>
	    <key>position</key>	    <integer>512</integer>
	    <key>width</key>	    <integer>20</integer>
	  </dict>
	</array>
	<key>vhints</key>
	<array>
	  <dict>
	    <key>position</key>
	    <integer>57</integer>
	    <key>width</key>
	    <integer>493</integer>
	  </dict>
	</array>
      </dict>
    </dict>
  </lib>
</glyph>
