<?xml version="1.0" encoding="UTF-8"?>
<glyph name="ordmasculine" format="1">
  <advance width="299"/>
  <unicode hex="00BA"/>
  <outline>
    <contour>
      <point x="279" y="737" type="curve" smooth="yes"/>
      <point x="353" y="737"/>
      <point x="398" y="688"/>
      <point x="398" y="606" type="curve" smooth="yes"/>
      <point x="398" y="493"/>
      <point x="318" y="401"/>
      <point x="220" y="401" type="curve" smooth="yes"/>
      <point x="146" y="401"/>
      <point x="101" y="450"/>
      <point x="101" y="531" type="curve" smooth="yes"/>
      <point x="101" y="644"/>
      <point x="181" y="737"/>
    </contour>
    <contour>
      <point x="266" y="665" type="curve" smooth="yes"/>
      <point x="221" y="665"/>
      <point x="182" y="608"/>
      <point x="182" y="541" type="curve" smooth="yes"/>
      <point x="182" y="499"/>
      <point x="201" y="473"/>
      <point x="233" y="473" type="curve" smooth="yes"/>
      <point x="278" y="473"/>
      <point x="317" y="530"/>
      <point x="317" y="597" type="curve" smooth="yes"/>
      <point x="317" y="639"/>
      <point x="297" y="665"/>
    </contour>
    <contour>
      <point x="89" y="356" type="line"/>
      <point x="335" y="356" type="line"/>
      <point x="321" y="276" type="line"/>
      <point x="75" y="276" type="line"/>
    </contour>
  </outline>
  <lib>
    <dict>
      <key>com.fontlab.hintData</key>
      <dict>
	<key>hhints</key>
	<array>
	  <dict>
	    <key>position</key>	    <integer>276</integer>
	    <key>width</key>	    <integer>80</integer>
	  </dict>
	  <dict>
	    <key>position</key>	    <integer>401</integer>
	    <key>width</key>	    <integer>72</integer>
	  </dict>
	  <dict>
	    <key>position</key>	    <integer>665</integer>
	    <key>width</key>	    <integer>72</integer>
	  </dict>
	</array>
	<key>vhints</key>
	<array>
	  <dict>
	    <key>position</key>
	    <integer>101</integer>
	    <key>width</key>
	    <integer>81</integer>
	  </dict>
	  <dict>
	    <key>position</key>
	    <integer>317</integer>
	    <key>width</key>
	    <integer>81</integer>
	  </dict>
	</array>
      </dict>
    </dict>
  </lib>
</glyph>
