<?xml version="1.0" encoding="UTF-8"?>
<glyph name="ucircumflex" format="1">
  <advance width="501"/>
  <unicode hex="00FB"/>
  <outline>
    <contour>
      <point x="540" y="532" type="line"/>
      <point x="447" y="0" type="line"/>
      <point x="337" y="0" type="line"/>
      <point x="351" y="78" type="line"/>
      <point x="306" y="13"/>
      <point x="262" y="-14"/>
      <point x="199" y="-14" type="curve" smooth="yes"/>
      <point x="123" y="-14"/>
      <point x="80" y="34"/>
      <point x="80" y="120" type="curve" smooth="yes"/>
      <point x="80" y="140"/>
      <point x="82" y="161"/>
      <point x="85" y="182" type="curve" smooth="yes"/>
      <point x="147" y="532" type="line"/>
      <point x="262" y="532" type="line"/>
      <point x="204" y="202" type="line" smooth="yes"/>
      <point x="202" y="191"/>
      <point x="201" y="180"/>
      <point x="201" y="168" type="curve" smooth="yes"/>
      <point x="201" y="126"/>
      <point x="221" y="104"/>
      <point x="260" y="104" type="curve" smooth="yes"/>
      <point x="316" y="104"/>
      <point x="358" y="150"/>
      <point x="371" y="225" type="curve" smooth="yes"/>
      <point x="425" y="532" type="line"/>
    </contour>
    <contour>
      <point x="433" y="750" type="line"/>
      <point x="501" y="604" type="line"/>
      <point x="408" y="604" type="line"/>
      <point x="370" y="686" type="line"/>
      <point x="304" y="604" type="line"/>
      <point x="211" y="604" type="line"/>
      <point x="330" y="750" type="line"/>
    </contour>
  </outline>
  <lib>
    <dict>
      <key>com.fontlab.hintData</key>
      <dict>
	<key>hhints</key>
	<array>
	  <dict>
	    <key>position</key>	    <integer>-14</integer>
	    <key>width</key>	    <integer>118</integer>
	  </dict>
	  <dict>
	    <key>position</key>	    <integer>512</integer>
	    <key>width</key>	    <integer>20</integer>
	  </dict>
	  <dict>
	    <key>position</key>	    <integer>604</integer>
	    <key>width</key>	    <integer>146</integer>
	  </dict>
	</array>
	<key>vhints</key>
	<array>
	  <dict>
	    <key>position</key>
	    <integer>80</integer>
	    <key>width</key>
	    <integer>121</integer>
	  </dict>
	</array>
      </dict>
    </dict>
  </lib>
</glyph>
