<?xml version="1.0" encoding="UTF-8"?>
<glyph name="Cdotaccent" format="1">
  <advance width="709"/>
  <unicode hex="010A"/>
  <outline>
    <contour>
      <point x="347" y="892" type="curve" smooth="yes"/>
      <point x="376" y="892"/>
      <point x="396" y="871"/>
      <point x="396" y="842" type="curve" smooth="yes"/>
      <point x="396" y="812"/>
      <point x="376" y="792"/>
      <point x="346" y="792" type="curve" smooth="yes"/>
      <point x="316" y="792"/>
      <point x="296" y="812"/>
      <point x="296" y="842" type="curve" smooth="yes"/>
      <point x="296" y="872"/>
      <point x="316" y="892"/>
    </contour>
    <contour>
      <point x="670" y="84" type="line"/>
      <point x="642" y="34" type="line"/>
      <point x="573" y="-2"/>
      <point x="498" y="-20"/>
      <point x="415" y="-20" type="curve" smooth="yes"/>
      <point x="180" y="-20"/>
      <point x="22" y="126"/>
      <point x="22" y="342" type="curve" smooth="yes"/>
      <point x="22" y="477"/>
      <point x="82" y="582"/>
      <point x="196" y="649" type="curve" smooth="yes"/>
      <point x="263" y="688"/>
      <point x="346" y="709"/>
      <point x="433" y="709" type="curve" smooth="yes"/>
      <point x="506" y="709"/>
      <point x="579" y="696"/>
      <point x="664" y="668" type="curve"/>
      <point x="650" y="602"/>
      <point x="646" y="566"/>
      <point x="645" y="516" type="curve"/>
      <point x="614" y="516" type="line"/>
      <point x="614" y="588" type="line" smooth="yes"/>
      <point x="614" y="627"/>
      <point x="513" y="667"/>
      <point x="415" y="667" type="curve" smooth="yes"/>
      <point x="243" y="667"/>
      <point x="129" y="545"/>
      <point x="129" y="361" type="curve" smooth="yes"/>
      <point x="129" y="164"/>
      <point x="259" y="34"/>
      <point x="454" y="34" type="curve" smooth="yes"/>
      <point x="530" y="34"/>
      <point x="599" y="54"/>
      <point x="661" y="94" type="curve"/>
    </contour>
  </outline>
  <lib>
    <dict>
      <key>com.fontlab.hintData</key>
      <dict>
	<key>hhints</key>
	<array>
	  <dict>
	    <key>position</key>	    <integer>-20</integer>
	    <key>width</key>	    <integer>54</integer>
	  </dict>
	  <dict>
	    <key>position</key>	    <integer>667</integer>
	    <key>width</key>	    <integer>42</integer>
	  </dict>
	  <dict>
	    <key>position</key>	    <integer>792</integer>
	    <key>width</key>	    <integer>100</integer>
	  </dict>
	</array>
	<key>vhints</key>
	<array>
	  <dict>
	    <key>position</key>
	    <integer>22</integer>
	    <key>width</key>
	    <integer>107</integer>
	  </dict>
	  <dict>
	    <key>position</key>
	    <integer>296</integer>
	    <key>width</key>
	    <integer>100</integer>
	  </dict>
	  <dict>
	    <key>position</key>
	    <integer>614</integer>
	    <key>width</key>
	    <integer>31</integer>
	  </dict>
	</array>
      </dict>
    </dict>
  </lib>
</glyph>
