<?xml version="1.0" encoding="UTF-8"?>
<glyph name="fi" format="1">
  <advance width="605"/>
  <unicode hex="FB01"/>
  <outline>
    <contour>
      <point x="341" y="717" type="curve"/>
      <point x="341" y="640" type="line"/>
      <point x="329" y="634" type="line"/>
      <point x="305" y="655"/>
      <point x="287" y="662"/>
      <point x="260" y="662" type="curve" smooth="yes"/>
      <point x="203" y="662"/>
      <point x="190" y="634"/>
      <point x="190" y="519" type="curve" smooth="yes"/>
      <point x="190" y="434" type="line"/>
      <point x="311" y="438" type="line"/>
      <point x="304" y="385" type="line"/>
      <point x="190" y="385" type="line"/>
      <point x="190" y="102" type="line" smooth="yes"/>
      <point x="190" y="39"/>
      <point x="193" y="32"/>
      <point x="227" y="30" type="curve" smooth="yes"/>
      <point x="279" y="27" type="line"/>
      <point x="279" y="-3" type="line"/>
      <point x="201" y="-1"/>
      <point x="173" y="0"/>
      <point x="149" y="0" type="curve" smooth="yes"/>
      <point x="123" y="0"/>
      <point x="123" y="0"/>
      <point x="23" y="-3" type="curve"/>
      <point x="23" y="27" type="line"/>
      <point x="69" y="30" type="line" smooth="yes"/>
      <point x="103" y="32"/>
      <point x="106" y="39"/>
      <point x="106" y="102" type="curve" smooth="yes"/>
      <point x="106" y="385" type="line"/>
      <point x="37" y="381" type="line"/>
      <point x="37" y="403" type="line"/>
      <point x="106" y="434" type="line"/>
      <point x="106" y="476" type="line" smooth="yes"/>
      <point x="106" y="542"/>
      <point x="119" y="587"/>
      <point x="148" y="620" type="curve" smooth="yes"/>
      <point x="206" y="686" type="line" smooth="yes"/>
      <point x="228" y="711"/>
      <point x="263" y="728"/>
      <point x="295" y="728" type="curve" smooth="yes"/>
      <point x="308" y="728"/>
      <point x="320" y="725"/>
    </contour>
    <contour>
      <point x="504" y="462" type="line"/>
      <point x="504" y="102" type="line" smooth="yes"/>
      <point x="504" y="39"/>
      <point x="507" y="32"/>
      <point x="541" y="30" type="curve" smooth="yes"/>
      <point x="587" y="27" type="line"/>
      <point x="587" y="-3" type="line"/>
      <point x="487" y="0"/>
      <point x="487" y="0"/>
      <point x="462" y="0" type="curve" smooth="yes"/>
      <point x="437" y="0"/>
      <point x="437" y="0"/>
      <point x="337" y="-3" type="curve"/>
      <point x="337" y="27" type="line"/>
      <point x="383" y="30" type="line" smooth="yes"/>
      <point x="417" y="32"/>
      <point x="420" y="39"/>
      <point x="420" y="102" type="curve" smooth="yes"/>
      <point x="420" y="325" type="line" smooth="yes"/>
      <point x="420" y="391"/>
      <point x="416" y="398"/>
      <point x="376" y="398" type="curve" smooth="yes"/>
      <point x="339" y="398" type="line"/>
      <point x="339" y="426" type="line"/>
      <point x="398" y="433"/>
      <point x="451" y="447"/>
      <point x="495" y="469" type="curve"/>
    </contour>
    <contour>
      <point x="467" y="687" type="curve" smooth="yes"/>
      <point x="495" y="687"/>
      <point x="522" y="659"/>
      <point x="522" y="631" type="curve" smooth="yes"/>
      <point x="522" y="602"/>
      <point x="495" y="576"/>
      <point x="466" y="576" type="curve" smooth="yes"/>
      <point x="437" y="576"/>
      <point x="411" y="602"/>
      <point x="411" y="631" type="curve" smooth="yes"/>
      <point x="411" y="661"/>
      <point x="437" y="687"/>
    </contour>
  </outline>
  <lib>
    <dict>
      <key>com.fontlab.hintData</key>
      <dict>
	<key>hhints</key>
	<array>
	  <dict>
	    <key>position</key>	    <integer>-3</integer>
	    <key>width</key>	    <integer>30</integer>
	  </dict>
	  <dict>
	    <key>position</key>	    <integer>449</integer>
	    <key>width</key>	    <integer>20</integer>
	  </dict>
	  <dict>
	    <key>position</key>	    <integer>576</integer>
	    <key>width</key>	    <integer>111</integer>
	  </dict>
	  <dict>
	    <key>position</key>	    <integer>662</integer>
	    <key>width</key>	    <integer>66</integer>
	  </dict>
	</array>
	<key>vhints</key>
	<array>
	  <dict>
	    <key>position</key>
	    <integer>106</integer>
	    <key>width</key>
	    <integer>84</integer>
	  </dict>
	  <dict>
	    <key>position</key>
	    <integer>411</integer>
	    <key>width</key>
	    <integer>111</integer>
	  </dict>
	  <dict>
	    <key>position</key>
	    <integer>420</integer>
	    <key>width</key>
	    <integer>84</integer>
	  </dict>
	</array>
      </dict>
    </dict>
  </lib>
</glyph>
