<?xml version="1.0" encoding="UTF-8"?>
<glyph name="ncaron" format="1">
  <advance width="582"/>
  <unicode hex="0148"/>
  <outline>
    <contour>
      <point x="410" y="-3" type="curve"/>
      <point x="410" y="281" type="line" smooth="yes"/>
      <point x="410" y="358"/>
      <point x="366" y="408"/>
      <point x="299" y="408" type="curve" smooth="yes"/>
      <point x="238" y="408"/>
      <point x="172" y="359"/>
      <point x="172" y="314" type="curve" smooth="yes"/>
      <point x="172" y="102" type="line" smooth="yes"/>
      <point x="172" y="39"/>
      <point x="175" y="32"/>
      <point x="209" y="30" type="curve" smooth="yes"/>
      <point x="254" y="27" type="line"/>
      <point x="254" y="-3" type="line"/>
      <point x="186" y="-1"/>
      <point x="159" y="0"/>
      <point x="130" y="0" type="curve" smooth="yes"/>
      <point x="101" y="0"/>
      <point x="74" y="-1"/>
      <point x="6" y="-3" type="curve"/>
      <point x="6" y="27" type="line"/>
      <point x="51" y="30" type="line" smooth="yes"/>
      <point x="85" y="32"/>
      <point x="88" y="39"/>
      <point x="88" y="102" type="curve" smooth="yes"/>
      <point x="88" y="327" type="line" smooth="yes"/>
      <point x="88" y="393"/>
      <point x="84" y="400"/>
      <point x="44" y="400" type="curve" smooth="yes"/>
      <point x="7" y="400" type="line"/>
      <point x="7" y="428" type="line"/>
      <point x="60" y="434"/>
      <point x="112" y="448"/>
      <point x="163" y="469" type="curve"/>
      <point x="172" y="465" type="line"/>
      <point x="172" y="378" type="line"/>
      <point x="248" y="444" type="line" smooth="yes"/>
      <point x="269" y="462"/>
      <point x="290" y="469"/>
      <point x="327" y="469" type="curve" smooth="yes"/>
      <point x="439" y="469"/>
      <point x="494" y="412"/>
      <point x="494" y="295" type="curve" smooth="yes"/>
      <point x="494" y="102" type="line" smooth="yes"/>
      <point x="494" y="38"/>
      <point x="497" y="32"/>
      <point x="531" y="30" type="curve" smooth="yes"/>
      <point x="572" y="27" type="line"/>
      <point x="572" y="-3" type="line"/>
      <point x="503" y="0"/>
      <point x="503" y="0"/>
      <point x="489" y="0" type="curve" smooth="yes"/>
      <point x="472" y="0"/>
      <point x="471" y="0"/>
    </contour>
    <contour>
      <point x="292" y="574" type="line"/>
      <point x="414" y="677" type="line"/>
      <point x="448" y="677" type="line"/>
      <point x="323" y="510" type="line"/>
      <point x="261" y="510" type="line"/>
      <point x="136" y="677" type="line"/>
      <point x="171" y="677" type="line"/>
    </contour>
  </outline>
  <lib>
    <dict>
      <key>com.fontlab.hintData</key>
      <dict>
	<key>hhints</key>
	<array>
	  <dict>
	    <key>position</key>	    <integer>-3</integer>
	    <key>width</key>	    <integer>30</integer>
	  </dict>
	  <dict>
	    <key>position</key>	    <integer>408</integer>
	    <key>width</key>	    <integer>61</integer>
	  </dict>
	</array>
	<key>vhints</key>
	<array>
	  <dict>
	    <key>position</key>
	    <integer>88</integer>
	    <key>width</key>
	    <integer>84</integer>
	  </dict>
	  <dict>
	    <key>position</key>
	    <integer>410</integer>
	    <key>width</key>
	    <integer>84</integer>
	  </dict>
	</array>
      </dict>
    </dict>
  </lib>
</glyph>
