<?xml version="1.0" encoding="UTF-8"?>
<glyph name="Zcaron" format="1">
  <advance width="667"/>
  <unicode hex="017D"/>
  <outline>
    <contour>
      <point x="637" y="663" type="line"/>
      <point x="151" y="44" type="line"/>
      <point x="424" y="44" type="line" smooth="yes"/>
      <point x="577" y="44"/>
      <point x="591" y="50"/>
      <point x="598" y="116" type="curve" smooth="yes"/>
      <point x="604" y="173" type="line"/>
      <point x="638" y="173" type="line"/>
      <point x="633" y="118"/>
      <point x="632" y="83"/>
      <point x="632" y="-3" type="curve"/>
      <point x="355" y="0" type="line"/>
      <point x="327" y="0" type="line"/>
      <point x="15" y="-3" type="line"/>
      <point x="15" y="25" type="line"/>
      <point x="79" y="101"/>
      <point x="98" y="123"/>
      <point x="112" y="142" type="curve" smooth="yes"/>
      <point x="414" y="530" type="line" smooth="yes"/>
      <point x="428" y="548"/>
      <point x="442" y="565"/>
      <point x="455" y="583" type="curve"/>
      <point x="475" y="608"/>
      <point x="485" y="623"/>
      <point x="500" y="648" type="curve"/>
      <point x="272" y="648" type="line" smooth="yes"/>
      <point x="150" y="648"/>
      <point x="123" y="640"/>
      <point x="120" y="601" type="curve" smooth="yes"/>
      <point x="114" y="530" type="line"/>
      <point x="80" y="530" type="line"/>
      <point x="82" y="567"/>
      <point x="83" y="585"/>
      <point x="83" y="611" type="curve" smooth="yes"/>
      <point x="83" y="637"/>
      <point x="82" y="655"/>
      <point x="80" y="692" type="curve"/>
      <point x="245" y="691" type="line"/>
      <point x="427" y="689" type="line"/>
      <point x="477" y="689" type="line"/>
      <point x="633" y="692" type="line"/>
    </contour>
    <contour>
      <point x="345" y="805" type="line"/>
      <point x="467" y="908" type="line"/>
      <point x="501" y="908" type="line"/>
      <point x="376" y="741" type="line"/>
      <point x="314" y="741" type="line"/>
      <point x="189" y="908" type="line"/>
      <point x="224" y="908" type="line"/>
    </contour>
  </outline>
  <lib>
    <dict>
      <key>com.fontlab.hintData</key>
      <dict>
	<key>hhints</key>
	<array>
	  <dict>
	    <key>position</key>	    <integer>-3</integer>
	    <key>width</key>	    <integer>20</integer>
	  </dict>
	  <dict>
	    <key>position</key>	    <integer>0</integer>
	    <key>width</key>	    <integer>44</integer>
	  </dict>
	  <dict>
	    <key>position</key>	    <integer>648</integer>
	    <key>width</key>	    <integer>41</integer>
	  </dict>
	  <dict>
	    <key>position</key>	    <integer>672</integer>
	    <key>width</key>	    <integer>20</integer>
	  </dict>
	</array>
      </dict>
    </dict>
  </lib>
</glyph>
