<?xml version="1.0" encoding="UTF-8"?>
<glyph name="Ibreve" format="1">
  <advance width="333"/>
  <unicode hex="012C"/>
  <outline>
    <contour>
      <point x="109" y="109" type="curve" smooth="yes"/>
      <point x="109" y="553" type="line" smooth="yes"/>
      <point x="109" y="627"/>
      <point x="97" y="638"/>
      <point x="12" y="643" type="curve"/>
      <point x="12" y="662" type="line"/>
      <point x="309" y="662" type="line"/>
      <point x="309" y="643" type="line"/>
      <point x="225" y="639"/>
      <point x="211" y="626"/>
      <point x="211" y="553" type="curve" smooth="yes"/>
      <point x="211" y="109" type="line" smooth="yes"/>
      <point x="211" y="36"/>
      <point x="227" y="22"/>
      <point x="309" y="19" type="curve"/>
      <point x="309" y="0" type="line"/>
      <point x="12" y="0" type="line"/>
      <point x="12" y="19" type="line"/>
      <point x="96" y="22"/>
      <point x="109" y="34"/>
    </contour>
    <contour>
      <point x="272" y="869" type="curve"/>
      <point x="301" y="869" type="line"/>
      <point x="289" y="763"/>
      <point x="243" y="712"/>
      <point x="159" y="712" type="curve" smooth="yes"/>
      <point x="112" y="712"/>
      <point x="72" y="731"/>
      <point x="47" y="766" type="curve" smooth="yes"/>
      <point x="28" y="794"/>
      <point x="21" y="818"/>
      <point x="20" y="869" type="curve"/>
      <point x="49" y="869" type="line"/>
      <point x="63" y="802"/>
      <point x="97" y="772"/>
      <point x="161" y="772" type="curve" smooth="yes"/>
      <point x="219" y="772"/>
      <point x="244" y="793"/>
    </contour>
  </outline>
  <lib>
    <dict>
      <key>com.fontlab.hintData</key>
      <dict>
	<key>hhints</key>
	<array>
	  <dict>
	    <key>position</key>	    <integer>0</integer>
	    <key>width</key>	    <integer>19</integer>
	  </dict>
	  <dict>
	    <key>position</key>	    <integer>643</integer>
	    <key>width</key>	    <integer>19</integer>
	  </dict>
	  <dict>
	    <key>position</key>	    <integer>712</integer>
	    <key>width</key>	    <integer>60</integer>
	  </dict>
	</array>
	<key>vhints</key>
	<array>
	  <dict>
	    <key>position</key>
	    <integer>109</integer>
	    <key>width</key>
	    <integer>102</integer>
	  </dict>
	</array>
      </dict>
    </dict>
  </lib>
</glyph>
