<?xml version="1.0" encoding="UTF-8"?>
<glyph name="Uacute" format="1">
  <advance width="722"/>
  <unicode hex="00DA"/>
  <outline>
    <contour>
      <point x="611" y="515" type="curve" smooth="yes"/>
      <point x="611" y="254" type="line" smooth="yes"/>
      <point x="611" y="177"/>
      <point x="602" y="131"/>
      <point x="578" y="89" type="curve" smooth="yes"/>
      <point x="539" y="21"/>
      <point x="464" y="-14"/>
      <point x="355" y="-14" type="curve" smooth="yes"/>
      <point x="185" y="-14"/>
      <point x="104" y="68"/>
      <point x="104" y="241" type="curve" smooth="yes"/>
      <point x="104" y="553" type="line" smooth="yes"/>
      <point x="104" y="626"/>
      <point x="93" y="637"/>
      <point x="14" y="643" type="curve"/>
      <point x="14" y="662" type="line"/>
      <point x="297" y="662" type="line"/>
      <point x="297" y="643" type="line"/>
      <point x="217" y="636"/>
      <point x="206" y="625"/>
      <point x="206" y="553" type="curve" smooth="yes"/>
      <point x="206" y="233" type="line" smooth="yes"/>
      <point x="206" y="170"/>
      <point x="213" y="133"/>
      <point x="231" y="101" type="curve" smooth="yes"/>
      <point x="258" y="54"/>
      <point x="307" y="30"/>
      <point x="378" y="30" type="curve" smooth="yes"/>
      <point x="453" y="30"/>
      <point x="517" y="61"/>
      <point x="544" y="109" type="curve" smooth="yes"/>
      <point x="560" y="139"/>
      <point x="567" y="177"/>
      <point x="567" y="245" type="curve" smooth="yes"/>
      <point x="567" y="515" type="line" smooth="yes"/>
      <point x="567" y="615"/>
      <point x="551" y="637"/>
      <point x="473" y="643" type="curve"/>
      <point x="473" y="662" type="line"/>
      <point x="705" y="662" type="line"/>
      <point x="705" y="643" type="line"/>
      <point x="623" y="633"/>
      <point x="611" y="617"/>
    </contour>
    <contour>
      <point x="353" y="719" type="line"/>
      <point x="313" y="719" type="line"/>
      <point x="460" y="867" type="line" smooth="yes"/>
      <point x="478" y="885"/>
      <point x="487" y="890"/>
      <point x="502" y="890" type="curve" smooth="yes"/>
      <point x="524" y="890"/>
      <point x="537" y="878"/>
      <point x="537" y="858" type="curve" smooth="yes"/>
      <point x="537" y="842"/>
      <point x="528" y="829"/>
      <point x="507" y="816" type="curve" smooth="yes"/>
    </contour>
  </outline>
  <lib>
    <dict>
      <key>com.fontlab.hintData</key>
      <dict>
	<key>hhints</key>
	<array>
	  <dict>
	    <key>position</key>	    <integer>-14</integer>
	    <key>width</key>	    <integer>44</integer>
	  </dict>
	  <dict>
	    <key>position</key>	    <integer>643</integer>
	    <key>width</key>	    <integer>19</integer>
	  </dict>
	</array>
	<key>vhints</key>
	<array>
	  <dict>
	    <key>position</key>
	    <integer>104</integer>
	    <key>width</key>
	    <integer>102</integer>
	  </dict>
	  <dict>
	    <key>position</key>
	    <integer>567</integer>
	    <key>width</key>
	    <integer>44</integer>
	  </dict>
	</array>
      </dict>
    </dict>
  </lib>
</glyph>
