<?xml version="1.0" encoding="UTF-8"?>
<glyph name="afii10106" format="1">
  <advance width="786"/>
  <unicode hex="0459"/>
  <outline>
    <contour>
      <point x="204" y="524" type="line"/>
      <point x="542" y="525" type="line"/>
      <point x="496" y="307" type="line"/>
      <point x="614" y="307" type="line" smooth="yes"/>
      <point x="747" y="307"/>
      <point x="800" y="270"/>
      <point x="800" y="187" type="curve" smooth="yes"/>
      <point x="800" y="121"/>
      <point x="772" y="78"/>
      <point x="733" y="44" type="curve" smooth="yes"/>
      <point x="699" y="14"/>
      <point x="660" y="0"/>
      <point x="610" y="0" type="curve" smooth="yes"/>
      <point x="347" y="0" type="line"/>
      <point x="443" y="448" type="line"/>
      <point x="271" y="448" type="line"/>
      <point x="233" y="284" type="line" smooth="yes"/>
      <point x="200" y="142"/>
      <point x="131" y="0"/>
      <point x="14" y="0" type="curve"/>
      <point x="31" y="80" type="line"/>
      <point x="81" y="80"/>
      <point x="122" y="162"/>
      <point x="149" y="282" type="curve" smooth="yes"/>
    </contour>
    <contour>
      <point x="447" y="76" type="line"/>
      <point x="599" y="76" type="line" smooth="yes"/>
      <point x="667" y="76"/>
      <point x="711" y="126"/>
      <point x="711" y="184" type="curve" smooth="yes"/>
      <point x="711" y="216"/>
      <point x="671" y="231"/>
      <point x="632" y="231" type="curve" smooth="yes"/>
      <point x="480" y="231" type="line"/>
    </contour>
  </outline>
  <lib>
    <dict>
      <key>com.fontlab.hintData</key>
      <dict>
	<key>hhints</key>
	<array>
	  <dict>
	    <key>position</key>	    <integer>0</integer>
	    <key>width</key>	    <integer>76</integer>
	  </dict>
	  <dict>
	    <key>position</key>	    <integer>0</integer>
	    <key>width</key>	    <integer>80</integer>
	  </dict>
	  <dict>
	    <key>position</key>	    <integer>231</integer>
	    <key>width</key>	    <integer>76</integer>
	  </dict>
	  <dict>
	    <key>position</key>	    <integer>448</integer>
	    <key>width</key>	    <integer>77</integer>
	  </dict>
	</array>
	<key>vhints</key>
	<array>
	  <dict>
	    <key>position</key>
	    <integer>711</integer>
	    <key>width</key>
	    <integer>89</integer>
	  </dict>
	</array>
      </dict>
    </dict>
  </lib>
</glyph>
