<?xml version="1.0" encoding="UTF-8"?>
<glyph name="afii10088" format="1">
  <advance width="560"/>
  <unicode hex="0446"/>
  <outline>
    <contour>
      <point x="70" y="0" type="line"/>
      <point x="181" y="524" type="line"/>
      <point x="265" y="524" type="line"/>
      <point x="170" y="76" type="line"/>
      <point x="419" y="76" type="line"/>
      <point x="514" y="524" type="line"/>
      <point x="598" y="524" type="line"/>
      <point x="501" y="64" type="line"/>
      <point x="581" y="64" type="line"/>
      <point x="542" y="-120" type="line"/>
      <point x="472" y="-120" type="line"/>
      <point x="498" y="0" type="line"/>
    </contour>
  </outline>
  <lib>
    <dict>
      <key>com.fontlab.hintData</key>
      <dict>
	<key>hhints</key>
	<array>
	  <dict>
	    <key>position</key>	    <integer>0</integer>
	    <key>width</key>	    <integer>76</integer>
	  </dict>
	  <dict>
	    <key>position</key>	    <integer>504</integer>
	    <key>width</key>	    <integer>20</integer>
	  </dict>
	</array>
      </dict>
    </dict>
  </lib>
</glyph>
