<?xml version="1.0" encoding="UTF-8"?>
<glyph name="Ccircumflex" format="1">
  <advance width="722"/>
  <unicode hex="0108"/>
  <outline>
    <contour>
      <point x="530" y="979" type="line"/>
      <point x="625" y="979" type="line"/>
      <point x="689" y="829" type="line"/>
      <point x="626" y="829" type="line"/>
      <point x="570" y="928" type="line"/>
      <point x="466" y="829" type="line"/>
      <point x="402" y="829" type="line"/>
    </contour>
    <contour>
      <point x="770" y="503" type="curve"/>
      <point x="674" y="503" type="line"/>
      <point x="666" y="611"/>
      <point x="616" y="660"/>
      <point x="515" y="660" type="curve" smooth="yes"/>
      <point x="423" y="660"/>
      <point x="350" y="617"/>
      <point x="289" y="527" type="curve" smooth="yes"/>
      <point x="238" y="451"/>
      <point x="208" y="351"/>
      <point x="208" y="260" type="curve" smooth="yes"/>
      <point x="208" y="139"/>
      <point x="277" y="58"/>
      <point x="381" y="58" type="curve" smooth="yes"/>
      <point x="460" y="58"/>
      <point x="536" y="95"/>
      <point x="578" y="155" type="curve" smooth="yes"/>
      <point x="596" y="179"/>
      <point x="612" y="209"/>
      <point x="637" y="266" type="curve"/>
      <point x="735" y="266" type="line"/>
      <point x="701" y="185"/>
      <point x="669" y="130"/>
      <point x="630" y="87" type="curve" smooth="yes"/>
      <point x="565" y="16"/>
      <point x="473" y="-23"/>
      <point x="367" y="-23" type="curve" smooth="yes"/>
      <point x="278" y="-23"/>
      <point x="215" y="4"/>
      <point x="169" y="62" type="curve" smooth="yes"/>
      <point x="132" y="109"/>
      <point x="112" y="172"/>
      <point x="112" y="242" type="curve" smooth="yes"/>
      <point x="112" y="367"/>
      <point x="161" y="505"/>
      <point x="240" y="600" type="curve" smooth="yes"/>
      <point x="318" y="694"/>
      <point x="415" y="741"/>
      <point x="532" y="741" type="curve" smooth="yes"/>
      <point x="626" y="741"/>
      <point x="697" y="704"/>
      <point x="738" y="634" type="curve" smooth="yes"/>
      <point x="757" y="600"/>
      <point x="767" y="562"/>
    </contour>
  </outline>
  <lib>
    <dict>
      <key>com.fontlab.hintData</key>
      <dict>
	<key>hhints</key>
	<array>
	  <dict>
	    <key>position</key>	    <integer>-23</integer>
	    <key>width</key>	    <integer>81</integer>
	  </dict>
	  <dict>
	    <key>position</key>	    <integer>660</integer>
	    <key>width</key>	    <integer>81</integer>
	  </dict>
	</array>
	<key>vhints</key>
	<array>
	  <dict>
	    <key>position</key>
	    <integer>112</integer>
	    <key>width</key>
	    <integer>96</integer>
	  </dict>
	  <dict>
	    <key>position</key>
	    <integer>674</integer>
	    <key>width</key>
	    <integer>96</integer>
	  </dict>
	</array>
      </dict>
    </dict>
  </lib>
</glyph>
