<?xml version="1.0" encoding="UTF-8"?>
<glyph name="hcircumflex" format="1">
  <advance width="556"/>
  <unicode hex="0125"/>
  <outline>
    <contour>
      <point x="441" y="979" type="line"/>
      <point x="536" y="979" type="line"/>
      <point x="600" y="829" type="line"/>
      <point x="537" y="829" type="line"/>
      <point x="481" y="928" type="line"/>
      <point x="377" y="829" type="line"/>
      <point x="313" y="829" type="line"/>
    </contour>
    <contour>
      <point x="225" y="729" type="line"/>
      <point x="309" y="729" type="line"/>
      <point x="252" y="459" type="line"/>
      <point x="315" y="518"/>
      <point x="364" y="539"/>
      <point x="439" y="539" type="curve" smooth="yes"/>
      <point x="523" y="539"/>
      <point x="574" y="492"/>
      <point x="574" y="413" type="curve" smooth="yes"/>
      <point x="574" y="401"/>
      <point x="573" y="389"/>
      <point x="570" y="376" type="curve" smooth="yes"/>
      <point x="490" y="0" type="line"/>
      <point x="406" y="0" type="line"/>
      <point x="479" y="343" type="line" smooth="yes"/>
      <point x="485" y="370"/>
      <point x="485" y="370"/>
      <point x="485" y="382" type="curve" smooth="yes"/>
      <point x="485" y="433"/>
      <point x="451" y="467"/>
      <point x="400" y="467" type="curve" smooth="yes"/>
      <point x="309" y="467"/>
      <point x="239" y="399"/>
      <point x="215" y="289" type="curve" smooth="yes"/>
      <point x="154" y="0" type="line"/>
      <point x="70" y="0" type="line"/>
    </contour>
  </outline>
  <lib>
    <dict>
      <key>com.fontlab.hintData</key>
      <dict>
	<key>hhints</key>
	<array>
	  <dict>
	    <key>position</key>	    <integer>0</integer>
	    <key>width</key>	    <integer>21</integer>
	  </dict>
	  <dict>
	    <key>position</key>	    <integer>467</integer>
	    <key>width</key>	    <integer>72</integer>
	  </dict>
	  <dict>
	    <key>position</key>	    <integer>709</integer>
	    <key>width</key>	    <integer>20</integer>
	  </dict>
	</array>
	<key>vhints</key>
	<array>
	  <dict>
	    <key>position</key>
	    <integer>485</integer>
	    <key>width</key>
	    <integer>89</integer>
	  </dict>
	</array>
      </dict>
    </dict>
  </lib>
</glyph>
