<?xml version="1.0" encoding="UTF-8"?>
<glyph name="Ncommaaccent" format="1">
  <advance width="722"/>
  <unicode hex="0145"/>
  <outline>
    <contour>
      <point x="801" y="729" type="line"/>
      <point x="646" y="0" type="line"/>
      <point x="540" y="0" type="line"/>
      <point x="291" y="591" type="line"/>
      <point x="165" y="0" type="line"/>
      <point x="76" y="0" type="line"/>
      <point x="231" y="729" type="line"/>
      <point x="335" y="729" type="line"/>
      <point x="585" y="131" type="line"/>
      <point x="712" y="729" type="line"/>
    </contour>
    <contour>
      <point x="282" y="-60" type="line"/>
      <point x="382" y="-60" type="line"/>
      <point x="363" y="-153" type="line"/>
      <point x="345" y="-235"/>
      <point x="297" y="-284"/>
      <point x="234" y="-284" type="curve"/>
      <point x="242" y="-246" type="line"/>
      <point x="281" y="-246"/>
      <point x="305" y="-217"/>
      <point x="316" y="-158" type="curve"/>
      <point x="261" y="-158" type="line"/>
    </contour>
  </outline>
  <lib>
    <dict>
      <key>com.fontlab.hintData</key>
      <dict>
	<key>hhints</key>
	<array>
	  <dict>
	    <key>position</key>	    <integer>-158</integer>
	    <key>width</key>	    <integer>98</integer>
	  </dict>
	  <dict>
	    <key>position</key>	    <integer>0</integer>
	    <key>width</key>	    <integer>20</integer>
	  </dict>
	  <dict>
	    <key>position</key>	    <integer>709</integer>
	    <key>width</key>	    <integer>20</integer>
	  </dict>
	</array>
      </dict>
    </dict>
  </lib>
</glyph>
