<?xml version="1.0" encoding="UTF-8"?>
<glyph name="nacute" format="1">
  <advance width="556"/>
  <unicode hex="0144"/>
  <outline>
    <contour>
      <point x="181" y="524" type="line"/>
      <point x="257" y="524" type="line"/>
      <point x="244" y="459" type="line"/>
      <point x="296" y="512"/>
      <point x="362" y="539"/>
      <point x="438" y="539" type="curve" smooth="yes"/>
      <point x="521" y="539"/>
      <point x="574" y="490"/>
      <point x="574" y="414" type="curve" smooth="yes"/>
      <point x="574" y="401"/>
      <point x="573" y="389"/>
      <point x="570" y="376" type="curve" smooth="yes"/>
      <point x="490" y="0" type="line"/>
      <point x="406" y="0" type="line"/>
      <point x="480" y="349" type="line" smooth="yes"/>
      <point x="484" y="365"/>
      <point x="486" y="380"/>
      <point x="486" y="386" type="curve" smooth="yes"/>
      <point x="486" y="432"/>
      <point x="449" y="467"/>
      <point x="399" y="467" type="curve" smooth="yes"/>
      <point x="309" y="467"/>
      <point x="239" y="399"/>
      <point x="215" y="289" type="curve" smooth="yes"/>
      <point x="154" y="0" type="line"/>
      <point x="70" y="0" type="line"/>
    </contour>
    <contour>
      <point x="468" y="740" type="line"/>
      <point x="580" y="740" type="line"/>
      <point x="400" y="592" type="line"/>
      <point x="340" y="592" type="line"/>
    </contour>
  </outline>
  <lib>
    <dict>
      <key>com.fontlab.hintData</key>
      <dict>
	<key>hhints</key>
	<array>
	  <dict>
	    <key>position</key>	    <integer>0</integer>
	    <key>width</key>	    <integer>20</integer>
	  </dict>
	  <dict>
	    <key>position</key>	    <integer>467</integer>
	    <key>width</key>	    <integer>72</integer>
	  </dict>
	  <dict>
	    <key>position</key>	    <integer>504</integer>
	    <key>width</key>	    <integer>20</integer>
	  </dict>
	  <dict>
	    <key>position</key>	    <integer>720</integer>
	    <key>width</key>	    <integer>20</integer>
	  </dict>
	</array>
	<key>vhints</key>
	<array>
	  <dict>
	    <key>position</key>
	    <integer>486</integer>
	    <key>width</key>
	    <integer>88</integer>
	  </dict>
	</array>
      </dict>
    </dict>
  </lib>
</glyph>
