<?xml version="1.0" encoding="UTF-8"?>
<glyph name="grave" format="1">
  <advance width="333"/>
  <unicode hex="0060"/>
  <outline>
    <contour>
      <point x="215" y="506" type="line"/>
      <point x="71" y="596" type="line" smooth="yes"/>
      <point x="38" y="617"/>
      <point x="31" y="625"/>
      <point x="31" y="643" type="curve" smooth="yes"/>
      <point x="31" y="662"/>
      <point x="45" y="677"/>
      <point x="62" y="677" type="curve" smooth="yes"/>
      <point x="76" y="677"/>
      <point x="96" y="665"/>
      <point x="117" y="644" type="curve" smooth="yes"/>
      <point x="255" y="506" type="line"/>
    </contour>
  </outline>
</glyph>
