<?xml version="1.0" encoding="UTF-8"?>
<glyph name="Nacute" format="1">
  <advance width="831"/>
  <unicode hex="0143"/>
  <outline>
    <contour>
      <point x="137" y="689" type="curve"/>
      <point x="191" y="692" type="line"/>
      <point x="672" y="98" type="line"/>
      <point x="672" y="569" type="line" smooth="yes"/>
      <point x="672" y="647"/>
      <point x="667" y="656"/>
      <point x="621" y="659" type="curve" smooth="yes"/>
      <point x="577" y="662" type="line"/>
      <point x="577" y="692" type="line"/>
      <point x="676" y="689"/>
      <point x="676" y="689"/>
      <point x="693" y="689" type="curve" smooth="yes"/>
      <point x="708" y="689"/>
      <point x="708" y="689"/>
      <point x="813" y="692" type="curve"/>
      <point x="813" y="662" type="line"/>
      <point x="769" y="659" type="line" smooth="yes"/>
      <point x="723" y="656"/>
      <point x="718" y="647"/>
      <point x="718" y="569" type="curve" smooth="yes"/>
      <point x="718" y="17" type="line" smooth="yes"/>
      <point x="718" y="11"/>
      <point x="719" y="3"/>
      <point x="720" y="-8" type="curve" smooth="yes"/>
      <point x="721" y="-15"/>
      <point x="721" y="-16"/>
      <point x="721" y="-20" type="curve"/>
      <point x="631" y="-4" type="line"/>
      <point x="158" y="583" type="line"/>
      <point x="158" y="120" type="line" smooth="yes"/>
      <point x="158" y="42"/>
      <point x="163" y="33"/>
      <point x="209" y="30" type="curve" smooth="yes"/>
      <point x="253" y="27" type="line"/>
      <point x="253" y="-3" type="line"/>
      <point x="148" y="0"/>
      <point x="148" y="0"/>
      <point x="133" y="0" type="curve" smooth="yes"/>
      <point x="116" y="0"/>
      <point x="116" y="0"/>
      <point x="17" y="-3" type="curve"/>
      <point x="17" y="27" type="line"/>
      <point x="61" y="30" type="line" smooth="yes"/>
      <point x="107" y="33"/>
      <point x="112" y="42"/>
      <point x="112" y="120" type="curve" smooth="yes"/>
      <point x="112" y="569" type="line" smooth="yes"/>
      <point x="112" y="647"/>
      <point x="107" y="656"/>
      <point x="61" y="659" type="curve" smooth="yes"/>
      <point x="17" y="662" type="line"/>
      <point x="17" y="692" type="line"/>
      <point x="72" y="690"/>
      <point x="81" y="690"/>
    </contour>
    <contour>
      <point x="327" y="737" type="line"/>
      <point x="465" y="875" type="line" smooth="yes"/>
      <point x="487" y="897"/>
      <point x="505" y="908"/>
      <point x="520" y="908" type="curve" smooth="yes"/>
      <point x="537" y="908"/>
      <point x="551" y="893"/>
      <point x="551" y="874" type="curve" smooth="yes"/>
      <point x="551" y="856"/>
      <point x="544" y="848"/>
      <point x="511" y="827" type="curve" smooth="yes"/>
      <point x="367" y="737" type="line"/>
    </contour>
  </outline>
  <lib>
    <dict>
      <key>com.fontlab.hintData</key>
      <dict>
	<key>hhints</key>
	<array>
	  <dict>
	    <key>position</key>	    <integer>-3</integer>
	    <key>width</key>	    <integer>30</integer>
	  </dict>
	  <dict>
	    <key>position</key>	    <integer>662</integer>
	    <key>width</key>	    <integer>30</integer>
	  </dict>
	</array>
	<key>vhints</key>
	<array>
	  <dict>
	    <key>position</key>
	    <integer>112</integer>
	    <key>width</key>
	    <integer>46</integer>
	  </dict>
	  <dict>
	    <key>position</key>
	    <integer>672</integer>
	    <key>width</key>
	    <integer>46</integer>
	  </dict>
	</array>
      </dict>
    </dict>
  </lib>
</glyph>
