<?xml version="1.0" encoding="UTF-8"?>
<glyph name="questiondown" format="1">
  <advance width="444"/>
  <unicode hex="00BF"/>
  <outline>
    <contour>
      <point x="395" y="-83" type="line"/>
      <point x="357" y="-196" type="line"/>
      <point x="304" y="-222"/>
      <point x="269" y="-231"/>
      <point x="224" y="-231" type="curve" smooth="yes"/>
      <point x="121" y="-231"/>
      <point x="43" y="-164"/>
      <point x="43" y="-77" type="curve" smooth="yes"/>
      <point x="43" y="-20"/>
      <point x="67" y="18"/>
      <point x="153" y="96" type="curve" smooth="yes"/>
      <point x="234" y="169"/>
      <point x="247" y="187"/>
      <point x="247" y="220" type="curve" smooth="yes"/>
      <point x="247" y="236"/>
      <point x="241" y="248"/>
      <point x="225" y="268" type="curve"/>
      <point x="246" y="282" type="line"/>
      <point x="276" y="263"/>
      <point x="290" y="238"/>
      <point x="290" y="209" type="curve" smooth="yes"/>
      <point x="290" y="175"/>
      <point x="273" y="147"/>
      <point x="213" y="81" type="curve" smooth="yes"/>
      <point x="154" y="16"/>
      <point x="136" y="-16"/>
      <point x="136" y="-56" type="curve" smooth="yes"/>
      <point x="136" y="-120"/>
      <point x="187" y="-165"/>
      <point x="259" y="-165" type="curve" smooth="yes"/>
      <point x="303" y="-165"/>
      <point x="335" y="-150"/>
      <point x="346" y="-123" type="curve" smooth="yes"/>
      <point x="366" y="-75" type="line"/>
    </contour>
    <contour>
      <point x="241" y="469" type="curve" smooth="yes"/>
      <point x="272" y="469"/>
      <point x="300" y="441"/>
      <point x="300" y="410" type="curve" smooth="yes"/>
      <point x="300" y="380"/>
      <point x="272" y="353"/>
      <point x="240" y="353" type="curve" smooth="yes"/>
      <point x="211" y="353"/>
      <point x="184" y="381"/>
      <point x="184" y="411" type="curve" smooth="yes"/>
      <point x="184" y="441"/>
      <point x="211" y="469"/>
    </contour>
  </outline>
  <lib>
    <dict>
      <key>com.fontlab.hintData</key>
      <dict>
	<key>hhints</key>
	<array>
	  <dict>
	    <key>position</key>	    <integer>-231</integer>
	    <key>width</key>	    <integer>66</integer>
	  </dict>
	  <dict>
	    <key>position</key>	    <integer>353</integer>
	    <key>width</key>	    <integer>116</integer>
	  </dict>
	</array>
	<key>vhints</key>
	<array>
	  <dict>
	    <key>position</key>
	    <integer>43</integer>
	    <key>width</key>
	    <integer>93</integer>
	  </dict>
	  <dict>
	    <key>position</key>
	    <integer>184</integer>
	    <key>width</key>
	    <integer>116</integer>
	  </dict>
	  <dict>
	    <key>position</key>
	    <integer>247</integer>
	    <key>width</key>
	    <integer>43</integer>
	  </dict>
	</array>
      </dict>
    </dict>
  </lib>
</glyph>
