<?xml version="1.0" encoding="UTF-8"?>
<glyph name="uni04EE" format="1">
  <advance width="667"/>
  <unicode hex="04EE"/>
  <outline>
    <contour>
      <point x="9" y="680" type="line"/>
      <point x="124" y="704" type="line"/>
      <point x="129" y="705" type="line" smooth="yes"/>
      <point x="147" y="709"/>
      <point x="191" y="662"/>
      <point x="220" y="602" type="curve" smooth="yes"/>
      <point x="391" y="245" type="line"/>
      <point x="394" y="236"/>
      <point x="542" y="580"/>
      <point x="574" y="694" type="curve"/>
      <point x="654" y="694" type="line"/>
      <point x="598" y="582"/>
      <point x="369" y="93"/>
      <point x="369" y="93" type="curve" smooth="yes"/>
      <point x="308" y="-36"/>
      <point x="242" y="-19"/>
      <point x="242" y="-19" type="curve"/>
      <point x="186" y="0" type="line"/>
      <point x="174" y="74" type="line"/>
      <point x="184" y="84" type="line"/>
      <point x="206" y="64"/>
      <point x="224" y="58"/>
      <point x="256" y="58" type="curve" smooth="yes"/>
      <point x="296" y="58"/>
      <point x="316" y="94"/>
      <point x="338" y="138" type="curve"/>
      <point x="158" y="506" type="line" smooth="yes"/>
      <point x="121" y="582"/>
      <point x="72" y="644"/>
      <point x="38" y="648" type="curve" smooth="yes"/>
      <point x="9" y="651" type="line"/>
    </contour>
    <contour>
      <point x="487" y="792" type="line"/>
      <point x="175" y="792" type="line"/>
      <point x="175" y="845" type="line"/>
      <point x="487" y="845" type="line"/>
    </contour>
  </outline>
  <lib>
    <dict>
      <key>com.fontlab.hintData</key>
      <dict>
	<key>hhints</key>
	<array>
	  <dict>
	    <key>position</key>	    <integer>674</integer>
	    <key>width</key>	    <integer>20</integer>
	  </dict>
	  <dict>
	    <key>position</key>	    <integer>792</integer>
	    <key>width</key>	    <integer>53</integer>
	  </dict>
	</array>
      </dict>
    </dict>
  </lib>
</glyph>
