<?xml version="1.0" encoding="UTF-8"?>
<glyph name="uni0499" format="1">
  <advance width="424"/>
  <unicode hex="0499"/>
  <outline>
    <contour>
      <point x="183" y="19" type="curve" smooth="yes"/>
      <point x="244" y="19"/>
      <point x="306" y="60"/>
      <point x="306" y="114" type="curve" smooth="yes"/>
      <point x="306" y="167"/>
      <point x="287" y="215"/>
      <point x="216" y="215" type="curve" smooth="yes"/>
      <point x="180" y="215" type="line"/>
      <point x="180" y="259" type="line"/>
      <point x="196" y="259" type="line" smooth="yes"/>
      <point x="288" y="259"/>
      <point x="300" y="304"/>
      <point x="300" y="358" type="curve" smooth="yes"/>
      <point x="300" y="400"/>
      <point x="270" y="436"/>
      <point x="209" y="436" type="curve" smooth="yes"/>
      <point x="142" y="436"/>
      <point x="91" y="401"/>
      <point x="91" y="354" type="curve" smooth="yes"/>
      <point x="91" y="331" type="line"/>
      <point x="63" y="331" type="line"/>
      <point x="62" y="389"/>
      <point x="61" y="413"/>
      <point x="58" y="444" type="curve"/>
      <point x="111" y="462"/>
      <point x="147" y="469"/>
      <point x="188" y="469" type="curve" smooth="yes"/>
      <point x="304" y="469"/>
      <point x="375" y="414"/>
      <point x="375" y="324" type="curve" smooth="yes"/>
      <point x="375" y="288"/>
      <point x="362" y="261"/>
      <point x="336" y="240" type="curve"/>
      <point x="346" y="234"/>
      <point x="355" y="229"/>
      <point x="363" y="222" type="curve" smooth="yes"/>
      <point x="382" y="202"/>
      <point x="395" y="164"/>
      <point x="395" y="133" type="curve" smooth="yes"/>
      <point x="395" y="39"/>
      <point x="333" y="-15"/>
      <point x="200" y="-20" type="curve"/>
      <point x="179" y="-75" type="line"/>
      <point x="189" y="-72"/>
      <point x="196" y="-71"/>
      <point x="206" y="-71" type="curve" smooth="yes"/>
      <point x="258" y="-71"/>
      <point x="291" y="-98"/>
      <point x="291" y="-141" type="curve" smooth="yes"/>
      <point x="291" y="-193"/>
      <point x="243" y="-225"/>
      <point x="167" y="-225" type="curve" smooth="yes"/>
      <point x="140" y="-225"/>
      <point x="126" y="-222"/>
      <point x="83" y="-209" type="curve"/>
      <point x="97" y="-178" type="line"/>
      <point x="130" y="-187"/>
      <point x="144" y="-189"/>
      <point x="162" y="-189" type="curve" smooth="yes"/>
      <point x="197" y="-189"/>
      <point x="216" y="-174"/>
      <point x="216" y="-146" type="curve" smooth="yes"/>
      <point x="216" y="-123"/>
      <point x="200" y="-107"/>
      <point x="176" y="-107" type="curve" smooth="yes"/>
      <point x="163" y="-107"/>
      <point x="154" y="-109"/>
      <point x="135" y="-114" type="curve"/>
      <point x="128" y="-108" type="line"/>
      <point x="166" y="-19" type="line"/>
      <point x="118" y="-16"/>
      <point x="65" y="3"/>
      <point x="52" y="23" type="curve" smooth="yes"/>
      <point x="31" y="55" type="line"/>
      <point x="44" y="70" type="line"/>
      <point x="76" y="46"/>
      <point x="123" y="19"/>
    </contour>
  </outline>
  <lib>
    <dict>
      <key>com.fontlab.hintData</key>
      <dict>
	<key>hhints</key>
	<array>
	  <dict>
	    <key>position</key>	    <integer>-225</integer>
	    <key>width</key>	    <integer>36</integer>
	  </dict>
	  <dict>
	    <key>position</key>	    <integer>-107</integer>
	    <key>width</key>	    <integer>36</integer>
	  </dict>
	  <dict>
	    <key>position</key>	    <integer>-20</integer>
	    <key>width</key>	    <integer>39</integer>
	  </dict>
	  <dict>
	    <key>position</key>	    <integer>215</integer>
	    <key>width</key>	    <integer>44</integer>
	  </dict>
	  <dict>
	    <key>position</key>	    <integer>436</integer>
	    <key>width</key>	    <integer>33</integer>
	  </dict>
	</array>
	<key>vhints</key>
	<array>
	  <dict>
	    <key>position</key>
	    <integer>63</integer>
	    <key>width</key>
	    <integer>28</integer>
	  </dict>
	  <dict>
	    <key>position</key>
	    <integer>216</integer>
	    <key>width</key>
	    <integer>75</integer>
	  </dict>
	  <dict>
	    <key>position</key>
	    <integer>300</integer>
	    <key>width</key>
	    <integer>75</integer>
	  </dict>
	  <dict>
	    <key>position</key>
	    <integer>306</integer>
	    <key>width</key>
	    <integer>89</integer>
	  </dict>
	</array>
      </dict>
    </dict>
  </lib>
</glyph>
