<?xml version="1.0" encoding="UTF-8"?>
<glyph name="afii10082" format="1">
  <advance width="574"/>
  <unicode hex="0440"/>
  <outline>
    <contour>
      <point x="234" y="470" type="line"/>
      <point x="219" y="385" type="line"/>
      <point x="264" y="440"/>
      <point x="317" y="470"/>
      <point x="368" y="470" type="curve" smooth="yes"/>
      <point x="445" y="470"/>
      <point x="506" y="408"/>
      <point x="506" y="307" type="curve" smooth="yes"/>
      <point x="506" y="155"/>
      <point x="404" y="-15"/>
      <point x="246" y="-15" type="curve" smooth="yes"/>
      <point x="180" y="-15"/>
      <point x="154" y="4"/>
      <point x="127" y="73" type="curve"/>
      <point x="78" y="-90" type="line" smooth="yes"/>
      <point x="71" y="-115"/>
      <point x="67" y="-132"/>
      <point x="67" y="-140" type="curve" smooth="yes"/>
      <point x="67" y="-160"/>
      <point x="83" y="-166"/>
      <point x="131" y="-166" type="curve" smooth="yes"/>
      <point x="143" y="-166" type="line"/>
      <point x="139" y="-202" type="line"/>
      <point x="-101" y="-202" type="line"/>
      <point x="-97" y="-166" type="line"/>
      <point x="-29" y="-163"/>
      <point x="-28" y="-162"/>
      <point x="-8" y="-90" type="curve"/>
      <point x="120" y="344" type="line" smooth="yes"/>
      <point x="126" y="363"/>
      <point x="129" y="378"/>
      <point x="129" y="388" type="curve" smooth="yes"/>
      <point x="129" y="410"/>
      <point x="113" y="419"/>
      <point x="72" y="419" type="curve" smooth="yes"/>
      <point x="48" y="419" type="line"/>
      <point x="52" y="455" type="line"/>
    </contour>
    <contour>
      <point x="337" y="417" type="curve" smooth="yes"/>
      <point x="297" y="417"/>
      <point x="255" y="389"/>
      <point x="222" y="339" type="curve" smooth="yes"/>
      <point x="184" y="281"/>
      <point x="153" y="185"/>
      <point x="153" y="127" type="curve" smooth="yes"/>
      <point x="153" y="74"/>
      <point x="188" y="35"/>
      <point x="237" y="35" type="curve" smooth="yes"/>
      <point x="345" y="35"/>
      <point x="412" y="218"/>
      <point x="412" y="329" type="curve" smooth="yes"/>
      <point x="412" y="382"/>
      <point x="382" y="417"/>
    </contour>
  </outline>
  <lib>
    <dict>
      <key>com.fontlab.hintData</key>
      <dict>
	<key>hhints</key>
	<array>
	  <dict>
	    <key>position</key>	    <integer>-202</integer>
	    <key>width</key>	    <integer>36</integer>
	  </dict>
	  <dict>
	    <key>position</key>	    <integer>-15</integer>
	    <key>width</key>	    <integer>50</integer>
	  </dict>
	  <dict>
	    <key>position</key>	    <integer>417</integer>
	    <key>width</key>	    <integer>53</integer>
	  </dict>
	  <dict>
	    <key>position</key>	    <integer>419</integer>
	    <key>width</key>	    <integer>36</integer>
	  </dict>
	</array>
	<key>vhints</key>
	<array>
	  <dict>
	    <key>position</key>
	    <integer>412</integer>
	    <key>width</key>
	    <integer>94</integer>
	  </dict>
	</array>
      </dict>
    </dict>
  </lib>
</glyph>
