<?xml version="1.0" encoding="UTF-8"?>
<glyph name="uacute" format="1">
  <advance width="611"/>
  <unicode hex="00FA"/>
  <outline>
    <contour>
      <point x="509" y="455" type="line"/>
      <point x="410" y="123" type="line" smooth="yes"/>
      <point x="402" y="94"/>
      <point x="398" y="75"/>
      <point x="398" y="64" type="curve" smooth="yes"/>
      <point x="398" y="51"/>
      <point x="407" y="40"/>
      <point x="417" y="40" type="curve" smooth="yes"/>
      <point x="437" y="40"/>
      <point x="477" y="81"/>
      <point x="526" y="153" type="curve"/>
      <point x="556" y="135" type="line"/>
      <point x="485" y="25"/>
      <point x="436" y="-15"/>
      <point x="375" y="-15" type="curve" smooth="yes"/>
      <point x="338" y="-15"/>
      <point x="311" y="13"/>
      <point x="311" y="51" type="curve" smooth="yes"/>
      <point x="311" y="70"/>
      <point x="313" y="84"/>
      <point x="323" y="119" type="curve"/>
      <point x="264" y="27"/>
      <point x="207" y="-14"/>
      <point x="137" y="-14" type="curve" smooth="yes"/>
      <point x="81" y="-14"/>
      <point x="42" y="23"/>
      <point x="42" y="78" type="curve" smooth="yes"/>
      <point x="42" y="109"/>
      <point x="42" y="109"/>
      <point x="73" y="209" type="curve"/>
      <point x="113" y="344" type="line" smooth="yes"/>
      <point x="118" y="362"/>
      <point x="121" y="378"/>
      <point x="121" y="387" type="curve" smooth="yes"/>
      <point x="121" y="410"/>
      <point x="106" y="419"/>
      <point x="65" y="419" type="curve" smooth="yes"/>
      <point x="41" y="419" type="line"/>
      <point x="44" y="455" type="line"/>
      <point x="237" y="470" type="line"/>
      <point x="139" y="142" type="line" smooth="yes"/>
      <point x="131" y="115"/>
      <point x="128" y="97"/>
      <point x="128" y="85" type="curve" smooth="yes"/>
      <point x="128" y="61"/>
      <point x="147" y="42"/>
      <point x="171" y="42" type="curve" smooth="yes"/>
      <point x="242" y="42"/>
      <point x="334" y="156"/>
      <point x="375" y="295" type="curve" smooth="yes"/>
      <point x="422" y="455" type="line"/>
    </contour>
    <contour>
      <point x="289" y="519" type="line"/>
      <point x="427" y="659" type="line" smooth="yes"/>
      <point x="451" y="682"/>
      <point x="462" y="689"/>
      <point x="477" y="689" type="curve" smooth="yes"/>
      <point x="496" y="689"/>
      <point x="512" y="673"/>
      <point x="512" y="654" type="curve" smooth="yes"/>
      <point x="512" y="640"/>
      <point x="502" y="625"/>
      <point x="487" y="615" type="curve" smooth="yes"/>
      <point x="328" y="519" type="line"/>
    </contour>
  </outline>
  <lib>
    <dict>
      <key>com.fontlab.hintData</key>
      <dict>
	<key>hhints</key>
	<array>
	  <dict>
	    <key>position</key>	    <integer>-15</integer>
	    <key>width</key>	    <integer>55</integer>
	  </dict>
	  <dict>
	    <key>position</key>	    <integer>-14</integer>
	    <key>width</key>	    <integer>56</integer>
	  </dict>
	  <dict>
	    <key>position</key>	    <integer>450</integer>
	    <key>width</key>	    <integer>20</integer>
	  </dict>
	</array>
	<key>vhints</key>
	<array>
	  <dict>
	    <key>position</key>
	    <integer>42</integer>
	    <key>width</key>
	    <integer>86</integer>
	  </dict>
	  <dict>
	    <key>position</key>
	    <integer>311</integer>
	    <key>width</key>
	    <integer>87</integer>
	  </dict>
	</array>
      </dict>
    </dict>
  </lib>
</glyph>
