<?xml version="1.0" encoding="UTF-8"?>
<glyph name="uni04B9" format="1">
  <advance width="611"/>
  <unicode hex="04B9"/>
  <outline>
    <contour>
      <point x="212" y="155" type="line"/>
      <point x="234" y="241" type="line"/>
      <point x="285" y="241" type="line"/>
      <point x="270" y="182" type="line"/>
      <point x="324" y="224"/>
      <point x="379" y="310"/>
      <point x="408" y="408" type="curve" smooth="yes"/>
      <point x="422" y="455" type="line"/>
      <point x="509" y="455" type="line"/>
      <point x="423" y="123" type="line" smooth="yes"/>
      <point x="415" y="94"/>
      <point x="409" y="75"/>
      <point x="409" y="64" type="curve" smooth="yes"/>
      <point x="409" y="48"/>
      <point x="418" y="40"/>
      <point x="428" y="40" type="curve" smooth="yes"/>
      <point x="450" y="40"/>
      <point x="488" y="81"/>
      <point x="537" y="153" type="curve"/>
      <point x="567" y="135" type="line"/>
      <point x="496" y="25"/>
      <point x="447" y="-15"/>
      <point x="386" y="-15" type="curve" smooth="yes"/>
      <point x="346" y="-15"/>
      <point x="311" y="8"/>
      <point x="311" y="45" type="curve" smooth="yes"/>
      <point x="311" y="50"/>
      <point x="311" y="55"/>
      <point x="313" y="61" type="curve" smooth="yes"/>
      <point x="313" y="61"/>
      <point x="346" y="197"/>
      <point x="356" y="232" type="curve"/>
      <point x="323" y="180"/>
      <point x="290" y="144"/>
      <point x="255" y="123" type="curve"/>
      <point x="234" y="40" type="line"/>
      <point x="183" y="40" type="line"/>
      <point x="198" y="101" type="line"/>
      <point x="189" y="100"/>
      <point x="180" y="99"/>
      <point x="170" y="99" type="curve" smooth="yes"/>
      <point x="114" y="99"/>
      <point x="75" y="136"/>
      <point x="75" y="191" type="curve" smooth="yes"/>
      <point x="75" y="222"/>
      <point x="75" y="222"/>
      <point x="106" y="322" type="curve" smooth="yes"/>
      <point x="113" y="344" type="line" smooth="yes"/>
      <point x="118" y="362"/>
      <point x="121" y="378"/>
      <point x="121" y="387" type="curve" smooth="yes"/>
      <point x="121" y="410"/>
      <point x="106" y="419"/>
      <point x="65" y="419" type="curve" smooth="yes"/>
      <point x="41" y="419" type="line"/>
      <point x="44" y="455" type="line"/>
      <point x="237" y="470" type="line"/>
      <point x="175" y="255" type="line" smooth="yes"/>
      <point x="167" y="228"/>
      <point x="164" y="210"/>
      <point x="164" y="198" type="curve" smooth="yes"/>
      <point x="164" y="174"/>
      <point x="180" y="155"/>
      <point x="204" y="155" type="curve" smooth="yes"/>
    </contour>
  </outline>
  <lib>
    <dict>
      <key>com.fontlab.hintData</key>
      <dict>
	<key>hhints</key>
	<array>
	  <dict>
	    <key>position</key>	    <integer>-15</integer>
	    <key>width</key>	    <integer>55</integer>
	  </dict>
	  <dict>
	    <key>position</key>	    <integer>99</integer>
	    <key>width</key>	    <integer>56</integer>
	  </dict>
	  <dict>
	    <key>position</key>	    <integer>419</integer>
	    <key>width</key>	    <integer>36</integer>
	  </dict>
	</array>
	<key>vhints</key>
	<array>
	  <dict>
	    <key>position</key>
	    <integer>75</integer>
	    <key>width</key>
	    <integer>89</integer>
	  </dict>
	</array>
      </dict>
    </dict>
  </lib>
</glyph>
