<?xml version="1.0" encoding="UTF-8"?>
<glyph name="eng" format="1">
  <advance width="500"/>
  <unicode hex="014B"/>
  <outline>
    <contour>
      <point x="424" y="0" type="line" smooth="yes"/>
      <point x="424" y="-142"/>
      <point x="365" y="-218"/>
      <point x="255" y="-218" type="curve" smooth="yes"/>
      <point x="201" y="-218"/>
      <point x="161" y="-195"/>
      <point x="161" y="-163" type="curve" smooth="yes"/>
      <point x="161" y="-141"/>
      <point x="179" y="-124"/>
      <point x="202" y="-124" type="curve" smooth="yes"/>
      <point x="218" y="-124"/>
      <point x="232" y="-133"/>
      <point x="250" y="-156" type="curve" smooth="yes"/>
      <point x="267" y="-177"/>
      <point x="277" y="-184"/>
      <point x="292" y="-184" type="curve" smooth="yes"/>
      <point x="306" y="-184"/>
      <point x="320" y="-176"/>
      <point x="326" y="-166" type="curve" smooth="yes"/>
      <point x="337" y="-146"/>
      <point x="340" y="-121"/>
      <point x="340" y="-45" type="curve" smooth="yes"/>
      <point x="340" y="308" type="line" smooth="yes"/>
      <point x="340" y="374"/>
      <point x="316" y="405"/>
      <point x="267" y="405" type="curve" smooth="yes"/>
      <point x="234" y="405"/>
      <point x="212" y="393"/>
      <point x="164" y="348" type="curve"/>
      <point x="164" y="67" type="line" smooth="yes"/>
      <point x="164" y="31"/>
      <point x="179" y="19"/>
      <point x="230" y="15" type="curve"/>
      <point x="230" y="0" type="line"/>
      <point x="18" y="0" type="line"/>
      <point x="18" y="15" type="line"/>
      <point x="69" y="19"/>
      <point x="80" y="33"/>
      <point x="80" y="90" type="curve" smooth="yes"/>
      <point x="80" y="338" type="line" smooth="yes"/>
      <point x="80" y="387"/>
      <point x="71" y="402"/>
      <point x="43" y="402" type="curve" smooth="yes"/>
      <point x="32" y="402"/>
      <point x="22" y="401"/>
      <point x="16" y="398" type="curve"/>
      <point x="16" y="415" type="line"/>
      <point x="71" y="431"/>
      <point x="105" y="442"/>
      <point x="154" y="460" type="curve"/>
      <point x="161" y="458" type="line"/>
      <point x="161" y="379" type="line"/>
      <point x="229" y="443"/>
      <point x="260" y="460"/>
      <point x="306" y="460" type="curve" smooth="yes"/>
      <point x="380" y="460"/>
      <point x="424" y="404"/>
      <point x="424" y="310" type="curve" smooth="yes"/>
    </contour>
  </outline>
  <lib>
    <dict>
      <key>com.fontlab.hintData</key>
      <dict>
        <key>hhints</key>
        <array>
          <dict>
            <key>position</key>
            <integer>-218</integer>
            <key>width</key>
            <integer>34</integer>
          </dict>
          <dict>
            <key>position</key>
            <integer>0</integer>
            <key>width</key>
            <integer>15</integer>
          </dict>
          <dict>
            <key>position</key>
            <integer>405</integer>
            <key>width</key>
            <integer>55</integer>
          </dict>
        </array>
        <key>vhints</key>
        <array>
          <dict>
            <key>position</key>
            <integer>80</integer>
            <key>width</key>
            <integer>84</integer>
          </dict>
          <dict>
            <key>position</key>
            <integer>340</integer>
            <key>width</key>
            <integer>84</integer>
          </dict>
        </array>
      </dict>
      <key>com.typemytype.robofont.layerData</key>
      <dict>
      </dict>
    </dict>
  </lib>
</glyph>
