<?xml version="1.0" encoding="UTF-8"?>
<glyph name="Eng" format="1">
  <advance width="722"/>
  <unicode hex="014A"/>
  <outline>
    <contour>
      <point x="567" y="22" type="line"/>
      <point x="153" y="539" type="line"/>
      <point x="153" y="147" type="line" smooth="yes"/>
      <point x="153" y="46"/>
      <point x="170" y="23"/>
      <point x="247" y="19" type="curve"/>
      <point x="247" y="0" type="line"/>
      <point x="12" y="0" type="line"/>
      <point x="12" y="19" type="line"/>
      <point x="95" y="25"/>
      <point x="109" y="44"/>
      <point x="109" y="147" type="curve" smooth="yes"/>
      <point x="109" y="588" type="line"/>
      <point x="69" y="635"/>
      <point x="55" y="643"/>
      <point x="12" y="643" type="curve"/>
      <point x="12" y="662" type="line"/>
      <point x="183" y="662" type="line"/>
      <point x="568" y="178" type="line"/>
      <point x="568" y="515" type="line" smooth="yes"/>
      <point x="568" y="577"/>
      <point x="559" y="613"/>
      <point x="539" y="627" type="curve"/>
      <point x="524" y="636"/>
      <point x="510" y="640"/>
      <point x="472" y="643" type="curve"/>
      <point x="472" y="662" type="line"/>
      <point x="707" y="662" type="line"/>
      <point x="707" y="643" type="line"/>
      <point x="669" y="639"/>
      <point x="655" y="635"/>
      <point x="641" y="625" type="curve" smooth="yes"/>
      <point x="622" y="612"/>
      <point x="612" y="575"/>
      <point x="612" y="515" type="curve" smooth="yes"/>
      <point x="612" y="0" type="line" smooth="yes"/>
      <point x="612" y="-142"/>
      <point x="592" y="-218"/>
      <point x="482" y="-218" type="curve" smooth="yes"/>
      <point x="428" y="-218"/>
      <point x="388" y="-195"/>
      <point x="388" y="-163" type="curve" smooth="yes"/>
      <point x="388" y="-141"/>
      <point x="406" y="-124"/>
      <point x="429" y="-124" type="curve" smooth="yes"/>
      <point x="445" y="-124"/>
      <point x="459" y="-133"/>
      <point x="477" y="-156" type="curve" smooth="yes"/>
      <point x="494" y="-177"/>
      <point x="504" y="-184"/>
      <point x="519" y="-184" type="curve" smooth="yes"/>
      <point x="533" y="-184"/>
      <point x="547" y="-176"/>
      <point x="553" y="-166" type="curve" smooth="yes"/>
      <point x="564" y="-146"/>
      <point x="567" y="-121"/>
      <point x="567" y="-45" type="curve" smooth="yes"/>
    </contour>
  </outline>
  <lib>
    <dict>
      <key>com.fontlab.hintData</key>
      <dict>
        <key>hhints</key>
        <array>
          <dict>
            <key>position</key>
            <integer>-218</integer>
            <key>width</key>
            <integer>34</integer>
          </dict>
          <dict>
            <key>position</key>
            <integer>0</integer>
            <key>width</key>
            <integer>19</integer>
          </dict>
          <dict>
            <key>position</key>
            <integer>643</integer>
            <key>width</key>
            <integer>19</integer>
          </dict>
        </array>
        <key>vhints</key>
        <array>
          <dict>
            <key>position</key>
            <integer>109</integer>
            <key>width</key>
            <integer>44</integer>
          </dict>
          <dict>
            <key>position</key>
            <integer>567</integer>
            <key>width</key>
            <integer>45</integer>
          </dict>
        </array>
      </dict>
      <key>com.typemytype.robofont.layerData</key>
      <dict>
      </dict>
    </dict>
  </lib>
</glyph>
