<?xml version="1.0" encoding="UTF-8"?>
<glyph name="uni04D0" format="1">
  <advance width="722"/>
  <unicode hex="04D0"/>
  <outline>
    <contour>
      <point x="472" y="869" type="curve"/>
      <point x="501" y="869" type="line"/>
      <point x="489" y="763"/>
      <point x="443" y="712"/>
      <point x="359" y="712" type="curve" smooth="yes"/>
      <point x="312" y="712"/>
      <point x="272" y="731"/>
      <point x="247" y="766" type="curve" smooth="yes"/>
      <point x="228" y="794"/>
      <point x="221" y="818"/>
      <point x="220" y="869" type="curve"/>
      <point x="249" y="869" type="line"/>
      <point x="263" y="802"/>
      <point x="297" y="772"/>
      <point x="361" y="772" type="curve" smooth="yes"/>
      <point x="419" y="772"/>
      <point x="444" y="793"/>
    </contour>
    <contour>
      <point x="706" y="19" type="curve"/>
      <point x="706" y="0" type="line"/>
      <point x="451" y="0" type="line"/>
      <point x="451" y="19" type="line"/>
      <point x="504" y="20"/>
      <point x="521" y="28"/>
      <point x="521" y="53" type="curve" smooth="yes"/>
      <point x="521" y="67"/>
      <point x="514" y="93"/>
      <point x="502" y="120" type="curve" smooth="yes"/>
      <point x="461" y="216" type="line"/>
      <point x="199" y="216" type="line"/>
      <point x="153" y="99" type="line" smooth="yes"/>
      <point x="148" y="86"/>
      <point x="145" y="72"/>
      <point x="145" y="60" type="curve" smooth="yes"/>
      <point x="145" y="32"/>
      <point x="165" y="19"/>
      <point x="213" y="19" type="curve"/>
      <point x="213" y="0" type="line"/>
      <point x="15" y="0" type="line"/>
      <point x="15" y="19" type="line"/>
      <point x="63" y="21"/>
      <point x="75" y="37"/>
      <point x="139" y="183" type="curve"/>
      <point x="347" y="674" type="line"/>
      <point x="367" y="674" type="line"/>
      <point x="616" y="106" type="line"/>
      <point x="651" y="32"/>
      <point x="661" y="22"/>
    </contour>
    <contour>
      <point x="216" y="257" type="line"/>
      <point x="447" y="257" type="line"/>
      <point x="331" y="532" type="line"/>
    </contour>
  </outline>
  <lib>
    <dict>
      <key>com.fontlab.hintData</key>
      <dict>
        <key>hhints</key>
        <array>
          <dict>
            <key>position</key>
            <integer>0</integer>
            <key>width</key>
            <integer>19</integer>
          </dict>
          <dict>
            <key>position</key>
            <integer>216</integer>
            <key>width</key>
            <integer>41</integer>
          </dict>
          <dict>
            <key>position</key>
            <integer>654</integer>
            <key>width</key>
            <integer>20</integer>
          </dict>
          <dict>
            <key>position</key>
            <integer>712</integer>
            <key>width</key>
            <integer>60</integer>
          </dict>
        </array>
      </dict>
      <key>com.typemytype.robofont.layerData</key>
      <dict>
      </dict>
    </dict>
  </lib>
</glyph>
