<?xml version="1.0" encoding="UTF-8"?>
<glyph name="yacute" format="1">
  <advance width="500"/>
  <unicode hex="00FD"/>
  <outline>
    <contour>
      <point x="475" y="450" type="line"/>
      <point x="475" y="435" type="line"/>
      <point x="451" y="432"/>
      <point x="440" y="422"/>
      <point x="427" y="390" type="curve" smooth="yes"/>
      <point x="273" y="-18" type="line" smooth="yes"/>
      <point x="219" y="-162"/>
      <point x="171" y="-218"/>
      <point x="104" y="-218" type="curve" smooth="yes"/>
      <point x="62" y="-218"/>
      <point x="30" y="-193"/>
      <point x="30" y="-160" type="curve" smooth="yes"/>
      <point x="30" y="-136"/>
      <point x="50" y="-116"/>
      <point x="73" y="-116" type="curve" smooth="yes"/>
      <point x="90" y="-116"/>
      <point x="107" y="-120"/>
      <point x="126" y="-127" type="curve"/>
      <point x="136" y="-132"/>
      <point x="145" y="-134"/>
      <point x="151" y="-134" type="curve" smooth="yes"/>
      <point x="165" y="-134"/>
      <point x="187" y="-115"/>
      <point x="201" y="-89" type="curve" smooth="yes"/>
      <point x="218" y="-59"/>
      <point x="241" y="4"/>
      <point x="241" y="19" type="curve" smooth="yes"/>
      <point x="241" y="34"/>
      <point x="225" y="70"/>
      <point x="197" y="120" type="curve"/>
      <point x="182" y="150" type="line"/>
      <point x="179" y="158" type="line"/>
      <point x="65" y="404" type="line" smooth="yes"/>
      <point x="57" y="421"/>
      <point x="40" y="432"/>
      <point x="14" y="436" type="curve"/>
      <point x="14" y="450" type="line"/>
      <point x="220" y="450" type="line"/>
      <point x="220" y="435" type="line"/>
      <point x="177" y="433"/>
      <point x="162" y="426"/>
      <point x="162" y="408" type="curve" smooth="yes"/>
      <point x="162" y="397"/>
      <point x="166" y="384"/>
      <point x="172" y="370" type="curve" smooth="yes"/>
      <point x="287" y="117" type="line"/>
      <point x="384" y="393" type="line" smooth="yes"/>
      <point x="387" y="400"/>
      <point x="388" y="406"/>
      <point x="388" y="410" type="curve" smooth="yes"/>
      <point x="388" y="426"/>
      <point x="372" y="435"/>
      <point x="340" y="435" type="curve"/>
      <point x="340" y="450" type="line"/>
    </contour>
    <contour>
      <point x="217" y="507" type="line"/>
      <point x="177" y="507" type="line"/>
      <point x="324" y="655" type="line" smooth="yes"/>
      <point x="342" y="673"/>
      <point x="351" y="678"/>
      <point x="366" y="678" type="curve" smooth="yes"/>
      <point x="388" y="678"/>
      <point x="401" y="666"/>
      <point x="401" y="646" type="curve" smooth="yes"/>
      <point x="401" y="630"/>
      <point x="392" y="617"/>
      <point x="371" y="604" type="curve" smooth="yes"/>
    </contour>
  </outline>
  <lib>
    <dict>
      <key>com.fontlab.hintData</key>
      <dict>
        <key>hhints</key>
        <array>
          <dict>
            <key>position</key>
            <integer>-218</integer>
            <key>width</key>
            <integer>84</integer>
          </dict>
          <dict>
            <key>position</key>
            <integer>430</integer>
            <key>width</key>
            <integer>20</integer>
          </dict>
          <dict>
            <key>position</key>
            <integer>658</integer>
            <key>width</key>
            <integer>20</integer>
          </dict>
        </array>
      </dict>
      <key>com.typemytype.robofont.layerData</key>
      <dict>
      </dict>
    </dict>
  </lib>
</glyph>
