<?xml version="1.0" encoding="UTF-8"?>
<glyph name="fraction" format="1">
  <advance width="600"/>
  <unicode hex="2044"/>
  <outline>
    <contour>
      <point x="534" y="430" type="curve" smooth="yes"/>
      <point x="87" y="146" type="line"/>
      <point x="83" y="143" type="line" smooth="yes"/>
      <point x="79" y="140"/>
      <point x="74" y="138"/>
      <point x="70" y="138" type="curve" smooth="yes"/>
      <point x="60" y="138"/>
      <point x="50" y="148"/>
      <point x="50" y="159" type="curve" smooth="yes"/>
      <point x="50" y="167"/>
      <point x="54" y="173"/>
      <point x="65" y="180" type="curve" smooth="yes"/>
      <point x="512" y="464" type="line" smooth="yes"/>
      <point x="518" y="468"/>
      <point x="525" y="470"/>
      <point x="529" y="470" type="curve" smooth="yes"/>
      <point x="539" y="470"/>
      <point x="549" y="460"/>
      <point x="549" y="450" type="curve" smooth="yes"/>
      <point x="549" y="442"/>
      <point x="546" y="437"/>
    </contour>
  </outline>
  <lib>
    <dict>
      <key>com.typemytype.robofont.layerData</key>
      <dict>
      </dict>
    </dict>
  </lib>
</glyph>
