<?xml version="1.0" encoding="UTF-8"?>
<glyph name="U" format="1">
  <advance width="600"/>
  <unicode hex="0055"/>
  <outline>
    <contour>
      <point x="499" y="522" type="line"/>
      <point x="499" y="185" type="line" smooth="yes"/>
      <point x="499" y="71"/>
      <point x="412" y="-16"/>
      <point x="300" y="-16" type="curve" smooth="yes"/>
      <point x="187" y="-16"/>
      <point x="101" y="71"/>
      <point x="101" y="185" type="curve" smooth="yes"/>
      <point x="101" y="522" type="line"/>
      <point x="67" y="522" type="line" smooth="yes"/>
      <point x="49" y="522"/>
      <point x="40" y="529"/>
      <point x="40" y="543" type="curve" smooth="yes"/>
      <point x="40" y="557"/>
      <point x="49" y="563"/>
      <point x="67" y="563" type="curve" smooth="yes"/>
      <point x="216" y="563" type="line" smooth="yes"/>
      <point x="234" y="563"/>
      <point x="243" y="556"/>
      <point x="243" y="543" type="curve" smooth="yes"/>
      <point x="243" y="529"/>
      <point x="234" y="522"/>
      <point x="216" y="522" type="curve" smooth="yes"/>
      <point x="142" y="522" type="line"/>
      <point x="142" y="185" type="line" smooth="yes"/>
      <point x="142" y="95"/>
      <point x="211" y="25"/>
      <point x="300" y="25" type="curve" smooth="yes"/>
      <point x="388" y="25"/>
      <point x="458" y="95"/>
      <point x="458" y="185" type="curve" smooth="yes"/>
      <point x="458" y="522" type="line"/>
      <point x="384" y="522" type="line" smooth="yes"/>
      <point x="366" y="522"/>
      <point x="357" y="529"/>
      <point x="357" y="543" type="curve" smooth="yes"/>
      <point x="357" y="557"/>
      <point x="365" y="563"/>
      <point x="384" y="563" type="curve" smooth="yes"/>
      <point x="533" y="563" type="line" smooth="yes"/>
      <point x="552" y="563"/>
      <point x="560" y="557"/>
      <point x="560" y="543" type="curve" smooth="yes"/>
      <point x="560" y="529"/>
      <point x="551" y="522"/>
      <point x="533" y="522" type="curve" smooth="yes"/>
    </contour>
  </outline>
  <lib>
    <dict>
      <key>com.fontlab.hintData</key>
      <dict>
        <key>hhints</key>
        <array>
          <dict>
            <key>position</key>
            <integer>-16</integer>
            <key>width</key>
            <integer>41</integer>
          </dict>
          <dict>
            <key>position</key>
            <integer>522</integer>
            <key>width</key>
            <integer>41</integer>
          </dict>
        </array>
        <key>vhints</key>
        <array>
          <dict>
            <key>position</key>
            <integer>101</integer>
            <key>width</key>
            <integer>41</integer>
          </dict>
          <dict>
            <key>position</key>
            <integer>458</integer>
            <key>width</key>
            <integer>41</integer>
          </dict>
        </array>
      </dict>
      <key>com.typemytype.robofont.layerData</key>
      <dict>
      </dict>
    </dict>
  </lib>
</glyph>
