<?xml version="1.0" encoding="UTF-8"?>
<glyph name="afii10084" format="1">
  <advance width="522"/>
  <unicode hex="0442"/>
  <outline>
    <contour>
      <point x="78" y="459" type="line"/>
      <point x="262" y="456" type="line"/>
      <point x="454" y="459" type="line"/>
      <point x="489" y="454" type="line"/>
      <point x="496" y="449" type="line"/>
      <point x="505" y="297" type="line"/>
      <point x="467" y="297" type="line"/>
      <point x="464" y="322" type="line" smooth="yes"/>
      <point x="458" y="370"/>
      <point x="444" y="393"/>
      <point x="388" y="399" type="curve" smooth="yes"/>
      <point x="373" y="401"/>
      <point x="379" y="403"/>
      <point x="362" y="402" type="curve"/>
      <point x="331" y="402"/>
      <point x="326" y="392"/>
      <point x="326" y="338" type="curve" smooth="yes"/>
      <point x="326" y="100" type="line" smooth="yes"/>
      <point x="326" y="46"/>
      <point x="331" y="38"/>
      <point x="362" y="36" type="curve" smooth="yes"/>
      <point x="397" y="34" type="line"/>
      <point x="397" y="-3" type="line"/>
      <point x="330" y="-1"/>
      <point x="262" y="0"/>
      <point x="262" y="0" type="curve"/>
      <point x="133" y="-3" type="line"/>
      <point x="133" y="34" type="line"/>
      <point x="168" y="36" type="line" smooth="yes"/>
      <point x="199" y="38"/>
      <point x="204" y="46"/>
      <point x="204" y="100" type="curve" smooth="yes"/>
      <point x="205" y="338" type="line" smooth="yes"/>
      <point x="205" y="392"/>
      <point x="201" y="402"/>
      <point x="170" y="402" type="curve"/>
      <point x="153" y="403"/>
      <point x="159" y="401"/>
      <point x="144" y="399" type="curve" smooth="yes"/>
      <point x="88" y="393"/>
      <point x="74" y="370"/>
      <point x="68" y="322" type="curve" smooth="yes"/>
      <point x="65" y="297" type="line"/>
      <point x="27" y="297" type="line"/>
      <point x="36" y="449" type="line"/>
      <point x="43" y="454" type="line"/>
    </contour>
  </outline>
  <lib>
    <dict>
      <key>com.fontlab.hintData</key>
      <dict>
	<key>hhints</key>
	<array>
	  <dict>
	    <key>position</key>	    <integer>-3</integer>
	    <key>width</key>	    <integer>37</integer>
	  </dict>
	  <dict>
	    <key>position</key>	    <integer>402</integer>
	    <key>width</key>	    <integer>57</integer>
	  </dict>
	</array>
	<key>vhints</key>
	<array>
	  <dict>
	    <key>position</key>
	    <integer>205</integer>
	    <key>width</key>
	    <integer>121</integer>
	  </dict>
	</array>
      </dict>
    </dict>
  </lib>
</glyph>
