<?xml version="1.0" encoding="UTF-8"?>
<glyph name="dcroat" format="1">
  <advance width="611"/>
  <unicode hex="0111"/>
  <outline>
    <contour>
      <point x="508" y="580" type="line"/>
      <point x="591" y="580" type="line"/>
      <point x="591" y="538" type="line"/>
      <point x="508" y="538" type="line"/>
      <point x="508" y="100" type="line" smooth="yes"/>
      <point x="508" y="46"/>
      <point x="513" y="38"/>
      <point x="544" y="36" type="curve" smooth="yes"/>
      <point x="577" y="34" type="line"/>
      <point x="577" y="-3" type="line"/>
      <point x="556" y="-2"/>
      <point x="537" y="-2"/>
      <point x="530" y="-2" type="curve" smooth="yes"/>
      <point x="502" y="-1"/>
      <point x="484" y="0"/>
      <point x="476" y="0" type="curve" smooth="yes"/>
      <point x="465" y="0"/>
      <point x="446" y="-1"/>
      <point x="386" y="-3" type="curve"/>
      <point x="381" y="5" type="line"/>
      <point x="386" y="80" type="line"/>
      <point x="282" y="-5" type="line" smooth="yes"/>
      <point x="272" y="-13"/>
      <point x="256" y="-17"/>
      <point x="233" y="-17" type="curve" smooth="yes"/>
      <point x="116" y="-17"/>
      <point x="42" y="74"/>
      <point x="42" y="217" type="curve" smooth="yes"/>
      <point x="42" y="303"/>
      <point x="69" y="360"/>
      <point x="126" y="398" type="curve" smooth="yes"/>
      <point x="198" y="445" type="line" smooth="yes"/>
      <point x="224" y="462"/>
      <point x="254" y="471"/>
      <point x="285" y="471" type="curve" smooth="yes"/>
      <point x="311" y="471"/>
      <point x="338" y="465"/>
      <point x="366" y="454" type="curve" smooth="yes"/>
      <point x="386" y="446" type="line"/>
      <point x="386" y="538" type="line"/>
      <point x="260" y="538" type="line"/>
      <point x="260" y="580" type="line"/>
      <point x="386" y="580" type="line"/>
      <point x="385" y="629"/>
      <point x="382" y="636"/>
      <point x="360" y="638" type="curve" smooth="yes"/>
      <point x="307" y="641" type="line"/>
      <point x="307" y="677" type="line"/>
      <point x="365" y="683"/>
      <point x="399" y="689"/>
      <point x="428" y="698" type="curve" smooth="yes"/>
      <point x="500" y="720" type="line"/>
      <point x="508" y="714" type="line"/>
    </contour>
    <contour>
      <point x="386" y="160" type="curve" smooth="yes"/>
      <point x="386" y="344" type="line"/>
      <point x="353" y="387"/>
      <point x="317" y="407"/>
      <point x="273" y="407" type="curve" smooth="yes"/>
      <point x="203" y="407"/>
      <point x="168" y="356"/>
      <point x="168" y="255" type="curve" smooth="yes"/>
      <point x="168" y="147"/>
      <point x="213" y="78"/>
      <point x="284" y="78" type="curve" smooth="yes"/>
      <point x="339" y="78"/>
      <point x="386" y="115"/>
    </contour>
  </outline>
  <lib>
    <dict>
      <key>com.fontlab.hintData</key>
      <dict>
	<key>hhints</key>
	<array>
	  <dict>
	    <key>position</key>	    <integer>-17</integer>
	    <key>width</key>	    <integer>95</integer>
	  </dict>
	  <dict>
	    <key>position</key>	    <integer>-3</integer>
	    <key>width</key>	    <integer>37</integer>
	  </dict>
	  <dict>
	    <key>position</key>	    <integer>0</integer>
	    <key>width</key>	    <integer>20</integer>
	  </dict>
	  <dict>
	    <key>position</key>	    <integer>407</integer>
	    <key>width</key>	    <integer>64</integer>
	  </dict>
	  <dict>
	    <key>position</key>	    <integer>538</integer>
	    <key>width</key>	    <integer>42</integer>
	  </dict>
	</array>
	<key>vhints</key>
	<array>
	  <dict>
	    <key>position</key>
	    <integer>42</integer>
	    <key>width</key>
	    <integer>126</integer>
	  </dict>
	  <dict>
	    <key>position</key>
	    <integer>386</integer>
	    <key>width</key>
	    <integer>122</integer>
	  </dict>
	</array>
      </dict>
    </dict>
  </lib>
</glyph>
