<?xml version="1.0" encoding="UTF-8"?>
<glyph name="exclamdown" format="1">
  <advance width="278"/>
  <unicode hex="00A1"/>
  <outline>
    <contour>
      <point x="115" y="-227" type="line"/>
      <point x="64" y="-227" type="line"/>
      <point x="64" y="-193"/>
      <point x="66" y="-171"/>
      <point x="71" y="-131" type="curve" smooth="yes"/>
      <point x="121" y="241" type="line"/>
      <point x="159" y="262" type="line"/>
      <point x="164" y="254" type="line"/>
      <point x="211" y="-104" type="line" smooth="yes"/>
      <point x="212" y="-105"/>
      <point x="214" y="-136"/>
      <point x="214" y="-164" type="curve"/>
      <point x="215" y="-183" type="line"/>
    </contour>
    <contour>
      <point x="138" y="471" type="curve" smooth="yes"/>
      <point x="178" y="471"/>
      <point x="215" y="433"/>
      <point x="215" y="392" type="curve" smooth="yes"/>
      <point x="215" y="351"/>
      <point x="178" y="315"/>
      <point x="136" y="315" type="curve" smooth="yes"/>
      <point x="95" y="315"/>
      <point x="59" y="350"/>
      <point x="59" y="392" type="curve" smooth="yes"/>
      <point x="59" y="434"/>
      <point x="96" y="471"/>
    </contour>
  </outline>
  <lib>
    <dict>
      <key>com.fontlab.hintData</key>
      <dict>
	<key>hhints</key>
	<array>
	  <dict>
	    <key>position</key>	    <integer>315</integer>
	    <key>width</key>	    <integer>156</integer>
	  </dict>
	</array>
      </dict>
    </dict>
  </lib>
</glyph>
