<?xml version="1.0" encoding="UTF-8"?>
<glyph name="Hbar" format="1">
  <advance width="833"/>
  <unicode hex="0126"/>
  <outline>
    <contour>
      <point x="121" y="472" type="line"/>
      <point x="36" y="472" type="line"/>
      <point x="36" y="543" type="line"/>
      <point x="121" y="543" type="line"/>
      <point x="121" y="632"/>
      <point x="120" y="634"/>
      <point x="73" y="638" type="curve" smooth="yes"/>
      <point x="36" y="641" type="line"/>
      <point x="36" y="681" type="line"/>
      <point x="156" y="678"/>
      <point x="157" y="678"/>
      <point x="191" y="678" type="curve" smooth="yes"/>
      <point x="225" y="678"/>
      <point x="225" y="678"/>
      <point x="347" y="681" type="curve"/>
      <point x="347" y="641" type="line"/>
      <point x="310" y="638" type="line" smooth="yes"/>
      <point x="263" y="634"/>
      <point x="262" y="632"/>
      <point x="262" y="543" type="curve"/>
      <point x="570" y="543" type="line"/>
      <point x="570" y="632"/>
      <point x="569" y="634"/>
      <point x="522" y="638" type="curve" smooth="yes"/>
      <point x="485" y="641" type="line"/>
      <point x="485" y="681" type="line"/>
      <point x="605" y="678"/>
      <point x="606" y="678"/>
      <point x="640" y="678" type="curve" smooth="yes"/>
      <point x="674" y="678"/>
      <point x="674" y="678"/>
      <point x="796" y="681" type="curve"/>
      <point x="796" y="641" type="line"/>
      <point x="759" y="638" type="line" smooth="yes"/>
      <point x="712" y="634"/>
      <point x="711" y="632"/>
      <point x="711" y="543" type="curve"/>
      <point x="788" y="543" type="line"/>
      <point x="788" y="472" type="line"/>
      <point x="711" y="472" type="line"/>
      <point x="711" y="135" type="line" smooth="yes"/>
      <point x="711" y="46"/>
      <point x="712" y="44"/>
      <point x="759" y="40" type="curve" smooth="yes"/>
      <point x="796" y="37" type="line"/>
      <point x="796" y="-3" type="line"/>
      <point x="675" y="0"/>
      <point x="674" y="0"/>
      <point x="640" y="0" type="curve" smooth="yes"/>
      <point x="606" y="0"/>
      <point x="606" y="0"/>
      <point x="485" y="-3" type="curve"/>
      <point x="485" y="37" type="line"/>
      <point x="522" y="40" type="line" smooth="yes"/>
      <point x="569" y="44"/>
      <point x="570" y="46"/>
      <point x="570" y="135" type="curve" smooth="yes"/>
      <point x="570" y="325" type="line"/>
      <point x="544" y="326"/>
      <point x="523" y="327"/>
      <point x="489" y="327" type="curve" smooth="yes"/>
      <point x="343" y="327" type="line" smooth="yes"/>
      <point x="309" y="327"/>
      <point x="288" y="326"/>
      <point x="262" y="325" type="curve"/>
      <point x="262" y="135" type="line" smooth="yes"/>
      <point x="262" y="46"/>
      <point x="263" y="44"/>
      <point x="310" y="40" type="curve" smooth="yes"/>
      <point x="347" y="37" type="line"/>
      <point x="347" y="-3" type="line"/>
      <point x="226" y="0"/>
      <point x="225" y="0"/>
      <point x="191" y="0" type="curve" smooth="yes"/>
      <point x="157" y="0"/>
      <point x="157" y="0"/>
      <point x="36" y="-3" type="curve"/>
      <point x="36" y="37" type="line"/>
      <point x="73" y="40" type="line" smooth="yes"/>
      <point x="120" y="44"/>
      <point x="121" y="46"/>
      <point x="121" y="135" type="curve" smooth="yes"/>
    </contour>
    <contour>
      <point x="570" y="472" type="line"/>
      <point x="262" y="472" type="line"/>
      <point x="262" y="385" type="line"/>
      <point x="285" y="383"/>
      <point x="305" y="383"/>
      <point x="343" y="383" type="curve" smooth="yes"/>
      <point x="489" y="383" type="line" smooth="yes"/>
      <point x="527" y="383"/>
      <point x="546" y="383"/>
      <point x="570" y="385" type="curve"/>
    </contour>
  </outline>
  <lib>
    <dict>
      <key>com.fontlab.hintData</key>
      <dict>
	<key>hhints</key>
	<array>
	  <dict>
	    <key>position</key>	    <integer>-3</integer>
	    <key>width</key>	    <integer>40</integer>
	  </dict>
	  <dict>
	    <key>position</key>	    <integer>325</integer>
	    <key>width</key>	    <integer>58</integer>
	  </dict>
	  <dict>
	    <key>position</key>	    <integer>472</integer>
	    <key>width</key>	    <integer>71</integer>
	  </dict>
	  <dict>
	    <key>position</key>	    <integer>641</integer>
	    <key>width</key>	    <integer>40</integer>
	  </dict>
	</array>
	<key>vhints</key>
	<array>
	  <dict>
	    <key>position</key>
	    <integer>121</integer>
	    <key>width</key>
	    <integer>141</integer>
	  </dict>
	  <dict>
	    <key>position</key>
	    <integer>570</integer>
	    <key>width</key>
	    <integer>141</integer>
	  </dict>
	</array>
      </dict>
    </dict>
  </lib>
</glyph>
