<?xml version="1.0" encoding="UTF-8"?>
<glyph name="quoteright" format="1">
  <advance width="278"/>
  <unicode hex="2019"/>
  <outline>
    <contour>
      <point x="109" y="432" type="curve"/>
      <point x="43" y="405" type="line"/>
      <point x="29" y="421" type="line"/>
      <point x="64" y="500"/>
      <point x="92" y="590"/>
      <point x="103" y="662" type="curve"/>
      <point x="151" y="668"/>
      <point x="197" y="679"/>
      <point x="235" y="695" type="curve"/>
      <point x="249" y="682" type="line"/>
      <point x="219" y="615"/>
      <point x="166" y="521"/>
    </contour>
  </outline>
  <lib>
    <dict>
      <key>com.fontlab.hintData</key>
      <dict>
	<key>hhints</key>
	<array>
	  <dict>
	    <key>position</key>	    <integer>675</integer>
	    <key>width</key>	    <integer>20</integer>
	  </dict>
	</array>
      </dict>
    </dict>
  </lib>
</glyph>
