<?xml version="1.0" encoding="UTF-8"?>
<glyph name="zero" format="1">
  <advance width="500"/>
  <unicode hex="0030"/>
  <outline>
    <contour>
      <point x="266" y="660" type="curve" smooth="yes"/>
      <point x="339" y="660"/>
      <point x="395" y="630"/>
      <point x="427" y="573" type="curve" smooth="yes"/>
      <point x="456" y="522"/>
      <point x="468" y="455"/>
      <point x="468" y="348" type="curve" smooth="yes"/>
      <point x="468" y="96"/>
      <point x="398" y="-17"/>
      <point x="242" y="-17" type="curve" smooth="yes"/>
      <point x="96" y="-17"/>
      <point x="33" y="79"/>
      <point x="33" y="302" type="curve" smooth="yes"/>
      <point x="33" y="424"/>
      <point x="47" y="502"/>
      <point x="81" y="561" type="curve" smooth="yes"/>
      <point x="119" y="628"/>
      <point x="178" y="660"/>
    </contour>
    <contour>
      <point x="245" y="610" type="curve" smooth="yes"/>
      <point x="217" y="610"/>
      <point x="195" y="597"/>
      <point x="180" y="570" type="curve" smooth="yes"/>
      <point x="160" y="533"/>
      <point x="153" y="482"/>
      <point x="153" y="372" type="curve" smooth="yes"/>
      <point x="153" y="238"/>
      <point x="165" y="128"/>
      <point x="185" y="85" type="curve" smooth="yes"/>
      <point x="201" y="51"/>
      <point x="225" y="33"/>
      <point x="255" y="33" type="curve" smooth="yes"/>
      <point x="315" y="33"/>
      <point x="348" y="110"/>
      <point x="348" y="252" type="curve" smooth="yes"/>
      <point x="348" y="386"/>
      <point x="334" y="515"/>
      <point x="314" y="558" type="curve" smooth="yes"/>
      <point x="298" y="592"/>
      <point x="274" y="610"/>
    </contour>
  </outline>
  <lib>
    <dict>
      <key>com.fontlab.hintData</key>
      <dict>
	<key>hhints</key>
	<array>
	  <dict>
	    <key>position</key>	    <integer>-17</integer>
	    <key>width</key>	    <integer>50</integer>
	  </dict>
	  <dict>
	    <key>position</key>	    <integer>610</integer>
	    <key>width</key>	    <integer>50</integer>
	  </dict>
	</array>
	<key>vhints</key>
	<array>
	  <dict>
	    <key>position</key>
	    <integer>33</integer>
	    <key>width</key>
	    <integer>120</integer>
	  </dict>
	  <dict>
	    <key>position</key>
	    <integer>348</integer>
	    <key>width</key>
	    <integer>120</integer>
	  </dict>
	</array>
      </dict>
    </dict>
  </lib>
</glyph>
