<?xml version="1.0" encoding="UTF-8"?>
<glyph name="uni048C" format="1">
  <advance width="687"/>
  <unicode hex="048C"/>
  <outline>
    <contour>
      <point x="226" y="344" type="line"/>
      <point x="226" y="125" type="line"/>
      <point x="366" y="125" type="line" smooth="yes"/>
      <point x="446" y="125"/>
      <point x="483" y="160"/>
      <point x="483" y="235" type="curve" smooth="yes"/>
      <point x="483" y="309"/>
      <point x="446" y="344"/>
      <point x="366" y="344" type="curve" smooth="yes"/>
    </contour>
    <contour>
      <point x="226" y="634" type="line"/>
      <point x="305" y="634" type="line"/>
      <point x="305" y="555" type="line"/>
      <point x="226" y="555" type="line"/>
      <point x="226" y="469" type="line"/>
      <point x="413" y="469" type="line" smooth="yes"/>
      <point x="547" y="469"/>
      <point x="633" y="374"/>
      <point x="633" y="226" type="curve" smooth="yes"/>
      <point x="633" y="80"/>
      <point x="550" y="0"/>
      <point x="398" y="0" type="curve" smooth="yes"/>
      <point x="76" y="0" type="line"/>
      <point x="76" y="555" type="line"/>
      <point x="6" y="555" type="line"/>
      <point x="6" y="634" type="line"/>
      <point x="76" y="634" type="line"/>
      <point x="76" y="729" type="line"/>
      <point x="226" y="729" type="line"/>
    </contour>
  </outline>
  <lib>
    <dict>
      <key>com.fontlab.hintData</key>
      <dict>
	<key>hhints</key>
	<array>
	  <dict>
	    <key>position</key>	    <integer>0</integer>
	    <key>width</key>	    <integer>125</integer>
	  </dict>
	  <dict>
	    <key>position</key>	    <integer>344</integer>
	    <key>width</key>	    <integer>125</integer>
	  </dict>
	  <dict>
	    <key>position</key>	    <integer>555</integer>
	    <key>width</key>	    <integer>79</integer>
	  </dict>
	  <dict>
	    <key>position</key>	    <integer>709</integer>
	    <key>width</key>	    <integer>20</integer>
	  </dict>
	</array>
	<key>vhints</key>
	<array>
	  <dict>
	    <key>position</key>
	    <integer>76</integer>
	    <key>width</key>
	    <integer>150</integer>
	  </dict>
	  <dict>
	    <key>position</key>
	    <integer>483</integer>
	    <key>width</key>
	    <integer>150</integer>
	  </dict>
	</array>
      </dict>
    </dict>
  </lib>
</glyph>
