<?xml version="1.0" encoding="UTF-8"?>
<glyph name="zero" format="1">
  <advance width="556"/>
  <unicode hex="0030"/>
  <outline>
    <contour>
      <point x="273" y="724" type="curve" smooth="yes"/>
      <point x="356" y="724"/>
      <point x="425" y="687"/>
      <point x="467" y="619" type="curve" smooth="yes"/>
      <point x="501" y="564"/>
      <point x="517" y="476"/>
      <point x="517" y="346" type="curve" smooth="yes"/>
      <point x="517" y="214"/>
      <point x="497" y="122"/>
      <point x="457" y="68" type="curve" smooth="yes"/>
      <point x="413" y="8"/>
      <point x="350" y="-23"/>
      <point x="273" y="-23" type="curve" smooth="yes"/>
      <point x="190" y="-23"/>
      <point x="121" y="15"/>
      <point x="79" y="82" type="curve" smooth="yes"/>
      <point x="46" y="136"/>
      <point x="29" y="225"/>
      <point x="29" y="350" type="curve" smooth="yes"/>
      <point x="29" y="487"/>
      <point x="48" y="578"/>
      <point x="89" y="633" type="curve" smooth="yes"/>
      <point x="132" y="692"/>
      <point x="197" y="724"/>
    </contour>
    <contour>
      <point x="273" y="611" type="curve" smooth="yes"/>
      <point x="233" y="611"/>
      <point x="203" y="587"/>
      <point x="187" y="544" type="curve" smooth="yes"/>
      <point x="177" y="515"/>
      <point x="169" y="434"/>
      <point x="169" y="351" type="curve" smooth="yes"/>
      <point x="169" y="257"/>
      <point x="177" y="182"/>
      <point x="191" y="152" type="curve" smooth="yes"/>
      <point x="208" y="116"/>
      <point x="236" y="97"/>
      <point x="273" y="97" type="curve" smooth="yes"/>
      <point x="313" y="97"/>
      <point x="343" y="120"/>
      <point x="359" y="162" type="curve" smooth="yes"/>
      <point x="369" y="190"/>
      <point x="377" y="270"/>
      <point x="377" y="349" type="curve" smooth="yes"/>
      <point x="377" y="446"/>
      <point x="369" y="524"/>
      <point x="355" y="554" type="curve" smooth="yes"/>
      <point x="338" y="591"/>
      <point x="309" y="611"/>
    </contour>
  </outline>
  <lib>
    <dict>
      <key>com.fontlab.hintData</key>
      <dict>
	<key>hhints</key>
	<array>
	  <dict>
	    <key>position</key>	    <integer>-23</integer>
	    <key>width</key>	    <integer>120</integer>
	  </dict>
	  <dict>
	    <key>position</key>	    <integer>611</integer>
	    <key>width</key>	    <integer>113</integer>
	  </dict>
	</array>
	<key>vhints</key>
	<array>
	  <dict>
	    <key>position</key>
	    <integer>29</integer>
	    <key>width</key>
	    <integer>140</integer>
	  </dict>
	  <dict>
	    <key>position</key>
	    <integer>377</integer>
	    <key>width</key>
	    <integer>140</integer>
	  </dict>
	</array>
      </dict>
    </dict>
  </lib>
</glyph>
