<?xml version="1.0" encoding="UTF-8"?>
<glyph name="grave" format="1">
  <advance width="333"/>
  <unicode hex="0060"/>
  <outline>
    <contour>
      <point x="249" y="545" type="line"/>
      <point x="185" y="545" type="line"/>
      <point x="38" y="632" type="line" smooth="yes"/>
      <point x="14" y="646"/>
      <point x="2" y="664"/>
      <point x="2" y="684" type="curve" smooth="yes"/>
      <point x="2" y="712"/>
      <point x="27" y="734"/>
      <point x="59" y="734" type="curve" smooth="yes"/>
      <point x="76" y="734"/>
      <point x="92" y="728"/>
      <point x="107" y="716" type="curve" smooth="yes"/>
      <point x="113" y="712"/>
      <point x="113" y="712"/>
      <point x="136" y="683" type="curve" smooth="yes"/>
    </contour>
  </outline>
  <lib>
    <dict>
      <key>com.fontlab.hintData</key>
      <dict>
	<key>hhints</key>
	<array>
	  <dict>
	    <key>position</key>	    <integer>714</integer>
	    <key>width</key>	    <integer>20</integer>
	  </dict>
	</array>
      </dict>
    </dict>
  </lib>
</glyph>
