<?xml version="1.0" encoding="UTF-8"?>
<glyph name="ubreve" format="1">
  <advance width="685"/>
  <unicode hex="016D"/>
  <outline>
    <contour>
      <point x="182" y="740" type="curve"/>
      <point x="236" y="740" type="line"/>
      <point x="242" y="685"/>
      <point x="276" y="658"/>
      <point x="340" y="658" type="curve" smooth="yes"/>
      <point x="404" y="658"/>
      <point x="438" y="685"/>
      <point x="444" y="740" type="curve"/>
      <point x="498" y="740" type="line"/>
      <point x="498" y="635"/>
      <point x="440" y="573"/>
      <point x="340" y="573" type="curve" smooth="yes"/>
      <point x="240" y="573"/>
      <point x="182" y="634"/>
    </contour>
    <contour>
      <point x="584" y="473" type="line"/>
      <point x="584" y="131" type="line"/>
      <point x="584" y="108" type="line" smooth="yes"/>
      <point x="584" y="72"/>
      <point x="592" y="65"/>
      <point x="639" y="65" type="curve" smooth="yes"/>
      <point x="667" y="65" type="line"/>
      <point x="667" y="11" type="line"/>
      <point x="434" y="0" type="line"/>
      <point x="434" y="82" type="line"/>
      <point x="376" y="11"/>
      <point x="328" y="-15"/>
      <point x="257" y="-15" type="curve" smooth="yes"/>
      <point x="189" y="-15"/>
      <point x="136" y="16"/>
      <point x="109" y="71" type="curve" smooth="yes"/>
      <point x="95" y="99"/>
      <point x="93" y="117"/>
      <point x="93" y="191" type="curve" smooth="yes"/>
      <point x="93" y="318" type="line"/>
      <point x="92" y="413"/>
      <point x="91" y="415"/>
      <point x="29" y="415" type="curve" smooth="yes"/>
      <point x="13" y="415" type="line"/>
      <point x="13" y="466" type="line"/>
      <point x="250" y="473" type="line"/>
      <point x="250" y="185" type="line" smooth="yes"/>
      <point x="250" y="109"/>
      <point x="271" y="78"/>
      <point x="321" y="78" type="curve" smooth="yes"/>
      <point x="359" y="78"/>
      <point x="394" y="101"/>
      <point x="410" y="135" type="curve"/>
      <point x="423" y="160"/>
      <point x="427" y="188"/>
      <point x="427" y="238" type="curve" smooth="yes"/>
      <point x="427" y="318" type="line" smooth="yes"/>
      <point x="427" y="411"/>
      <point x="424" y="415"/>
      <point x="363" y="415" type="curve" smooth="yes"/>
      <point x="347" y="415" type="line"/>
      <point x="347" y="466" type="line"/>
    </contour>
  </outline>
  <lib>
    <dict>
      <key>com.fontlab.hintData</key>
      <dict>
	<key>hhints</key>
	<array>
	  <dict>
	    <key>position</key>	    <integer>-15</integer>
	    <key>width</key>	    <integer>93</integer>
	  </dict>
	  <dict>
	    <key>position</key>	    <integer>11</integer>
	    <key>width</key>	    <integer>54</integer>
	  </dict>
	  <dict>
	    <key>position</key>	    <integer>415</integer>
	    <key>width</key>	    <integer>51</integer>
	  </dict>
	  <dict>
	    <key>position</key>	    <integer>573</integer>
	    <key>width</key>	    <integer>85</integer>
	  </dict>
	  <dict>
	    <key>position</key>	    <integer>720</integer>
	    <key>width</key>	    <integer>20</integer>
	  </dict>
	</array>
	<key>vhints</key>
	<array>
	  <dict>
	    <key>position</key>
	    <integer>93</integer>
	    <key>width</key>
	    <integer>157</integer>
	  </dict>
	  <dict>
	    <key>position</key>
	    <integer>182</integer>
	    <key>width</key>
	    <integer>54</integer>
	  </dict>
	  <dict>
	    <key>position</key>
	    <integer>427</integer>
	    <key>width</key>
	    <integer>157</integer>
	  </dict>
	  <dict>
	    <key>position</key>
	    <integer>444</integer>
	    <key>width</key>
	    <integer>54</integer>
	  </dict>
	</array>
      </dict>
    </dict>
  </lib>
</glyph>
