<?xml version="1.0" encoding="UTF-8"?>
<glyph name="uni049A" format="1">
  <advance width="784"/>
  <unicode hex="049A"/>
  <outline>
    <contour>
      <point x="635" y="-16" type="curve" smooth="yes"/>
      <point x="511" y="-16"/>
      <point x="491" y="60"/>
      <point x="491" y="132" type="curve" smooth="yes"/>
      <point x="491" y="204"/>
      <point x="451" y="314"/>
      <point x="341" y="317" type="curve"/>
      <point x="304" y="317" type="line"/>
      <point x="304" y="144" type="line" smooth="yes"/>
      <point x="304" y="81"/>
      <point x="304" y="77"/>
      <point x="311" y="69" type="curve" smooth="yes"/>
      <point x="320" y="58"/>
      <point x="342" y="54"/>
      <point x="394" y="54" type="curve" smooth="yes"/>
      <point x="409" y="54" type="line"/>
      <point x="409" y="0" type="line"/>
      <point x="20" y="0" type="line"/>
      <point x="20" y="54" type="line"/>
      <point x="35" y="54" type="line" smooth="yes"/>
      <point x="87" y="54"/>
      <point x="108" y="58"/>
      <point x="117" y="69" type="curve" smooth="yes"/>
      <point x="124" y="77"/>
      <point x="123" y="81"/>
      <point x="123" y="144" type="curve" smooth="yes"/>
      <point x="123" y="578" type="line" smooth="yes"/>
      <point x="123" y="641"/>
      <point x="124" y="645"/>
      <point x="117" y="653" type="curve" smooth="yes"/>
      <point x="108" y="664"/>
      <point x="87" y="668"/>
      <point x="35" y="668" type="curve" smooth="yes"/>
      <point x="20" y="668" type="line"/>
      <point x="20" y="722" type="line"/>
      <point x="409" y="722" type="line"/>
      <point x="409" y="668" type="line"/>
      <point x="394" y="668" type="line" smooth="yes"/>
      <point x="342" y="668"/>
      <point x="320" y="664"/>
      <point x="311" y="653" type="curve" smooth="yes"/>
      <point x="304" y="645"/>
      <point x="304" y="641"/>
      <point x="304" y="578" type="curve" smooth="yes"/>
      <point x="304" y="409" type="line"/>
      <point x="345" y="408" type="line"/>
      <point x="571" y="408"/>
      <point x="351" y="736"/>
      <point x="631" y="736" type="curve" smooth="yes"/>
      <point x="736" y="736"/>
      <point x="760" y="673"/>
      <point x="760" y="642" type="curve" smooth="yes"/>
      <point x="760" y="595"/>
      <point x="736" y="561"/>
      <point x="694" y="561" type="curve" smooth="yes"/>
      <point x="652" y="561"/>
      <point x="616" y="572"/>
      <point x="616" y="632" type="curve" smooth="yes"/>
      <point x="616" y="650"/>
      <point x="624" y="666"/>
      <point x="633" y="666" type="curve" smooth="yes"/>
      <point x="638" y="666"/>
      <point x="643" y="669"/>
      <point x="643" y="674" type="curve" smooth="yes"/>
      <point x="643" y="682"/>
      <point x="643" y="684"/>
      <point x="619" y="684" type="curve" smooth="yes"/>
      <point x="550" y="684"/>
      <point x="615" y="406"/>
      <point x="495" y="366" type="curve"/>
      <point x="703" y="344"/>
      <point x="605" y="62"/>
      <point x="673" y="62" type="curve" smooth="yes"/>
      <point x="701" y="62"/>
      <point x="701" y="106"/>
      <point x="703" y="162" type="curve"/>
      <point x="787" y="162" type="line"/>
      <point x="787" y="84"/>
      <point x="767" y="40"/>
      <point x="739" y="15" type="curve"/>
      <point x="739" y="13" type="line" smooth="yes"/>
      <point x="739" y="-22"/>
      <point x="777" y="-22"/>
      <point x="777" y="-72" type="curve" smooth="yes"/>
      <point x="777" y="-126"/>
      <point x="677" y="-170"/>
      <point x="627" y="-200" type="curve"/>
      <point x="589" y="-154" type="line"/>
      <point x="637" y="-122"/>
      <point x="700" y="-86"/>
      <point x="700" y="-60" type="curve" smooth="yes"/>
      <point x="700" y="-44"/>
      <point x="684" y="-42"/>
      <point x="684" y="-26" type="curve" smooth="yes"/>
      <point x="684" y="-22"/>
      <point x="685" y="-17"/>
      <point x="688" y="-11" type="curve"/>
      <point x="670" y="-15"/>
      <point x="652" y="-16"/>
    </contour>
  </outline>
  <lib>
    <dict>
      <key>com.fontlab.hintData</key>
      <dict>
	<key>hhints</key>
	<array>
	  <dict>
	    <key>position</key>	    <integer>-16</integer>
	    <key>width</key>	    <integer>78</integer>
	  </dict>
	  <dict>
	    <key>position</key>	    <integer>0</integer>
	    <key>width</key>	    <integer>54</integer>
	  </dict>
	  <dict>
	    <key>position</key>	    <integer>317</integer>
	    <key>width</key>	    <integer>91</integer>
	  </dict>
	  <dict>
	    <key>position</key>	    <integer>668</integer>
	    <key>width</key>	    <integer>54</integer>
	  </dict>
	  <dict>
	    <key>position</key>	    <integer>684</integer>
	    <key>width</key>	    <integer>52</integer>
	  </dict>
	</array>
	<key>vhints</key>
	<array>
	  <dict>
	    <key>position</key>
	    <integer>123</integer>
	    <key>width</key>
	    <integer>181</integer>
	  </dict>
	  <dict>
	    <key>position</key>
	    <integer>684</integer>
	    <key>width</key>
	    <integer>55</integer>
	  </dict>
	  <dict>
	    <key>position</key>
	    <integer>703</integer>
	    <key>width</key>
	    <integer>84</integer>
	  </dict>
	</array>
      </dict>
    </dict>
  </lib>
</glyph>
