<?xml version="1.0" encoding="UTF-8"?>
<glyph name="Dcaron" format="1">
  <advance width="722"/>
  <unicode hex="010E"/>
  <outline>
    <contour>
      <point x="77" y="0" type="line"/>
      <point x="232" y="729" type="line"/>
      <point x="517" y="729" type="line" smooth="yes"/>
      <point x="698" y="729"/>
      <point x="776" y="654"/>
      <point x="776" y="479" type="curve" smooth="yes"/>
      <point x="776" y="361"/>
      <point x="735" y="238"/>
      <point x="664" y="140" type="curve" smooth="yes"/>
      <point x="591" y="39"/>
      <point x="507" y="0"/>
      <point x="362" y="0" type="curve" smooth="yes"/>
    </contour>
    <contour>
      <point x="254" y="125" type="line"/>
      <point x="388" y="125" type="line" smooth="yes"/>
      <point x="475" y="125"/>
      <point x="524" y="153"/>
      <point x="567" y="228" type="curve" smooth="yes"/>
      <point x="601" y="287"/>
      <point x="627" y="390"/>
      <point x="627" y="469" type="curve" smooth="yes"/>
      <point x="627" y="560"/>
      <point x="582" y="604"/>
      <point x="490" y="604" type="curve" smooth="yes"/>
      <point x="355" y="604" type="line"/>
    </contour>
    <contour>
      <point x="547" y="789" type="line"/>
      <point x="439" y="789" type="line"/>
      <point x="368" y="936" type="line"/>
      <point x="446" y="936" type="line"/>
      <point x="507" y="839" type="line"/>
      <point x="610" y="936" type="line"/>
      <point x="686" y="936" type="line"/>
    </contour>
  </outline>
  <lib>
    <dict>
      <key>com.fontlab.hintData</key>
      <dict>
	<key>hhints</key>
	<array>
	  <dict>
	    <key>position</key>	    <integer>0</integer>
	    <key>width</key>	    <integer>125</integer>
	  </dict>
	  <dict>
	    <key>position</key>	    <integer>604</integer>
	    <key>width</key>	    <integer>125</integer>
	  </dict>
	</array>
	<key>vhints</key>
	<array>
	  <dict>
	    <key>position</key>
	    <integer>627</integer>
	    <key>width</key>
	    <integer>149</integer>
	  </dict>
	</array>
      </dict>
    </dict>
  </lib>
</glyph>
