<?xml version="1.0" encoding="UTF-8"?>
<glyph name="uni04CB" format="1">
  <advance width="671"/>
  <unicode hex="04CB"/>
  <outline>
    <contour>
      <point x="446" y="0" type="line"/>
      <point x="414" y="-150" type="line"/>
      <point x="284" y="-150" type="line"/>
      <point x="339" y="108" type="line"/>
      <point x="479" y="108" type="line"/>
      <point x="514" y="274" type="line"/>
      <point x="370" y="274" type="line" smooth="yes"/>
      <point x="217" y="274"/>
      <point x="161" y="339"/>
      <point x="161" y="440" type="curve" smooth="yes"/>
      <point x="161" y="463"/>
      <point x="164" y="488"/>
      <point x="169" y="514" type="curve" smooth="yes"/>
      <point x="215" y="729" type="line"/>
      <point x="365" y="729" type="line"/>
      <point x="317" y="505" type="line" smooth="yes"/>
      <point x="314" y="488"/>
      <point x="311" y="472"/>
      <point x="311" y="458" type="curve" smooth="yes"/>
      <point x="311" y="422"/>
      <point x="330" y="399"/>
      <point x="397" y="399" type="curve" smooth="yes"/>
      <point x="540" y="399" type="line"/>
      <point x="610" y="729" type="line"/>
      <point x="761" y="729" type="line"/>
      <point x="606" y="0" type="line"/>
    </contour>
  </outline>
  <lib>
    <dict>
      <key>com.fontlab.hintData</key>
      <dict>
	<key>hhints</key>
	<array>
	  <dict>
	    <key>position</key>	    <integer>0</integer>
	    <key>width</key>	    <integer>21</integer>
	  </dict>
	  <dict>
	    <key>position</key>	    <integer>274</integer>
	    <key>width</key>	    <integer>125</integer>
	  </dict>
	  <dict>
	    <key>position</key>	    <integer>709</integer>
	    <key>width</key>	    <integer>20</integer>
	  </dict>
	</array>
      </dict>
    </dict>
  </lib>
</glyph>
