<?xml version="1.0" encoding="UTF-8"?>
<glyph name="asteriskmath" format="1">
  <advance width="500"/>
  <unicode hex="2217"/>
  <outline>
    <contour>
      <point x="246" y="546" type="curve" smooth="yes"/>
      <point x="268" y="546"/>
      <point x="284" y="531"/>
      <point x="284" y="510" type="curve" smooth="yes"/>
      <point x="284" y="498"/>
      <point x="283" y="493"/>
      <point x="268" y="449" type="curve" smooth="yes"/>
      <point x="259" y="421"/>
      <point x="255" y="402"/>
      <point x="255" y="385" type="curve" smooth="yes"/>
      <point x="255" y="371"/>
      <point x="259" y="363"/>
      <point x="267" y="363" type="curve" smooth="yes"/>
      <point x="283" y="363"/>
      <point x="302" y="379"/>
      <point x="346" y="428" type="curve" smooth="yes"/>
      <point x="368" y="453"/>
      <point x="381" y="462"/>
      <point x="395" y="462" type="curve" smooth="yes"/>
      <point x="412" y="462"/>
      <point x="427" y="442"/>
      <point x="427" y="420" type="curve" smooth="yes"/>
      <point x="427" y="397"/>
      <point x="414" y="387"/>
      <point x="371" y="378" type="curve" smooth="yes"/>
      <point x="303" y="363"/>
      <point x="278" y="352"/>
      <point x="278" y="337" type="curve" smooth="yes"/>
      <point x="278" y="328"/>
      <point x="290" y="320"/>
      <point x="312" y="310" type="curve"/>
      <point x="324" y="306"/>
      <point x="324" y="306"/>
      <point x="371" y="295" type="curve" smooth="yes"/>
      <point x="413" y="286"/>
      <point x="427" y="275"/>
      <point x="427" y="253" type="curve" smooth="yes"/>
      <point x="427" y="231"/>
      <point x="411" y="211"/>
      <point x="395" y="211" type="curve" smooth="yes"/>
      <point x="381" y="211"/>
      <point x="369" y="219"/>
      <point x="346" y="245" type="curve" smooth="yes"/>
      <point x="302" y="294"/>
      <point x="283" y="309"/>
      <point x="267" y="309" type="curve" smooth="yes"/>
      <point x="259" y="309"/>
      <point x="255" y="301"/>
      <point x="255" y="288" type="curve" smooth="yes"/>
      <point x="255" y="267"/>
      <point x="257" y="257"/>
      <point x="275" y="204" type="curve" smooth="yes"/>
      <point x="282" y="183"/>
      <point x="284" y="173"/>
      <point x="284" y="163" type="curve" smooth="yes"/>
      <point x="284" y="142"/>
      <point x="268" y="127"/>
      <point x="246" y="127" type="curve" smooth="yes"/>
      <point x="224" y="127"/>
      <point x="208" y="142"/>
      <point x="208" y="163" type="curve" smooth="yes"/>
      <point x="208" y="175"/>
      <point x="208" y="175"/>
      <point x="225" y="230" type="curve" smooth="yes"/>
      <point x="233" y="254"/>
      <point x="236" y="272"/>
      <point x="236" y="287" type="curve" smooth="yes"/>
      <point x="236" y="301"/>
      <point x="232" y="309"/>
      <point x="225" y="309" type="curve" smooth="yes"/>
      <point x="208" y="309"/>
      <point x="191" y="295"/>
      <point x="146" y="245" type="curve" smooth="yes"/>
      <point x="123" y="219"/>
      <point x="111" y="211"/>
      <point x="97" y="211" type="curve" smooth="yes"/>
      <point x="80" y="211"/>
      <point x="65" y="231"/>
      <point x="65" y="253" type="curve" smooth="yes"/>
      <point x="65" y="271"/>
      <point x="77" y="284"/>
      <point x="101" y="290" type="curve" smooth="yes"/>
      <point x="109" y="293"/>
      <point x="125" y="296"/>
      <point x="147" y="301" type="curve" smooth="yes"/>
      <point x="186" y="310"/>
      <point x="213" y="324"/>
      <point x="213" y="337" type="curve" smooth="yes"/>
      <point x="213" y="345"/>
      <point x="202" y="353"/>
      <point x="179" y="363" type="curve" smooth="yes"/>
      <point x="168" y="367"/>
      <point x="168" y="367"/>
      <point x="121" y="378" type="curve" smooth="yes"/>
      <point x="78" y="388"/>
      <point x="65" y="397"/>
      <point x="65" y="421" type="curve" smooth="yes"/>
      <point x="65" y="442"/>
      <point x="80" y="462"/>
      <point x="97" y="462" type="curve" smooth="yes"/>
      <point x="111" y="462"/>
      <point x="123" y="454"/>
      <point x="146" y="428" type="curve" smooth="yes"/>
      <point x="190" y="378"/>
      <point x="208" y="363"/>
      <point x="225" y="363" type="curve" smooth="yes"/>
      <point x="232" y="363"/>
      <point x="236" y="371"/>
      <point x="236" y="385" type="curve" smooth="yes"/>
      <point x="236" y="405"/>
      <point x="234" y="414"/>
      <point x="217" y="469" type="curve" smooth="yes"/>
      <point x="210" y="492"/>
      <point x="208" y="500"/>
      <point x="208" y="510" type="curve" smooth="yes"/>
      <point x="208" y="531"/>
      <point x="223" y="546"/>
    </contour>
  </outline>
  <lib>
    <dict>
      <key>com.fontlab.hintData</key>
      <dict>
	<key>hhints</key>
	<array>
	  <dict>
	    <key>position</key>	    <integer>309</integer>
	    <key>width</key>	    <integer>54</integer>
	  </dict>
	</array>
	<key>vhints</key>
	<array>
	  <dict>
	    <key>position</key>
	    <integer>213</integer>
	    <key>width</key>
	    <integer>65</integer>
	  </dict>
	  <dict>
	    <key>position</key>
	    <integer>236</integer>
	    <key>width</key>
	    <integer>19</integer>
	  </dict>
	</array>
      </dict>
    </dict>
  </lib>
</glyph>
