<?xml version="1.0" encoding="UTF-8"?>
<glyph name="bracerightmid" format="1">
  <advance width="494"/>
  <outline>
    <contour>
      <point x="201" y="935" type="line"/>
      <point x="255" y="935" type="line"/>
      <point x="255" y="695" type="line" smooth="yes"/>
      <point x="255" y="595"/>
      <point x="269" y="551"/>
      <point x="313" y="513" type="curve" smooth="yes"/>
      <point x="347" y="483"/>
      <point x="381" y="470"/>
      <point x="442" y="461" type="curve"/>
      <point x="442" y="400" type="line"/>
      <point x="375" y="390"/>
      <point x="336" y="373"/>
      <point x="303" y="338" type="curve" smooth="yes"/>
      <point x="267" y="301"/>
      <point x="255" y="258"/>
      <point x="255" y="166" type="curve" smooth="yes"/>
      <point x="255" y="-85" type="line"/>
      <point x="201" y="-85" type="line"/>
      <point x="201" y="187" type="line" smooth="yes"/>
      <point x="201" y="273"/>
      <point x="217" y="324"/>
      <point x="259" y="367" type="curve" smooth="yes"/>
      <point x="288" y="396"/>
      <point x="319" y="412"/>
      <point x="383" y="431" type="curve"/>
      <point x="313" y="450"/>
      <point x="279" y="469"/>
      <point x="250" y="505" type="curve" smooth="yes"/>
      <point x="214" y="548"/>
      <point x="201" y="594"/>
      <point x="201" y="674" type="curve" smooth="yes"/>
    </contour>
  </outline>
  <lib>
    <dict>
      <key>com.fontlab.hintData</key>
      <dict>
	<key>vhints</key>
	<array>
	  <dict>
	    <key>position</key>
	    <integer>201</integer>
	    <key>width</key>
	    <integer>54</integer>
	  </dict>
	</array>
      </dict>
    </dict>
  </lib>
</glyph>
