<?xml version="1.0" encoding="UTF-8"?>
<glyph name="equivalence" format="1">
  <advance width="549"/>
  <unicode hex="2261"/>
  <outline>
    <contour>
      <point x="538" y="294" type="line"/>
      <point x="538" y="239" type="line"/>
      <point x="14" y="239" type="line"/>
      <point x="14" y="294" type="line"/>
    </contour>
    <contour>
      <point x="538" y="142" type="line"/>
      <point x="538" y="87" type="line"/>
      <point x="14" y="87" type="line"/>
      <point x="14" y="142" type="line"/>
    </contour>
    <contour>
      <point x="538" y="446" type="line"/>
      <point x="538" y="391" type="line"/>
      <point x="14" y="391" type="line"/>
      <point x="14" y="446" type="line"/>
    </contour>
  </outline>
  <lib>
    <dict>
      <key>com.fontlab.hintData</key>
      <dict>
	<key>hhints</key>
	<array>
	  <dict>
	    <key>position</key>	    <integer>87</integer>
	    <key>width</key>	    <integer>55</integer>
	  </dict>
	  <dict>
	    <key>position</key>	    <integer>239</integer>
	    <key>width</key>	    <integer>55</integer>
	  </dict>
	  <dict>
	    <key>position</key>	    <integer>391</integer>
	    <key>width</key>	    <integer>55</integer>
	  </dict>
	</array>
      </dict>
    </dict>
  </lib>
</glyph>
