<?xml version="1.0" encoding="UTF-8"?>
<glyph name="f" format="1">
  <advance width="420"/>
  <unicode hex="0066"/>
  <outline>
    <contour>
      <point x="361" y="421" type="line"/>
      <point x="328" y="242" type="line" smooth="yes"/>
      <point x="296" y="66"/>
      <point x="288" y="36"/>
      <point x="261" y="-15" type="curve" smooth="yes"/>
      <point x="196" y="-138"/>
      <point x="78" y="-208"/>
      <point x="-63" y="-208" type="curve" smooth="yes"/>
      <point x="-145" y="-208"/>
      <point x="-192" y="-180"/>
      <point x="-192" y="-130" type="curve" smooth="yes"/>
      <point x="-192" y="-87"/>
      <point x="-153" y="-52"/>
      <point x="-105" y="-52" type="curve" smooth="yes"/>
      <point x="-81" y="-52"/>
      <point x="-61" y="-62"/>
      <point x="-41" y="-83" type="curve" smooth="yes"/>
      <point x="-17" y="-108"/>
      <point x="-11" y="-112"/>
      <point x="10" y="-112" type="curve" smooth="yes"/>
      <point x="46" y="-112"/>
      <point x="79" y="-87"/>
      <point x="103" y="-42" type="curve" smooth="yes"/>
      <point x="120" y="-9"/>
      <point x="134" y="41"/>
      <point x="151" y="136" type="curve" smooth="yes"/>
      <point x="203" y="421" type="line"/>
      <point x="119" y="421" type="line"/>
      <point x="135" y="511" type="line"/>
      <point x="219" y="511" type="line"/>
      <point x="244" y="658"/>
      <point x="351" y="745"/>
      <point x="509" y="745" type="curve" smooth="yes"/>
      <point x="591" y="745"/>
      <point x="641" y="714"/>
      <point x="641" y="664" type="curve" smooth="yes"/>
      <point x="641" y="627"/>
      <point x="609" y="600"/>
      <point x="566" y="600" type="curve" smooth="yes"/>
      <point x="532" y="600"/>
      <point x="515" y="609"/>
      <point x="493" y="639" type="curve" smooth="yes"/>
      <point x="483" y="653"/>
      <point x="476" y="657"/>
      <point x="460" y="657" type="curve" smooth="yes"/>
      <point x="419" y="657"/>
      <point x="398" y="626"/>
      <point x="384" y="547" type="curve"/>
      <point x="377" y="511" type="line"/>
      <point x="473" y="511" type="line"/>
      <point x="456" y="421" type="line"/>
    </contour>
  </outline>
  <lib>
    <dict>
      <key>com.fontlab.hintData</key>
      <dict>
	<key>hhints</key>
	<array>
	  <dict>
	    <key>position</key>	    <integer>-208</integer>
	    <key>width</key>	    <integer>96</integer>
	  </dict>
	  <dict>
	    <key>position</key>	    <integer>421</integer>
	    <key>width</key>	    <integer>90</integer>
	  </dict>
	  <dict>
	    <key>position</key>	    <integer>657</integer>
	    <key>width</key>	    <integer>88</integer>
	  </dict>
	</array>
      </dict>
    </dict>
  </lib>
</glyph>
