<?xml version="1.0" encoding="UTF-8"?>
<glyph name="question" format="1">
  <advance width="620"/>
  <unicode hex="003F"/>
  <outline>
    <contour>
      <point x="417" y="215" type="curve"/>
      <point x="326" y="215" type="line"/>
      <point x="330" y="307"/>
      <point x="347" y="339"/>
      <point x="424" y="395" type="curve" smooth="yes"/>
      <point x="458" y="419"/>
      <point x="469" y="430"/>
      <point x="480" y="450" type="curve" smooth="yes"/>
      <point x="491" y="471"/>
      <point x="497" y="493"/>
      <point x="497" y="514" type="curve" smooth="yes"/>
      <point x="497" y="573"/>
      <point x="458" y="612"/>
      <point x="400" y="612" type="curve" smooth="yes"/>
      <point x="347" y="612"/>
      <point x="296" y="586"/>
      <point x="296" y="558" type="curve" smooth="yes"/>
      <point x="296" y="552"/>
      <point x="298" y="543"/>
      <point x="301" y="531" type="curve" smooth="yes"/>
      <point x="304" y="523"/>
      <point x="305" y="516"/>
      <point x="305" y="510" type="curve" smooth="yes"/>
      <point x="305" y="468"/>
      <point x="264" y="429"/>
      <point x="221" y="429" type="curve" smooth="yes"/>
      <point x="174" y="429"/>
      <point x="145" y="458"/>
      <point x="145" y="504" type="curve" smooth="yes"/>
      <point x="145" y="607"/>
      <point x="274" y="694"/>
      <point x="428" y="694" type="curve" smooth="yes"/>
      <point x="571" y="694"/>
      <point x="668" y="625"/>
      <point x="668" y="523" type="curve" smooth="yes"/>
      <point x="668" y="433"/>
      <point x="609" y="354"/>
      <point x="510" y="314" type="curve" smooth="yes"/>
      <point x="443" y="288"/>
      <point x="425" y="269"/>
    </contour>
    <contour>
      <point x="369" y="161" type="curve" smooth="yes"/>
      <point x="415" y="161"/>
      <point x="447" y="130"/>
      <point x="447" y="85" type="curve" smooth="yes"/>
      <point x="447" y="32"/>
      <point x="403" y="-13"/>
      <point x="350" y="-13" type="curve" smooth="yes"/>
      <point x="306" y="-13"/>
      <point x="273" y="20"/>
      <point x="273" y="65" type="curve" smooth="yes"/>
      <point x="273" y="116"/>
      <point x="318" y="161"/>
    </contour>
  </outline>
  <lib>
    <dict>
      <key>com.fontlab.hintData</key>
      <dict>
	<key>hhints</key>
	<array>
	  <dict>
	    <key>position</key>	    <integer>-13</integer>
	    <key>width</key>	    <integer>20</integer>
	  </dict>
	  <dict>
	    <key>position</key>	    <integer>612</integer>
	    <key>width</key>	    <integer>82</integer>
	  </dict>
	</array>
	<key>vhints</key>
	<array>
	  <dict>
	    <key>position</key>
	    <integer>145</integer>
	    <key>width</key>
	    <integer>151</integer>
	  </dict>
	  <dict>
	    <key>position</key>
	    <integer>497</integer>
	    <key>width</key>
	    <integer>171</integer>
	  </dict>
	</array>
      </dict>
    </dict>
  </lib>
</glyph>
