<?xml version="1.0" encoding="UTF-8"?>
<glyph name="tilde" format="1">
  <advance width="480"/>
  <unicode hex="02DC"/>
  <outline>
    <contour>
      <point x="487" y="699" type="curve"/>
      <point x="533" y="662" type="line"/>
      <point x="492" y="595"/>
      <point x="471" y="580"/>
      <point x="417" y="580" type="curve" smooth="yes"/>
      <point x="393" y="580"/>
      <point x="382" y="583"/>
      <point x="332" y="600" type="curve" smooth="yes"/>
      <point x="306" y="609"/>
      <point x="294" y="612"/>
      <point x="279" y="612" type="curve" smooth="yes"/>
      <point x="254" y="612"/>
      <point x="239" y="604"/>
      <point x="224" y="583" type="curve"/>
      <point x="178" y="619" type="line"/>
      <point x="209" y="679"/>
      <point x="242" y="703"/>
      <point x="296" y="703" type="curve" smooth="yes"/>
      <point x="323" y="703"/>
      <point x="342" y="699"/>
      <point x="378" y="686" type="curve" smooth="yes"/>
      <point x="406" y="675"/>
      <point x="419" y="672"/>
      <point x="434" y="672" type="curve" smooth="yes"/>
      <point x="459" y="672"/>
      <point x="465" y="675"/>
    </contour>
  </outline>
  <lib>
    <dict>
      <key>com.fontlab.hintData</key>
      <dict>
	<key>hhints</key>
	<array>
	  <dict>
	    <key>position</key>	    <integer>580</integer>
	    <key>width</key>	    <integer>92</integer>
	  </dict>
	  <dict>
	    <key>position</key>	    <integer>612</integer>
	    <key>width</key>	    <integer>91</integer>
	  </dict>
	  <dict>
	    <key>position</key>	    <integer>679</integer>
	    <key>width</key>	    <integer>20</integer>
	  </dict>
	</array>
      </dict>
    </dict>
  </lib>
</glyph>
