<?xml version="1.0" encoding="UTF-8"?>
<glyph name="uni04E2" format="1">
  <advance width="819"/>
  <unicode hex="04E2"/>
  <outline>
    <contour>
      <point x="704" y="754" type="line"/>
      <point x="376" y="754" type="line"/>
      <point x="402" y="842" type="line"/>
      <point x="730" y="842" type="line"/>
    </contour>
    <contour>
      <point x="325" y="275" type="line"/>
      <point x="635" y="503" type="line"/>
      <point x="636" y="513" type="line"/>
      <point x="648" y="577"/>
      <point x="638" y="591"/>
      <point x="583" y="597" type="curve" smooth="yes"/>
      <point x="564" y="599" type="line"/>
      <point x="578" y="681" type="line"/>
      <point x="929" y="681" type="line"/>
      <point x="915" y="599" type="line"/>
      <point x="894" y="597" type="line" smooth="yes"/>
      <point x="837" y="591"/>
      <point x="823" y="577"/>
      <point x="811" y="513" type="curve" smooth="yes"/>
      <point x="751" y="168" type="line" smooth="yes"/>
      <point x="739" y="104"/>
      <point x="749" y="90"/>
      <point x="804" y="84" type="curve" smooth="yes"/>
      <point x="823" y="82" type="line"/>
      <point x="809" y="0" type="line"/>
      <point x="458" y="0" type="line"/>
      <point x="472" y="82" type="line"/>
      <point x="493" y="84" type="line" smooth="yes"/>
      <point x="550" y="90"/>
      <point x="564" y="104"/>
      <point x="576" y="168" type="curve" smooth="yes"/>
      <point x="618" y="406" type="line"/>
      <point x="308" y="178" type="line"/>
      <point x="307" y="168" type="line"/>
      <point x="295" y="104"/>
      <point x="305" y="90"/>
      <point x="360" y="84" type="curve" smooth="yes"/>
      <point x="379" y="82" type="line"/>
      <point x="365" y="0" type="line"/>
      <point x="14" y="0" type="line"/>
      <point x="28" y="82" type="line"/>
      <point x="49" y="84" type="line" smooth="yes"/>
      <point x="106" y="90"/>
      <point x="120" y="104"/>
      <point x="132" y="168" type="curve" smooth="yes"/>
      <point x="192" y="513" type="line" smooth="yes"/>
      <point x="204" y="577"/>
      <point x="194" y="591"/>
      <point x="139" y="597" type="curve" smooth="yes"/>
      <point x="120" y="599" type="line"/>
      <point x="134" y="681" type="line"/>
      <point x="485" y="681" type="line"/>
      <point x="471" y="599" type="line"/>
      <point x="450" y="597" type="line" smooth="yes"/>
      <point x="393" y="591"/>
      <point x="379" y="577"/>
      <point x="367" y="513" type="curve" smooth="yes"/>
    </contour>
  </outline>
  <lib>
    <dict>
      <key>com.fontlab.hintData</key>
      <dict>
	<key>hhints</key>
	<array>
	  <dict>
	    <key>position</key>	    <integer>0</integer>
	    <key>width</key>	    <integer>82</integer>
	  </dict>
	  <dict>
	    <key>position</key>	    <integer>599</integer>
	    <key>width</key>	    <integer>82</integer>
	  </dict>
	  <dict>
	    <key>position</key>	    <integer>754</integer>
	    <key>width</key>	    <integer>88</integer>
	  </dict>
	</array>
      </dict>
    </dict>
  </lib>
</glyph>
