<?xml version="1.0" encoding="UTF-8"?>
<glyph name="afii10062" format="1">
  <advance width="637"/>
  <unicode hex="040E"/>
  <outline>
    <contour>
      <point x="156" y="951" type="curve"/>
      <point x="254" y="951" type="line"/>
      <point x="266" y="922"/>
      <point x="289" y="908"/>
      <point x="322" y="908" type="curve" smooth="yes"/>
      <point x="357" y="908"/>
      <point x="379" y="923"/>
      <point x="384" y="951" type="curve"/>
      <point x="486" y="951" type="line"/>
      <point x="483" y="868"/>
      <point x="417" y="812"/>
      <point x="322" y="812" type="curve" smooth="yes"/>
      <point x="223" y="812"/>
      <point x="162" y="863"/>
    </contour>
    <contour>
      <point x="122" y="0" type="line"/>
      <point x="250" y="273" type="line"/>
      <point x="12" y="739" type="line"/>
      <point x="155" y="739" type="line"/>
      <point x="319" y="399" type="line"/>
      <point x="482" y="739" type="line"/>
      <point x="630" y="739" type="line"/>
      <point x="276" y="0" type="line"/>
    </contour>
  </outline>
  <lib>
    <dict>
      <key>com.fontlab.hintData</key>
      <dict>
	<key>hhints</key>
	<array>
	  <dict>
	    <key>position</key>	    <integer>0</integer>
	    <key>width</key>	    <integer>21</integer>
	  </dict>
	  <dict>
	    <key>position</key>	    <integer>719</integer>
	    <key>width</key>	    <integer>20</integer>
	  </dict>
	  <dict>
	    <key>position</key>	    <integer>812</integer>
	    <key>width</key>	    <integer>96</integer>
	  </dict>
	</array>
      </dict>
    </dict>
  </lib>
</glyph>
