<?xml version="1.0" encoding="UTF-8"?>
<glyph name="quotesingle" format="1">
  <advance width="220"/>
  <unicode hex="0027"/>
  <outline>
    <contour>
      <point x="150" y="513" type="line"/>
      <point x="74" y="513" type="line"/>
      <point x="74" y="739" type="line"/>
      <point x="150" y="739" type="line"/>
    </contour>
  </outline>
  <lib>
    <dict>
      <key>com.fontlab.hintData</key>
      <dict>
	<key>hhints</key>
	<array>
	  <dict>
	    <key>position</key>	    <integer>513</integer>
	    <key>width</key>	    <integer>226</integer>
	  </dict>
	</array>
	<key>vhints</key>
	<array>
	  <dict>
	    <key>position</key>
	    <integer>74</integer>
	    <key>width</key>
	    <integer>76</integer>
	  </dict>
	</array>
      </dict>
    </dict>
  </lib>
</glyph>
