<?xml version="1.0" encoding="UTF-8"?>
<glyph name="quotedblbase" format="1">
  <advance width="480"/>
  <unicode hex="201E"/>
  <outline>
    <contour>
      <point x="70" y="0" type="line"/>
      <point x="70" y="128" type="line"/>
      <point x="203" y="128" type="line"/>
      <point x="203" y="-7" type="line" smooth="yes"/>
      <point x="203" y="-64"/>
      <point x="183" y="-100"/>
      <point x="139" y="-124" type="curve" smooth="yes"/>
      <point x="117" y="-137"/>
      <point x="100" y="-140"/>
      <point x="70" y="-140" type="curve"/>
      <point x="70" y="-73" type="line"/>
      <point x="112" y="-65"/>
      <point x="129" y="-49"/>
      <point x="129" y="-17" type="curve" smooth="yes"/>
      <point x="129" y="-13"/>
      <point x="129" y="-6"/>
      <point x="128" y="0" type="curve"/>
    </contour>
    <contour>
      <point x="277" y="0" type="line"/>
      <point x="277" y="128" type="line"/>
      <point x="410" y="128" type="line"/>
      <point x="410" y="-7" type="line" smooth="yes"/>
      <point x="410" y="-64"/>
      <point x="390" y="-100"/>
      <point x="346" y="-124" type="curve" smooth="yes"/>
      <point x="323" y="-137"/>
      <point x="307" y="-140"/>
      <point x="277" y="-140" type="curve"/>
      <point x="277" y="-73" type="line"/>
      <point x="319" y="-65"/>
      <point x="336" y="-49"/>
      <point x="336" y="-17" type="curve" smooth="yes"/>
      <point x="336" y="-13"/>
      <point x="336" y="-6"/>
      <point x="335" y="0" type="curve"/>
    </contour>
  </outline>
  <lib>
    <dict>
      <key>com.fontlab.hintData</key>
      <dict>
	<key>hhints</key>
	<array>
	  <dict>
	    <key>position</key>	    <integer>0</integer>
	    <key>width</key>	    <integer>128</integer>
	  </dict>
	</array>
      </dict>
    </dict>
  </lib>
</glyph>
