<?xml version="1.0" encoding="UTF-8"?>
<glyph name="scaron" format="1">
  <advance width="440"/>
  <unicode hex="0161"/>
  <outline>
    <contour>
      <point x="19" y="176" type="curve"/>
      <point x="153" y="176" type="line"/>
      <point x="166" y="129"/>
      <point x="188" y="109"/>
      <point x="227" y="109" type="curve" smooth="yes"/>
      <point x="261" y="109"/>
      <point x="287" y="132"/>
      <point x="287" y="163" type="curve" smooth="yes"/>
      <point x="287" y="181"/>
      <point x="278" y="196"/>
      <point x="262" y="206" type="curve" smooth="yes"/>
      <point x="248" y="215"/>
      <point x="244" y="217"/>
      <point x="193" y="234" type="curve" smooth="yes"/>
      <point x="83" y="271"/>
      <point x="39" y="317"/>
      <point x="39" y="398" type="curve" smooth="yes"/>
      <point x="39" y="493"/>
      <point x="120" y="567"/>
      <point x="223" y="567" type="curve" smooth="yes"/>
      <point x="278" y="567"/>
      <point x="330" y="545"/>
      <point x="365" y="506" type="curve" smooth="yes"/>
      <point x="392" y="476"/>
      <point x="403" y="448"/>
      <point x="405" y="401" type="curve"/>
      <point x="275" y="401" type="line"/>
      <point x="269" y="430"/>
      <point x="251" y="445"/>
      <point x="223" y="445" type="curve" smooth="yes"/>
      <point x="194" y="445"/>
      <point x="172" y="425"/>
      <point x="172" y="398" type="curve" smooth="yes"/>
      <point x="172" y="382"/>
      <point x="181" y="369"/>
      <point x="199" y="361" type="curve" smooth="yes"/>
      <point x="212" y="355"/>
      <point x="212" y="355"/>
      <point x="266" y="338" type="curve" smooth="yes"/>
      <point x="314" y="323"/>
      <point x="347" y="309"/>
      <point x="368" y="291" type="curve"/>
      <point x="402" y="264"/>
      <point x="420" y="224"/>
      <point x="420" y="176" type="curve" smooth="yes"/>
      <point x="420" y="70"/>
      <point x="333" y="-13"/>
      <point x="222" y="-13" type="curve" smooth="yes"/>
      <point x="155" y="-13"/>
      <point x="92" y="16"/>
      <point x="56" y="64" type="curve" smooth="yes"/>
      <point x="34" y="94"/>
      <point x="25" y="122"/>
    </contour>
    <contour>
      <point x="24" y="768" type="line"/>
      <point x="171" y="768" type="line"/>
      <point x="225" y="704" type="line"/>
      <point x="278" y="768" type="line"/>
      <point x="423" y="768" type="line"/>
      <point x="278" y="630" type="line"/>
      <point x="171" y="630" type="line"/>
    </contour>
  </outline>
  <lib>
    <dict>
      <key>com.fontlab.hintData</key>
      <dict>
	<key>hhints</key>
	<array>
	  <dict>
	    <key>position</key>	    <integer>-13</integer>
	    <key>width</key>	    <integer>122</integer>
	  </dict>
	  <dict>
	    <key>position</key>	    <integer>445</integer>
	    <key>width</key>	    <integer>122</integer>
	  </dict>
	</array>
	<key>vhints</key>
	<array>
	  <dict>
	    <key>position</key>
	    <integer>39</integer>
	    <key>width</key>
	    <integer>133</integer>
	  </dict>
	  <dict>
	    <key>position</key>
	    <integer>287</integer>
	    <key>width</key>
	    <integer>133</integer>
	  </dict>
	</array>
      </dict>
    </dict>
  </lib>
</glyph>
