<?xml version="1.0" encoding="UTF-8"?>
<glyph name="uni04E7" format="1">
  <advance width="643"/>
  <unicode hex="04E7"/>
  <outline>
    <contour>
      <point x="152" y="627" type="line"/>
      <point x="152" y="760" type="line"/>
      <point x="285" y="760" type="line"/>
      <point x="285" y="627" type="line"/>
    </contour>
    <contour>
      <point x="362" y="627" type="line"/>
      <point x="362" y="760" type="line"/>
      <point x="495" y="760" type="line"/>
      <point x="495" y="627" type="line"/>
    </contour>
    <contour>
      <point x="323" y="567" type="curve" smooth="yes"/>
      <point x="490" y="567"/>
      <point x="619" y="438"/>
      <point x="619" y="273" type="curve" smooth="yes"/>
      <point x="619" y="117"/>
      <point x="485" y="-13"/>
      <point x="324" y="-13" type="curve" smooth="yes"/>
      <point x="162" y="-13"/>
      <point x="30" y="117"/>
      <point x="30" y="277" type="curve" smooth="yes"/>
      <point x="30" y="436"/>
      <point x="162" y="567"/>
    </contour>
    <contour>
      <point x="324" y="445" type="curve" smooth="yes"/>
      <point x="237" y="445"/>
      <point x="164" y="370"/>
      <point x="164" y="279" type="curve" smooth="yes"/>
      <point x="164" y="184"/>
      <point x="235" y="109"/>
      <point x="325" y="109" type="curve" smooth="yes"/>
      <point x="413" y="109"/>
      <point x="485" y="184"/>
      <point x="485" y="277" type="curve" smooth="yes"/>
      <point x="485" y="369"/>
      <point x="413" y="445"/>
    </contour>
  </outline>
  <lib>
    <dict>
      <key>com.fontlab.hintData</key>
      <dict>
	<key>hhints</key>
	<array>
	  <dict>
	    <key>position</key>	    <integer>-13</integer>
	    <key>width</key>	    <integer>122</integer>
	  </dict>
	  <dict>
	    <key>position</key>	    <integer>445</integer>
	    <key>width</key>	    <integer>122</integer>
	  </dict>
	  <dict>
	    <key>position</key>	    <integer>627</integer>
	    <key>width</key>	    <integer>133</integer>
	  </dict>
	</array>
	<key>vhints</key>
	<array>
	  <dict>
	    <key>position</key>
	    <integer>30</integer>
	    <key>width</key>
	    <integer>134</integer>
	  </dict>
	  <dict>
	    <key>position</key>
	    <integer>152</integer>
	    <key>width</key>
	    <integer>133</integer>
	  </dict>
	  <dict>
	    <key>position</key>
	    <integer>362</integer>
	    <key>width</key>
	    <integer>133</integer>
	  </dict>
	  <dict>
	    <key>position</key>
	    <integer>485</integer>
	    <key>width</key>
	    <integer>134</integer>
	  </dict>
	</array>
      </dict>
    </dict>
  </lib>
</glyph>
