<?xml version="1.0" encoding="UTF-8"?>
<glyph name="afii10108" format="1">
  <advance width="548"/>
  <unicode hex="045B"/>
  <outline>
    <contour>
      <point x="391" y="300" type="line" smooth="yes"/>
      <point x="391" y="370"/>
      <point x="366" y="406"/>
      <point x="316" y="406" type="curve" smooth="yes"/>
      <point x="277" y="406"/>
      <point x="247" y="389"/>
      <point x="205" y="343" type="curve"/>
      <point x="205" y="102" type="line" smooth="yes"/>
      <point x="205" y="33"/>
      <point x="215" y="21"/>
      <point x="273" y="15" type="curve"/>
      <point x="273" y="0" type="line"/>
      <point x="57" y="0" type="line"/>
      <point x="57" y="15" type="line"/>
      <point x="115" y="23"/>
      <point x="121" y="32"/>
      <point x="121" y="102" type="curve" smooth="yes"/>
      <point x="121" y="492" type="line"/>
      <point x="9" y="492" type="line"/>
      <point x="9" y="546" type="line"/>
      <point x="121" y="546" type="line"/>
      <point x="121" y="573" type="line" smooth="yes"/>
      <point x="121" y="616"/>
      <point x="113" y="624"/>
      <point x="70" y="624" type="curve" smooth="yes"/>
      <point x="65" y="624"/>
      <point x="62" y="624"/>
      <point x="58" y="623" type="curve"/>
      <point x="58" y="639" type="line"/>
      <point x="85" y="647" type="line" smooth="yes"/>
      <point x="141" y="663"/>
      <point x="166" y="671"/>
      <point x="200" y="683" type="curve"/>
      <point x="205" y="680" type="line"/>
      <point x="205" y="546" type="line"/>
      <point x="320" y="546" type="line"/>
      <point x="320" y="492" type="line"/>
      <point x="205" y="492" type="line"/>
      <point x="205" y="376" type="line"/>
      <point x="251" y="436"/>
      <point x="293" y="460"/>
      <point x="352" y="460" type="curve" smooth="yes"/>
      <point x="433" y="460"/>
      <point x="475" y="406"/>
      <point x="475" y="301" type="curve" smooth="yes"/>
      <point x="475" y="102" type="line" smooth="yes"/>
      <point x="475" y="33"/>
      <point x="481" y="25"/>
      <point x="535" y="15" type="curve"/>
      <point x="535" y="0" type="line"/>
      <point x="323" y="0" type="line"/>
      <point x="323" y="15" type="line"/>
      <point x="381" y="21"/>
      <point x="391" y="34"/>
      <point x="391" y="102" type="curve" smooth="yes"/>
    </contour>
  </outline>
  <lib>
    <dict>
      <key>com.fontlab.hintData</key>
      <dict>
	<key>hhints</key>
	<array>
	  <dict>
	    <key>position</key>	    <integer>0</integer>
	    <key>width</key>	    <integer>15</integer>
	  </dict>
	  <dict>
	    <key>position</key>	    <integer>406</integer>
	    <key>width</key>	    <integer>54</integer>
	  </dict>
	  <dict>
	    <key>position</key>	    <integer>492</integer>
	    <key>width</key>	    <integer>54</integer>
	  </dict>
	</array>
	<key>vhints</key>
	<array>
	  <dict>
	    <key>position</key>
	    <integer>121</integer>
	    <key>width</key>
	    <integer>84</integer>
	  </dict>
	  <dict>
	    <key>position</key>
	    <integer>391</integer>
	    <key>width</key>
	    <integer>84</integer>
	  </dict>
	</array>
      </dict>
    </dict>
  </lib>
</glyph>
