<?xml version="1.0" encoding="UTF-8"?>
<glyph name="uni04E1" format="1">
  <advance width="389"/>
  <unicode hex="04E1"/>
  <outline>
    <contour>
      <point x="190" y="27" type="curve" smooth="yes"/>
      <point x="228" y="27"/>
      <point x="278" y="49"/>
      <point x="278" y="124" type="curve" smooth="yes"/>
      <point x="278" y="178"/>
      <point x="249" y="230"/>
      <point x="204" y="230" type="curve"/>
      <point x="271" y="419" type="line"/>
      <point x="180" y="419" type="line" smooth="yes"/>
      <point x="123" y="419"/>
      <point x="100" y="403"/>
      <point x="77" y="314" type="curve"/>
      <point x="62" y="314" type="line"/>
      <point x="66" y="450" type="line"/>
      <point x="335" y="450" type="line"/>
      <point x="264" y="242" type="line"/>
      <point x="312" y="242"/>
      <point x="354" y="183"/>
      <point x="354" y="132" type="curve" smooth="yes"/>
      <point x="354" y="54"/>
      <point x="316" y="-10"/>
      <point x="192" y="-10" type="curve" smooth="yes"/>
      <point x="90" y="-10"/>
      <point x="49" y="79"/>
      <point x="28" y="126" type="curve"/>
      <point x="42" y="135" type="line"/>
      <point x="90" y="65"/>
      <point x="133" y="27"/>
    </contour>
  </outline>
  <lib>
    <dict>
      <key>com.fontlab.hintData</key>
      <dict>
	<key>hhints</key>
	<array>
	  <dict>
	    <key>position</key>	    <integer>-10</integer>
	    <key>width</key>	    <integer>37</integer>
	  </dict>
	  <dict>
	    <key>position</key>	    <integer>230</integer>
	    <key>width</key>	    <integer>12</integer>
	  </dict>
	  <dict>
	    <key>position</key>	    <integer>419</integer>
	    <key>width</key>	    <integer>31</integer>
	  </dict>
	</array>
	<key>vhints</key>
	<array>
	  <dict>
	    <key>position</key>
	    <integer>278</integer>
	    <key>width</key>
	    <integer>76</integer>
	  </dict>
	</array>
      </dict>
    </dict>
  </lib>
</glyph>
