<?xml version="1.0" encoding="UTF-8"?>
<glyph name="uni04E6" format="1">
  <advance width="722"/>
  <unicode hex="04E6"/>
  <outline>
    <contour>
      <point x="361" y="676" type="curve" smooth="yes"/>
      <point x="457" y="676"/>
      <point x="541" y="640"/>
      <point x="604" y="571" type="curve" smooth="yes"/>
      <point x="659" y="511"/>
      <point x="688" y="426"/>
      <point x="688" y="327" type="curve" smooth="yes"/>
      <point x="688" y="126"/>
      <point x="552" y="-14"/>
      <point x="355" y="-14" type="curve" smooth="yes"/>
      <point x="267" y="-14"/>
      <point x="178" y="25"/>
      <point x="120" y="88" type="curve" smooth="yes"/>
      <point x="66" y="146"/>
      <point x="34" y="237"/>
      <point x="34" y="331" type="curve" smooth="yes"/>
      <point x="34" y="532"/>
      <point x="170" y="676"/>
    </contour>
    <contour>
      <point x="361" y="640" type="curve" smooth="yes"/>
      <point x="306" y="640"/>
      <point x="257" y="618"/>
      <point x="218" y="575" type="curve" smooth="yes"/>
      <point x="176" y="528"/>
      <point x="148" y="431"/>
      <point x="148" y="329" type="curve" smooth="yes"/>
      <point x="148" y="218"/>
      <point x="181" y="117"/>
      <point x="233" y="71" type="curve" smooth="yes"/>
      <point x="268" y="40"/>
      <point x="313" y="22"/>
      <point x="359" y="22" type="curve" smooth="yes"/>
      <point x="412" y="22"/>
      <point x="457" y="40"/>
      <point x="492" y="75" type="curve" smooth="yes"/>
      <point x="515" y="98"/>
      <point x="532" y="123"/>
      <point x="541" y="148" type="curve" smooth="yes"/>
      <point x="561" y="200"/>
      <point x="574" y="269"/>
      <point x="574" y="328" type="curve" smooth="yes"/>
      <point x="574" y="447"/>
      <point x="543" y="541"/>
      <point x="489" y="590" type="curve" smooth="yes"/>
      <point x="453" y="622"/>
      <point x="407" y="640"/>
    </contour>
    <contour>
      <point x="260" y="821" type="curve" smooth="yes"/>
      <point x="288" y="821"/>
      <point x="311" y="798"/>
      <point x="311" y="771" type="curve" smooth="yes"/>
      <point x="311" y="744"/>
      <point x="288" y="722"/>
      <point x="260" y="722" type="curve" smooth="yes"/>
      <point x="233" y="722"/>
      <point x="212" y="744"/>
      <point x="212" y="772" type="curve" smooth="yes"/>
      <point x="212" y="798"/>
      <point x="235" y="821"/>
    </contour>
    <contour>
      <point x="459" y="821" type="curve" smooth="yes"/>
      <point x="487" y="821"/>
      <point x="510" y="798"/>
      <point x="510" y="771" type="curve" smooth="yes"/>
      <point x="510" y="744"/>
      <point x="487" y="722"/>
      <point x="459" y="722" type="curve" smooth="yes"/>
      <point x="432" y="722"/>
      <point x="411" y="744"/>
      <point x="411" y="772" type="curve" smooth="yes"/>
      <point x="411" y="798"/>
      <point x="434" y="821"/>
    </contour>
  </outline>
  <lib>
    <dict>
      <key>com.fontlab.hintData</key>
      <dict>
	<key>hhints</key>
	<array>
	  <dict>
	    <key>position</key>	    <integer>-14</integer>
	    <key>width</key>	    <integer>36</integer>
	  </dict>
	  <dict>
	    <key>position</key>	    <integer>640</integer>
	    <key>width</key>	    <integer>36</integer>
	  </dict>
	  <dict>
	    <key>position</key>	    <integer>722</integer>
	    <key>width</key>	    <integer>99</integer>
	  </dict>
	</array>
	<key>vhints</key>
	<array>
	  <dict>
	    <key>position</key>
	    <integer>34</integer>
	    <key>width</key>
	    <integer>114</integer>
	  </dict>
	  <dict>
	    <key>position</key>
	    <integer>212</integer>
	    <key>width</key>
	    <integer>99</integer>
	  </dict>
	  <dict>
	    <key>position</key>
	    <integer>411</integer>
	    <key>width</key>
	    <integer>99</integer>
	  </dict>
	  <dict>
	    <key>position</key>
	    <integer>574</integer>
	    <key>width</key>
	    <integer>114</integer>
	  </dict>
	</array>
      </dict>
    </dict>
  </lib>
</glyph>
