<?xml version="1.0" encoding="UTF-8"?>
<glyph name="Omacron" format="1">
  <advance width="718"/>
  <unicode hex="014C"/>
  <outline>
    <contour>
      <point x="347" y="-10" type="line" smooth="yes"/>
      <point x="446" y="-10"/>
      <point x="511" y="20"/>
      <point x="564" y="71" type="curve" smooth="yes"/>
      <point x="634" y="140"/>
      <point x="668" y="241"/>
      <point x="668" y="345" type="curve" smooth="yes"/>
      <point x="668" y="460"/>
      <point x="618" y="559"/>
      <point x="546" y="610" type="curve" smooth="yes"/>
      <point x="496" y="645"/>
      <point x="439" y="660"/>
      <point x="378" y="660" type="curve" smooth="yes"/>
      <point x="309" y="660"/>
      <point x="248" y="644"/>
      <point x="189" y="604" type="curve" smooth="yes"/>
      <point x="113" y="551"/>
      <point x="50" y="448"/>
      <point x="50" y="319" type="curve" smooth="yes"/>
      <point x="50" y="213"/>
      <point x="83" y="130"/>
      <point x="139" y="74" type="curve" smooth="yes"/>
      <point x="189" y="23"/>
      <point x="259" y="-10"/>
      <point x="346" y="-10" type="curve" smooth="yes"/>
    </contour>
    <contour>
      <point x="360" y="40" type="line" smooth="yes"/>
      <point x="303" y="40"/>
      <point x="250" y="59"/>
      <point x="210" y="102" type="curve" smooth="yes"/>
      <point x="157" y="158"/>
      <point x="136" y="227"/>
      <point x="136" y="326" type="curve" smooth="yes"/>
      <point x="136" y="438"/>
      <point x="178" y="516"/>
      <point x="224" y="558" type="curve" smooth="yes"/>
      <point x="262" y="592"/>
      <point x="311" y="610"/>
      <point x="366" y="610" type="curve" smooth="yes"/>
      <point x="426" y="610"/>
      <point x="472" y="591"/>
      <point x="511" y="549" type="curve" smooth="yes"/>
      <point x="559" y="495"/>
      <point x="582" y="416"/>
      <point x="582" y="324" type="curve" smooth="yes"/>
      <point x="582" y="213"/>
      <point x="548" y="147"/>
      <point x="510" y="102" type="curve" smooth="yes"/>
      <point x="474" y="61"/>
      <point x="420" y="40"/>
      <point x="361" y="40" type="curve" smooth="yes"/>
    </contour>
    <contour>
      <point x="477" y="785" type="curve"/>
      <point x="400" y="784"/>
      <point x="328" y="784"/>
      <point x="252" y="783" type="curve"/>
      <point x="251" y="768"/>
      <point x="251" y="751"/>
      <point x="252" y="737" type="curve"/>
      <point x="325" y="737"/>
      <point x="409" y="736"/>
      <point x="477" y="736" type="curve"/>
      <point x="477" y="752"/>
      <point x="478" y="769"/>
    </contour>
  </outline>
  <lib>
    <dict>
      <key>com.typemytype.robofont.layerData</key>
      <dict>
      </dict>
    </dict>
  </lib>
</glyph>
