<?xml version="1.0" encoding="UTF-8"?>
<glyph name="Oslash" format="1">
  <advance width="718"/>
  <unicode hex="00D8"/>
  <outline>
    <contour>
      <point x="381" y="660" type="line" smooth="yes"/>
      <point x="306" y="660"/>
      <point x="250" y="644"/>
      <point x="194" y="607" type="curve" smooth="yes"/>
      <point x="112" y="551"/>
      <point x="50" y="449"/>
      <point x="50" y="317" type="curve" smooth="yes"/>
      <point x="50" y="231"/>
      <point x="75" y="145"/>
      <point x="129" y="85" type="curve"/>
      <point x="104" y="57"/>
      <point x="78" y="28"/>
      <point x="52" y="-3" type="curve"/>
      <point x="63" y="-13"/>
      <point x="76" y="-24"/>
      <point x="89" y="-34" type="curve"/>
      <point x="113" y="-7"/>
      <point x="139" y="23"/>
      <point x="164" y="51" type="curve"/>
      <point x="209" y="14"/>
      <point x="270" y="-10"/>
      <point x="347" y="-10" type="curve" smooth="yes"/>
      <point x="446" y="-10"/>
      <point x="512" y="19"/>
      <point x="568" y="75" type="curve" smooth="yes"/>
      <point x="630" y="139"/>
      <point x="668" y="235"/>
      <point x="668" y="344" type="curve" smooth="yes"/>
      <point x="668" y="428"/>
      <point x="638" y="512"/>
      <point x="597" y="560" type="curve"/>
      <point x="621" y="587"/>
      <point x="644" y="614"/>
      <point x="667" y="640" type="curve"/>
      <point x="655" y="652"/>
      <point x="641" y="664"/>
      <point x="625" y="675" type="curve"/>
      <point x="603" y="650"/>
      <point x="581" y="624"/>
      <point x="559" y="598" type="curve"/>
      <point x="518" y="632"/>
      <point x="462" y="660"/>
      <point x="382" y="660" type="curve" smooth="yes"/>
    </contour>
    <contour>
      <point x="364" y="610" type="line" smooth="yes"/>
      <point x="429" y="610"/>
      <point x="479" y="589"/>
      <point x="516" y="545" type="curve"/>
      <point x="457" y="474"/>
      <point x="397" y="403"/>
      <point x="346" y="340" type="curve" smooth="yes"/>
      <point x="292" y="276"/>
      <point x="237" y="210"/>
      <point x="179" y="139" type="curve"/>
      <point x="145" y="187"/>
      <point x="133" y="249"/>
      <point x="133" y="324" type="curve" smooth="yes"/>
      <point x="133" y="443"/>
      <point x="179" y="514"/>
      <point x="217" y="552" type="curve" smooth="yes"/>
      <point x="255" y="591"/>
      <point x="310" y="610"/>
      <point x="363" y="610" type="curve" smooth="yes"/>
    </contour>
    <contour>
      <point x="360" y="40" type="line" smooth="yes"/>
      <point x="299" y="40"/>
      <point x="246" y="62"/>
      <point x="208" y="102" type="curve"/>
      <point x="267" y="173"/>
      <point x="327" y="244"/>
      <point x="375" y="301" type="curve" smooth="yes"/>
      <point x="424" y="359"/>
      <point x="482" y="429"/>
      <point x="544" y="502" type="curve"/>
      <point x="574" y="454"/>
      <point x="584" y="392"/>
      <point x="584" y="332" type="curve" smooth="yes"/>
      <point x="584" y="220"/>
      <point x="555" y="154"/>
      <point x="512" y="103" type="curve" smooth="yes"/>
      <point x="477" y="62"/>
      <point x="420" y="40"/>
      <point x="361" y="40" type="curve" smooth="yes"/>
    </contour>
  </outline>
  <lib>
    <dict>
      <key>com.typemytype.robofont.layerData</key>
      <dict>
      </dict>
    </dict>
  </lib>
</glyph>
