<?xml version="1.0" encoding="UTF-8"?>
<glyph name="periodinferior" format="1">
  <advance width="229"/>
  <unicode hex="F6E7"/>
  <outline>
    <contour>
      <point x="114" y="-29" type="line" smooth="yes"/>
      <point x="85" y="-29"/>
      <point x="70" y="-53"/>
      <point x="70" y="-74" type="curve" smooth="yes"/>
      <point x="70" y="-99"/>
      <point x="88" y="-117"/>
      <point x="114" y="-117" type="curve" smooth="yes"/>
      <point x="141" y="-117"/>
      <point x="157" y="-96"/>
      <point x="157" y="-73" type="curve" smooth="yes"/>
      <point x="157" y="-55"/>
      <point x="146" y="-29"/>
      <point x="115" y="-29" type="curve" smooth="yes"/>
    </contour>
  </outline>
  <lib>
    <dict>
      <key>com.typemytype.robofont.layerData</key>
      <dict>
      </dict>
    </dict>
  </lib>
</glyph>
