<?xml version="1.0" encoding="UTF-8"?>
<glyph name="Tcommaaccent" format="1">
  <advance width="567"/>
  <unicode hex="0162"/>
  <outline>
    <contour>
      <point x="161" y="47" type="line"/>
      <point x="160" y="32"/>
      <point x="160" y="15"/>
      <point x="160" y="0" type="curve"/>
      <point x="202" y="0"/>
      <point x="248" y="1"/>
      <point x="289" y="1" type="curve" smooth="yes"/>
      <point x="330" y="1"/>
      <point x="379" y="0"/>
      <point x="415" y="0" type="curve"/>
      <point x="415" y="15"/>
      <point x="416" y="32"/>
      <point x="416" y="47" type="curve"/>
      <point x="324" y="50" type="line"/>
      <point x="326" y="600" type="line"/>
      <point x="413" y="600"/>
      <point x="431" y="599"/>
      <point x="457" y="597" type="curve" smooth="yes"/>
      <point x="476" y="595"/>
      <point x="480" y="589"/>
      <point x="482" y="578" type="curve" smooth="yes"/>
      <point x="497" y="481" type="line"/>
      <point x="517" y="483"/>
      <point x="537" y="485"/>
      <point x="553" y="487" type="curve"/>
      <point x="551" y="541"/>
      <point x="549" y="597"/>
      <point x="545" y="651" type="curve"/>
      <point x="524" y="650"/>
      <point x="500" y="650"/>
      <point x="459" y="650" type="curve" smooth="yes"/>
      <point x="435" y="649"/>
      <point x="321" y="649"/>
      <point x="291" y="649" type="curve" smooth="yes"/>
      <point x="121" y="649" type="line" smooth="yes"/>
      <point x="80" y="649"/>
      <point x="48" y="650"/>
      <point x="29" y="650" type="curve"/>
      <point x="25" y="596"/>
      <point x="23" y="540"/>
      <point x="19" y="486" type="curve"/>
      <point x="37" y="484"/>
      <point x="57" y="482"/>
      <point x="75" y="481" type="curve"/>
      <point x="91" y="578" type="line" smooth="yes"/>
      <point x="93" y="589"/>
      <point x="97" y="595"/>
      <point x="116" y="597" type="curve" smooth="yes"/>
      <point x="138" y="599"/>
      <point x="160" y="600"/>
      <point x="246" y="600" type="curve"/>
      <point x="246" y="54" type="line" smooth="yes"/>
      <point x="246" y="52"/>
      <point x="245" y="50"/>
      <point x="242" y="50" type="curve" smooth="yes"/>
    </contour>
    <contour>
      <point x="281" y="-47" type="line" smooth="yes"/>
      <point x="257" y="-47"/>
      <point x="235" y="-75"/>
      <point x="240" y="-111" type="curve"/>
      <point x="258" y="-116"/>
      <point x="281" y="-126"/>
      <point x="281" y="-152" type="curve" smooth="yes"/>
      <point x="281" y="-179"/>
      <point x="266" y="-207"/>
      <point x="226" y="-233" type="curve"/>
      <point x="233" y="-243"/>
      <point x="241" y="-254"/>
      <point x="249" y="-263" type="curve"/>
      <point x="299" y="-234"/>
      <point x="341" y="-185"/>
      <point x="341" y="-120" type="curve" smooth="yes"/>
      <point x="341" y="-81"/>
      <point x="312" y="-47"/>
      <point x="282" y="-47" type="curve" smooth="yes"/>
    </contour>
  </outline>
  <lib>
    <dict>
      <key>com.typemytype.robofont.layerData</key>
      <dict>
      </dict>
    </dict>
  </lib>
</glyph>
