<?xml version="1.0" encoding="UTF-8"?>
<glyph name="uniF67F" format="1">
  <advance width="570"/>
  <unicode hex="F67F"/>
  <outline>
    <contour>
      <point x="529" y="179" type="line"/>
      <point x="530" y="194"/>
      <point x="530" y="210"/>
      <point x="530" y="224" type="curve"/>
      <point x="444" y="224" type="line"/>
      <point x="295" y="224" type="line"/>
      <point x="294" y="210"/>
      <point x="294" y="195"/>
      <point x="294" y="179" type="curve"/>
      <point x="405" y="177" type="line"/>
      <point x="405" y="53" type="line" smooth="yes"/>
      <point x="405" y="45"/>
      <point x="372" y="37"/>
      <point x="335" y="37" type="curve" smooth="yes"/>
      <point x="292" y="37"/>
      <point x="230" y="46"/>
      <point x="185" y="90" type="curve" smooth="yes"/>
      <point x="145" y="131"/>
      <point x="130" y="183"/>
      <point x="130" y="244" type="curve" smooth="yes"/>
      <point x="130" y="309"/>
      <point x="154" y="369"/>
      <point x="199" y="410" type="curve" smooth="yes"/>
      <point x="238" y="445"/>
      <point x="288" y="456"/>
      <point x="330" y="456" type="curve" smooth="yes"/>
      <point x="363" y="456"/>
      <point x="389" y="451"/>
      <point x="409" y="438" type="curve"/>
      <point x="413" y="435"/>
      <point x="414" y="430"/>
      <point x="415" y="425" type="curve" smooth="yes"/>
      <point x="427" y="345" type="line"/>
      <point x="447" y="346"/>
      <point x="465" y="348"/>
      <point x="482" y="349" type="curve"/>
      <point x="481" y="396"/>
      <point x="479" y="441"/>
      <point x="476" y="484" type="curve"/>
      <point x="447" y="497"/>
      <point x="405" y="506"/>
      <point x="347" y="506" type="curve" smooth="yes"/>
      <point x="293" y="506"/>
      <point x="220" y="494"/>
      <point x="164" y="457" type="curve" smooth="yes"/>
      <point x="93" y="409"/>
      <point x="46" y="331"/>
      <point x="46" y="235" type="curve" smooth="yes"/>
      <point x="46" y="148"/>
      <point x="79" y="87"/>
      <point x="135" y="43" type="curve" smooth="yes"/>
      <point x="179" y="8"/>
      <point x="247" y="-10"/>
      <point x="329" y="-10" type="curve" smooth="yes"/>
      <point x="399" y="-10"/>
      <point x="451" y="1"/>
      <point x="480" y="16" type="curve"/>
      <point x="482" y="174" type="line" smooth="yes"/>
      <point x="482" y="176"/>
      <point x="483" y="177"/>
      <point x="485" y="177" type="curve" smooth="yes"/>
    </contour>
    <contour>
      <point x="310" y="-53" type="line" smooth="yes"/>
      <point x="286" y="-53"/>
      <point x="264" y="-81"/>
      <point x="269" y="-117" type="curve"/>
      <point x="287" y="-122"/>
      <point x="310" y="-132"/>
      <point x="310" y="-158" type="curve" smooth="yes"/>
      <point x="310" y="-185"/>
      <point x="295" y="-213"/>
      <point x="255" y="-239" type="curve"/>
      <point x="262" y="-249"/>
      <point x="270" y="-260"/>
      <point x="278" y="-269" type="curve"/>
      <point x="328" y="-240"/>
      <point x="370" y="-191"/>
      <point x="370" y="-126" type="curve" smooth="yes"/>
      <point x="370" y="-87"/>
      <point x="341" y="-53"/>
      <point x="311" y="-53" type="curve" smooth="yes"/>
    </contour>
  </outline>
  <lib>
    <dict>
      <key>com.typemytype.robofont.layerData</key>
      <dict>
      </dict>
    </dict>
  </lib>
</glyph>
