<?xml version="1.0" encoding="UTF-8"?>
<glyph name="uniF650" format="1">
  <advance width="528"/>
  <unicode hex="F650"/>
  <outline>
    <contour>
      <point x="195" y="494" type="curve"/>
      <point x="188" y="446"/>
      <point x="180" y="398"/>
      <point x="171" y="350" type="curve"/>
      <point x="133" y="350"/>
      <point x="94" y="350"/>
      <point x="54" y="349" type="curve"/>
      <point x="53" y="336"/>
      <point x="52" y="319"/>
      <point x="52" y="304" type="curve"/>
      <point x="83" y="304"/>
      <point x="123" y="304"/>
      <point x="163" y="304" type="curve"/>
      <point x="156" y="258"/>
      <point x="149" y="212"/>
      <point x="141" y="166" type="curve"/>
      <point x="106" y="166"/>
      <point x="69" y="166"/>
      <point x="31" y="166" type="curve"/>
      <point x="30" y="153"/>
      <point x="29" y="134"/>
      <point x="29" y="118" type="curve"/>
      <point x="59" y="118"/>
      <point x="99" y="119"/>
      <point x="132" y="119" type="curve"/>
      <point x="124" y="64"/>
      <point x="115" y="9"/>
      <point x="106" y="-45" type="curve"/>
      <point x="123" y="-46"/>
      <point x="140" y="-45"/>
      <point x="155" y="-44" type="curve"/>
      <point x="165" y="10"/>
      <point x="174" y="65"/>
      <point x="183" y="119" type="curve"/>
      <point x="222" y="119"/>
      <point x="261" y="119"/>
      <point x="299" y="119" type="curve"/>
      <point x="290" y="65"/>
      <point x="281" y="9"/>
      <point x="272" y="-45" type="curve"/>
      <point x="288" y="-46"/>
      <point x="305" y="-45"/>
      <point x="321" y="-44" type="curve"/>
      <point x="331" y="10"/>
      <point x="340" y="65"/>
      <point x="350" y="119" type="curve"/>
      <point x="391" y="119"/>
      <point x="433" y="120"/>
      <point x="466" y="120" type="curve"/>
      <point x="468" y="135"/>
      <point x="469" y="151"/>
      <point x="469" y="166" type="curve"/>
      <point x="435" y="166"/>
      <point x="396" y="166"/>
      <point x="358" y="166" type="curve"/>
      <point x="366" y="213"/>
      <point x="373" y="258"/>
      <point x="381" y="304" type="curve"/>
      <point x="420" y="304"/>
      <point x="458" y="304"/>
      <point x="490" y="304" type="curve"/>
      <point x="492" y="318"/>
      <point x="493" y="336"/>
      <point x="493" y="351" type="curve"/>
      <point x="462" y="351"/>
      <point x="426" y="351"/>
      <point x="391" y="351" type="curve"/>
      <point x="399" y="400"/>
      <point x="408" y="448"/>
      <point x="416" y="496" type="curve"/>
      <point x="399" y="496"/>
      <point x="380" y="496"/>
      <point x="362" y="495" type="curve"/>
      <point x="355" y="447"/>
      <point x="347" y="399"/>
      <point x="338" y="350" type="curve"/>
      <point x="300" y="350"/>
      <point x="263" y="350"/>
      <point x="223" y="350" type="curve"/>
      <point x="232" y="399"/>
      <point x="241" y="448"/>
      <point x="249" y="496" type="curve"/>
      <point x="235" y="496"/>
      <point x="214" y="496"/>
    </contour>
    <contour>
      <point x="214" y="304" type="curve"/>
      <point x="253" y="304"/>
      <point x="291" y="304"/>
      <point x="329" y="304" type="curve"/>
      <point x="323" y="259"/>
      <point x="315" y="212"/>
      <point x="308" y="166" type="curve"/>
      <point x="270" y="166"/>
      <point x="230" y="166"/>
      <point x="192" y="166" type="curve"/>
      <point x="198" y="204"/>
      <point x="208" y="261"/>
    </contour>
  </outline>
  <lib>
    <dict>
      <key>com.typemytype.robofont.layerData</key>
      <dict>
      </dict>
    </dict>
  </lib>
</glyph>
