<?xml version="1.0" encoding="UTF-8"?>
<glyph name="uniF67A" format="1">
  <advance width="489"/>
  <unicode hex="F67A"/>
  <outline>
    <contour>
      <point x="47" y="44" type="line"/>
      <point x="46" y="28"/>
      <point x="46" y="14"/>
      <point x="46" y="0" type="curve"/>
      <point x="154" y="0" type="line"/>
      <point x="419" y="0" type="line"/>
      <point x="430" y="40"/>
      <point x="439" y="82"/>
      <point x="447" y="125" type="curve"/>
      <point x="433" y="128"/>
      <point x="415" y="131"/>
      <point x="397" y="134" type="curve"/>
      <point x="372" y="67" type="line"/>
      <point x="368" y="58"/>
      <point x="364" y="53"/>
      <point x="357" y="52" type="curve"/>
      <point x="343" y="49"/>
      <point x="294" y="46"/>
      <point x="229" y="46" type="curve" smooth="yes"/>
      <point x="186" y="46"/>
      <point x="184" y="49"/>
      <point x="184" y="62" type="curve" smooth="yes"/>
      <point x="185" y="232" type="line"/>
      <point x="234" y="232"/>
      <point x="275" y="232"/>
      <point x="312" y="231" type="curve" smooth="yes"/>
      <point x="327" y="231"/>
      <point x="331" y="228"/>
      <point x="333" y="214" type="curve"/>
      <point x="335" y="177" type="line"/>
      <point x="353" y="177"/>
      <point x="370" y="178"/>
      <point x="386" y="179" type="curve"/>
      <point x="386" y="252" type="line" smooth="yes"/>
      <point x="387" y="277"/>
      <point x="387" y="304"/>
      <point x="387" y="330" type="curve"/>
      <point x="337" y="330" type="line"/>
      <point x="334" y="294" type="line" smooth="yes"/>
      <point x="333" y="284"/>
      <point x="328" y="279"/>
      <point x="314" y="279" type="curve" smooth="yes"/>
      <point x="271" y="278"/>
      <point x="232" y="278"/>
      <point x="185" y="277" type="curve"/>
      <point x="186" y="449" type="line"/>
      <point x="209" y="449" type="line" smooth="yes"/>
      <point x="262" y="449"/>
      <point x="318" y="447"/>
      <point x="338" y="446" type="curve"/>
      <point x="352" y="444"/>
      <point x="356" y="440"/>
      <point x="358" y="432" type="curve" smooth="yes"/>
      <point x="371" y="368" type="line"/>
      <point x="390" y="370"/>
      <point x="407" y="372"/>
      <point x="422" y="374" type="curve"/>
      <point x="421" y="416"/>
      <point x="419" y="457"/>
      <point x="416" y="496" type="curve"/>
      <point x="336" y="496" type="line"/>
      <point x="152" y="496" type="line"/>
      <point x="47" y="496" type="line"/>
      <point x="47" y="451" type="line"/>
      <point x="108" y="449" type="line"/>
      <point x="108" y="49" type="line" smooth="yes"/>
      <point x="108" y="47"/>
      <point x="107" y="46"/>
      <point x="105" y="46" type="curve" smooth="yes"/>
    </contour>
    <contour>
      <point x="350" y="640" type="curve"/>
      <point x="282" y="640"/>
      <point x="216" y="639"/>
      <point x="149" y="638" type="curve"/>
      <point x="148" y="623"/>
      <point x="148" y="607"/>
      <point x="149" y="593" type="curve"/>
      <point x="213" y="593"/>
      <point x="291" y="592"/>
      <point x="350" y="592" type="curve"/>
      <point x="350" y="608"/>
      <point x="351" y="625"/>
    </contour>
  </outline>
  <lib>
    <dict>
      <key>com.typemytype.robofont.layerData</key>
      <dict>
      </dict>
    </dict>
  </lib>
</glyph>
