<?xml version="1.0" encoding="UTF-8"?>
<glyph name="uniF693" format="1">
  <advance width="608"/>
  <unicode hex="F693"/>
  <outline>
    <contour>
      <point x="293" y="-10" type="line" smooth="yes"/>
      <point x="375" y="-10"/>
      <point x="434" y="13"/>
      <point x="478" y="52" type="curve" smooth="yes"/>
      <point x="536" y="105"/>
      <point x="564" y="183"/>
      <point x="564" y="261" type="curve" smooth="yes"/>
      <point x="564" y="348"/>
      <point x="523" y="425"/>
      <point x="466" y="464" type="curve" smooth="yes"/>
      <point x="422" y="494"/>
      <point x="373" y="506"/>
      <point x="317" y="506" type="curve" smooth="yes"/>
      <point x="259" y="506"/>
      <point x="206" y="495"/>
      <point x="157" y="462" type="curve" smooth="yes"/>
      <point x="96" y="422"/>
      <point x="45" y="341"/>
      <point x="45" y="240" type="curve" smooth="yes"/>
      <point x="45" y="161"/>
      <point x="74" y="95"/>
      <point x="117" y="54" type="curve" smooth="yes"/>
      <point x="159" y="14"/>
      <point x="216" y="-10"/>
      <point x="292" y="-10" type="curve" smooth="yes"/>
    </contour>
    <contour>
      <point x="302" y="36" type="line" smooth="yes"/>
      <point x="261" y="36"/>
      <point x="220" y="50"/>
      <point x="187" y="83" type="curve" smooth="yes"/>
      <point x="144" y="125"/>
      <point x="129" y="184"/>
      <point x="129" y="246" type="curve" smooth="yes"/>
      <point x="129" y="326"/>
      <point x="160" y="387"/>
      <point x="197" y="419" type="curve" smooth="yes"/>
      <point x="228" y="445"/>
      <point x="263" y="460"/>
      <point x="306" y="460" type="curve" smooth="yes"/>
      <point x="352" y="460"/>
      <point x="391" y="446"/>
      <point x="423" y="411" type="curve" smooth="yes"/>
      <point x="461" y="371"/>
      <point x="480" y="314"/>
      <point x="480" y="250" type="curve" smooth="yes"/>
      <point x="480" y="173"/>
      <point x="452" y="118"/>
      <point x="422" y="85" type="curve" smooth="yes"/>
      <point x="392" y="53"/>
      <point x="347" y="36"/>
      <point x="303" y="36" type="curve" smooth="yes"/>
    </contour>
    <contour>
      <point x="404" y="639" type="curve"/>
      <point x="336" y="639"/>
      <point x="270" y="638"/>
      <point x="203" y="637" type="curve"/>
      <point x="202" y="622"/>
      <point x="202" y="606"/>
      <point x="203" y="592" type="curve"/>
      <point x="267" y="592"/>
      <point x="345" y="591"/>
      <point x="404" y="591" type="curve"/>
      <point x="404" y="607"/>
      <point x="405" y="624"/>
    </contour>
  </outline>
  <lib>
    <dict>
      <key>com.typemytype.robofont.layerData</key>
      <dict>
      </dict>
    </dict>
  </lib>
</glyph>
