<?xml version="1.0" encoding="UTF-8"?>
<glyph name="W" format="1">
  <advance width="880"/>
  <unicode hex="0057"/>
  <outline>
    <contour>
      <point x="885" y="604" type="line"/>
      <point x="886" y="619"/>
      <point x="886" y="636"/>
      <point x="886" y="651" type="curve"/>
      <point x="858" y="650"/>
      <point x="824" y="650"/>
      <point x="794" y="650" type="curve" smooth="yes"/>
      <point x="753" y="650"/>
      <point x="704" y="649"/>
      <point x="665" y="649" type="curve"/>
      <point x="664" y="635"/>
      <point x="664" y="618"/>
      <point x="664" y="603" type="curve"/>
      <point x="751" y="601" type="line" smooth="yes"/>
      <point x="754" y="601"/>
      <point x="755" y="599"/>
      <point x="755" y="596" type="curve"/>
      <point x="745" y="538"/>
      <point x="718" y="423"/>
      <point x="703" y="358" type="curve" smooth="yes"/>
      <point x="684" y="279"/>
      <point x="662" y="188"/>
      <point x="640" y="99" type="curve"/>
      <point x="634" y="99" type="line"/>
      <point x="584" y="268"/>
      <point x="531" y="467"/>
      <point x="485" y="623" type="curve"/>
      <point x="473" y="623"/>
      <point x="439" y="623"/>
      <point x="431" y="622" type="curve"/>
      <point x="383" y="481"/>
      <point x="308" y="248"/>
      <point x="259" y="103" type="curve"/>
      <point x="253" y="103" type="line"/>
      <point x="232" y="206"/>
      <point x="216" y="288"/>
      <point x="199" y="376" type="curve" smooth="yes"/>
      <point x="181" y="462"/>
      <point x="165" y="555"/>
      <point x="158" y="601" type="curve"/>
      <point x="254" y="604" type="line"/>
      <point x="255" y="619"/>
      <point x="255" y="635"/>
      <point x="255" y="650" type="curve"/>
      <point x="209" y="650"/>
      <point x="160" y="650"/>
      <point x="108" y="650" type="curve" smooth="yes"/>
      <point x="75" y="650"/>
      <point x="38" y="650"/>
      <point x="8" y="650" type="curve"/>
      <point x="7" y="635"/>
      <point x="7" y="619"/>
      <point x="7" y="604" type="curve"/>
      <point x="65" y="601" type="line"/>
      <point x="68" y="601"/>
      <point x="70" y="600"/>
      <point x="70" y="598" type="curve"/>
      <point x="89" y="514"/>
      <point x="107" y="428"/>
      <point x="126" y="345" type="curve" smooth="yes"/>
      <point x="153" y="228"/>
      <point x="181" y="108"/>
      <point x="213" y="-11" type="curve"/>
      <point x="233" y="-11"/>
      <point x="258" y="-11"/>
      <point x="269" y="-10" type="curve"/>
      <point x="323" y="133"/>
      <point x="387" y="310"/>
      <point x="444" y="483" type="curve"/>
      <point x="450" y="483" type="line"/>
      <point x="496" y="316"/>
      <point x="550" y="137"/>
      <point x="599" y="-11" type="curve"/>
      <point x="623" y="-11"/>
      <point x="646" y="-11"/>
      <point x="657" y="-10" type="curve"/>
      <point x="692" y="98"/>
      <point x="728" y="225"/>
      <point x="756" y="330" type="curve" smooth="yes"/>
      <point x="780" y="419"/>
      <point x="804" y="504"/>
      <point x="830" y="601" type="curve"/>
    </contour>
  </outline>
  <lib>
    <dict>
      <key>com.typemytype.robofont.layerData</key>
      <dict>
      </dict>
    </dict>
  </lib>
</glyph>
