<?xml version="1.0" encoding="UTF-8"?>
<glyph name="Acircumflex" format="1">
  <advance width="600"/>
  <unicode hex="00C2"/>
  <outline>
    <contour>
      <point x="468" y="188" type="line"/>
      <point x="203" y="188" type="line"/>
      <point x="117" y="41" type="line"/>
      <point x="196" y="41" type="line" smooth="yes"/>
      <point x="213" y="41"/>
      <point x="219" y="37"/>
      <point x="219" y="25" type="curve" smooth="yes"/>
      <point x="219" y="10"/>
      <point x="206" y="0"/>
      <point x="187" y="0" type="curve" smooth="yes"/>
      <point x="36" y="0" type="line" smooth="yes"/>
      <point x="20" y="0"/>
      <point x="13" y="5"/>
      <point x="13" y="17" type="curve" smooth="yes"/>
      <point x="13" y="32"/>
      <point x="25" y="41"/>
      <point x="45" y="41" type="curve" smooth="yes"/>
      <point x="76" y="41" type="line"/>
      <point x="357" y="522" type="line"/>
      <point x="237" y="522" type="line" smooth="yes"/>
      <point x="221" y="522"/>
      <point x="214" y="527"/>
      <point x="214" y="538" type="curve" smooth="yes"/>
      <point x="214" y="554"/>
      <point x="226" y="563"/>
      <point x="246" y="563" type="curve" smooth="yes"/>
      <point x="449" y="563" type="line"/>
      <point x="536" y="41" type="line"/>
      <point x="573" y="41" type="line" smooth="yes"/>
      <point x="590" y="41"/>
      <point x="596" y="37"/>
      <point x="596" y="25" type="curve" smooth="yes"/>
      <point x="596" y="10"/>
      <point x="584" y="0"/>
      <point x="564" y="0" type="curve" smooth="yes"/>
      <point x="408" y="0" type="line" smooth="yes"/>
      <point x="392" y="0"/>
      <point x="385" y="5"/>
      <point x="385" y="16" type="curve" smooth="yes"/>
      <point x="385" y="32"/>
      <point x="397" y="41"/>
      <point x="417" y="41" type="curve" smooth="yes"/>
      <point x="493" y="41" type="line"/>
    </contour>
    <contour>
      <point x="462" y="229" type="line"/>
      <point x="412" y="522" type="line"/>
      <point x="397" y="522" type="line"/>
      <point x="227" y="229" type="line"/>
    </contour>
    <contour>
      <point x="439" y="789" type="line"/>
      <point x="549" y="680" type="line" smooth="yes"/>
      <point x="558" y="672"/>
      <point x="559" y="670"/>
      <point x="559" y="664" type="curve" smooth="yes"/>
      <point x="559" y="652"/>
      <point x="546" y="640"/>
      <point x="532" y="640" type="curve" smooth="yes"/>
      <point x="528" y="640"/>
      <point x="524" y="642"/>
      <point x="518" y="648" type="curve" smooth="yes"/>
      <point x="429" y="739" type="line"/>
      <point x="304" y="648" type="line" smooth="yes"/>
      <point x="300" y="645"/>
      <point x="288" y="640"/>
      <point x="285" y="640" type="curve" smooth="yes"/>
      <point x="276" y="640"/>
      <point x="268" y="647"/>
      <point x="268" y="656" type="curve" smooth="yes"/>
      <point x="268" y="664"/>
      <point x="274" y="674"/>
      <point x="283" y="678" type="curve" smooth="yes"/>
      <point x="287" y="680" type="line"/>
    </contour>
  </outline>
  <lib>
    <dict>
      <key>com.fontlab.hintData</key>
      <dict>
	<key>hhints</key>
	<array>
	  <dict>
	    <key>position</key>	    <integer>0</integer>
	    <key>width</key>	    <integer>41</integer>
	  </dict>
	  <dict>
	    <key>position</key>	    <integer>188</integer>
	    <key>width</key>	    <integer>41</integer>
	  </dict>
	  <dict>
	    <key>position</key>	    <integer>522</integer>
	    <key>width</key>	    <integer>41</integer>
	  </dict>
	</array>
	<key>vhints</key>
	<array>
	  <dict>
	    <key>position</key>
	    <integer>13</integer>
	    <key>width</key>
	    <integer>206</integer>
	  </dict>
	  <dict>
	    <key>position</key>
	    <integer>385</integer>
	    <key>width</key>
	    <integer>211</integer>
	  </dict>
	</array>
      </dict>
    </dict>
  </lib>
</glyph>
