<?xml version="1.0" encoding="UTF-8"?>
<glyph name="Ebreve" format="1">
  <advance width="600"/>
  <unicode hex="0114"/>
  <outline>
    <contour>
      <point x="330" y="724" type="curve"/>
      <point x="328" y="695" type="line" smooth="yes"/>
      <point x="328" y="690"/>
      <point x="345" y="671"/>
      <point x="351" y="665" type="curve" smooth="yes"/>
      <point x="366" y="653"/>
      <point x="394" y="644"/>
      <point x="420" y="644" type="curve" smooth="yes"/>
      <point x="473" y="644"/>
      <point x="525" y="673"/>
      <point x="538" y="712" type="curve" smooth="yes"/>
      <point x="542" y="727"/>
      <point x="551" y="735"/>
      <point x="563" y="735" type="curve" smooth="yes"/>
      <point x="572" y="735"/>
      <point x="580" y="726"/>
      <point x="580" y="720" type="curve" smooth="yes"/>
      <point x="580" y="703"/>
      <point x="558" y="666"/>
      <point x="538" y="648" type="curve" smooth="yes"/>
      <point x="506" y="620"/>
      <point x="457" y="603"/>
      <point x="410" y="603" type="curve" smooth="yes"/>
      <point x="339" y="603"/>
      <point x="286" y="642"/>
      <point x="286" y="698" type="curve" smooth="yes"/>
      <point x="286" y="718"/>
      <point x="298" y="735"/>
      <point x="313" y="735" type="curve" smooth="yes"/>
      <point x="319" y="735"/>
      <point x="323" y="733"/>
    </contour>
    <contour>
      <point x="223" y="272" type="line"/>
      <point x="174" y="41" type="line"/>
      <point x="488" y="41" type="line"/>
      <point x="513" y="160" type="line" smooth="yes"/>
      <point x="517" y="178"/>
      <point x="525" y="187"/>
      <point x="540" y="187" type="curve" smooth="yes"/>
      <point x="549" y="187"/>
      <point x="556" y="180"/>
      <point x="556" y="172" type="curve" smooth="yes"/>
      <point x="556" y="169"/>
      <point x="555" y="165"/>
      <point x="553" y="160" type="curve" smooth="yes"/>
      <point x="519" y="0" type="line"/>
      <point x="70" y="0" type="line" smooth="yes"/>
      <point x="53" y="0"/>
      <point x="47" y="5"/>
      <point x="47" y="17" type="curve" smooth="yes"/>
      <point x="47" y="32"/>
      <point x="59" y="41"/>
      <point x="79" y="41" type="curve" smooth="yes"/>
      <point x="133" y="41" type="line"/>
      <point x="235" y="522" type="line"/>
      <point x="181" y="522" type="line" smooth="yes"/>
      <point x="165" y="522"/>
      <point x="158" y="527"/>
      <point x="158" y="539" type="curve" smooth="yes"/>
      <point x="158" y="553"/>
      <point x="170" y="563"/>
      <point x="191" y="563" type="curve" smooth="yes"/>
      <point x="619" y="563" type="line"/>
      <point x="589" y="424" type="line" smooth="yes"/>
      <point x="586" y="407"/>
      <point x="576" y="397"/>
      <point x="563" y="397" type="curve" smooth="yes"/>
      <point x="553" y="397"/>
      <point x="547" y="404"/>
      <point x="547" y="411" type="curve"/>
      <point x="549" y="424" type="line"/>
      <point x="569" y="522" type="line"/>
      <point x="275" y="522" type="line"/>
      <point x="232" y="313" type="line"/>
      <point x="377" y="313" type="line"/>
      <point x="386" y="358" type="line" smooth="yes"/>
      <point x="390" y="376"/>
      <point x="399" y="385"/>
      <point x="411" y="385" type="curve" smooth="yes"/>
      <point x="422" y="385"/>
      <point x="428" y="377"/>
      <point x="428" y="370" type="curve" smooth="yes"/>
      <point x="428" y="368"/>
      <point x="428" y="362"/>
      <point x="427" y="358" type="curve" smooth="yes"/>
      <point x="399" y="227" type="line" smooth="yes"/>
      <point x="396" y="209"/>
      <point x="387" y="200"/>
      <point x="373" y="200" type="curve" smooth="yes"/>
      <point x="364" y="200"/>
      <point x="357" y="208"/>
      <point x="357" y="215" type="curve" smooth="yes"/>
      <point x="358" y="227" type="line"/>
      <point x="368" y="272" type="line"/>
    </contour>
  </outline>
  <lib>
    <dict>
      <key>com.fontlab.hintData</key>
      <dict>
	<key>hhints</key>
	<array>
	  <dict>
	    <key>position</key>	    <integer>0</integer>
	    <key>width</key>	    <integer>41</integer>
	  </dict>
	  <dict>
	    <key>position</key>	    <integer>272</integer>
	    <key>width</key>	    <integer>41</integer>
	  </dict>
	  <dict>
	    <key>position</key>	    <integer>522</integer>
	    <key>width</key>	    <integer>41</integer>
	  </dict>
	  <dict>
	    <key>position</key>	    <integer>603</integer>
	    <key>width</key>	    <integer>41</integer>
	  </dict>
	</array>
      </dict>
    </dict>
  </lib>
</glyph>
