<?xml version="1.0" encoding="UTF-8"?>
<glyph name="uni04EE" format="1">
  <advance width="600"/>
  <unicode hex="04EE"/>
  <outline>
    <contour>
      <point x="464" y="603" type="curve" smooth="yes"/>
      <point x="228" y="603" type="line" smooth="yes"/>
      <point x="212" y="603"/>
      <point x="205" y="608"/>
      <point x="205" y="619" type="curve" smooth="yes"/>
      <point x="205" y="634"/>
      <point x="217" y="643"/>
      <point x="237" y="643" type="curve" smooth="yes"/>
      <point x="473" y="643" type="line" smooth="yes"/>
      <point x="489" y="643"/>
      <point x="496" y="639"/>
      <point x="496" y="626" type="curve" smooth="yes"/>
      <point x="496" y="612"/>
      <point x="484" y="603"/>
    </contour>
    <contour>
      <point x="161" y="41" type="line"/>
      <point x="178" y="41" type="line" smooth="yes"/>
      <point x="197" y="41"/>
      <point x="204" y="34"/>
      <point x="201" y="21" type="curve" smooth="yes"/>
      <point x="198" y="7"/>
      <point x="188" y="0"/>
      <point x="170" y="0" type="curve" smooth="yes"/>
      <point x="39" y="0" type="line" smooth="yes"/>
      <point x="21" y="0"/>
      <point x="13" y="7"/>
      <point x="16" y="21" type="curve" smooth="yes"/>
      <point x="19" y="34"/>
      <point x="29" y="41"/>
      <point x="47" y="41" type="curve" smooth="yes"/>
      <point x="110" y="41" type="line"/>
      <point x="257" y="227" type="line"/>
      <point x="121" y="522" type="line"/>
      <point x="106" y="522" type="line" smooth="yes"/>
      <point x="89" y="522"/>
      <point x="80" y="529"/>
      <point x="83" y="542" type="curve" smooth="yes"/>
      <point x="86" y="556"/>
      <point x="96" y="563"/>
      <point x="114" y="563" type="curve" smooth="yes"/>
      <point x="225" y="563" type="line" smooth="yes"/>
      <point x="242" y="563"/>
      <point x="250" y="556"/>
      <point x="248" y="542" type="curve"/>
      <point x="244" y="529"/>
      <point x="234" y="522"/>
      <point x="216" y="522" type="curve" smooth="yes"/>
      <point x="174" y="522" type="line"/>
      <point x="288" y="265" type="line"/>
      <point x="487" y="522" type="line"/>
      <point x="442" y="522" type="line" smooth="yes"/>
      <point x="424" y="522"/>
      <point x="416" y="529"/>
      <point x="419" y="542" type="curve" smooth="yes"/>
      <point x="422" y="556"/>
      <point x="432" y="563"/>
      <point x="450" y="563" type="curve" smooth="yes"/>
      <point x="561" y="563" type="line" smooth="yes"/>
      <point x="579" y="563"/>
      <point x="587" y="557"/>
      <point x="584" y="542" type="curve" smooth="yes"/>
      <point x="581" y="529"/>
      <point x="572" y="522"/>
      <point x="553" y="522" type="curve" smooth="yes"/>
      <point x="538" y="522" type="line"/>
    </contour>
  </outline>
  <lib>
    <dict>
      <key>com.fontlab.hintData</key>
      <dict>
	<key>hhints</key>
	<array>
	  <dict>
	    <key>position</key>	    <integer>0</integer>
	    <key>width</key>	    <integer>41</integer>
	  </dict>
	  <dict>
	    <key>position</key>	    <integer>522</integer>
	    <key>width</key>	    <integer>41</integer>
	  </dict>
	  <dict>
	    <key>position</key>	    <integer>603</integer>
	    <key>width</key>	    <integer>40</integer>
	  </dict>
	</array>
      </dict>
    </dict>
  </lib>
</glyph>
