<?xml version="1.0" encoding="UTF-8"?>
<glyph name="afii10018" format="1">
  <advance width="637"/>
  <unicode hex="0411"/>
  <outline>
    <contour>
      <point x="340" y="375" type="line" smooth="yes"/>
      <point x="449" y="375"/>
      <point x="520" y="344"/>
      <point x="551" y="322" type="curve" smooth="yes"/>
      <point x="583" y="298"/>
      <point x="601" y="260"/>
      <point x="601" y="214" type="curve" smooth="yes"/>
      <point x="601" y="131"/>
      <point x="544" y="56"/>
      <point x="454" y="18" type="curve"/>
      <point x="418" y="4"/>
      <point x="380" y="-3"/>
      <point x="332" y="-3" type="curve" smooth="yes"/>
      <point x="329" y="-3"/>
      <point x="329" y="-3"/>
      <point x="276" y="-2" type="curve" smooth="yes"/>
      <point x="245" y="-1"/>
      <point x="245" y="0"/>
      <point x="190" y="0" type="curve" smooth="yes"/>
      <point x="146" y="0" type="line" smooth="yes"/>
      <point x="113" y="0"/>
      <point x="110" y="0"/>
      <point x="8" y="-3" type="curve"/>
      <point x="13" y="29" type="line"/>
      <point x="41" y="32" type="line" smooth="yes"/>
      <point x="72" y="35"/>
      <point x="81" y="47"/>
      <point x="89" y="92" type="curve" smooth="yes"/>
      <point x="176" y="594" type="line" smooth="yes"/>
      <point x="177" y="601"/>
      <point x="178" y="609"/>
      <point x="178" y="615" type="curve" smooth="yes"/>
      <point x="178" y="636"/>
      <point x="167" y="644"/>
      <point x="132" y="646" type="curve" smooth="yes"/>
      <point x="86" y="649" type="line"/>
      <point x="91" y="681" type="line"/>
      <point x="222" y="678"/>
      <point x="222" y="678"/>
      <point x="249" y="678" type="curve" smooth="yes"/>
      <point x="274" y="678"/>
      <point x="271" y="678"/>
      <point x="403" y="681" type="curve"/>
      <point x="577" y="678" type="line"/>
      <point x="587" y="672" type="line"/>
      <point x="575" y="608"/>
      <point x="570" y="580"/>
      <point x="562" y="525" type="curve"/>
      <point x="530" y="525" type="line"/>
      <point x="530" y="578" type="line" smooth="yes"/>
      <point x="530" y="606"/>
      <point x="528" y="616"/>
      <point x="523" y="622" type="curve"/>
      <point x="517" y="627"/>
      <point x="492" y="631"/>
      <point x="454" y="633" type="curve" smooth="yes"/>
      <point x="437" y="634"/>
      <point x="420" y="636"/>
      <point x="404" y="637" type="curve" smooth="yes"/>
      <point x="383" y="639"/>
      <point x="369" y="640"/>
      <point x="362" y="639" type="curve" smooth="yes"/>
      <point x="350" y="638" type="line"/>
      <point x="311" y="635" type="line"/>
      <point x="264" y="375" type="line"/>
    </contour>
    <contour>
      <point x="256" y="332" type="line"/>
      <point x="211" y="51" type="line"/>
      <point x="224" y="49"/>
      <point x="226" y="49"/>
      <point x="236" y="48" type="curve" smooth="yes"/>
      <point x="273" y="42"/>
      <point x="299" y="40"/>
      <point x="323" y="40" type="curve" smooth="yes"/>
      <point x="414" y="40"/>
      <point x="469" y="104"/>
      <point x="469" y="208" type="curve" smooth="yes"/>
      <point x="469" y="249"/>
      <point x="460" y="276"/>
      <point x="439" y="296" type="curve" smooth="yes"/>
      <point x="414" y="321"/>
      <point x="372" y="335"/>
      <point x="322" y="335" type="curve" smooth="yes"/>
      <point x="311" y="335"/>
      <point x="293" y="334"/>
      <point x="275" y="333" type="curve" smooth="yes"/>
    </contour>
  </outline>
  <lib>
    <dict>
      <key>com.fontlab.hintData</key>
      <dict>
	<key>hhints</key>
	<array>
	  <dict>
	    <key>position</key>	    <integer>-3</integer>
	    <key>width</key>	    <integer>32</integer>
	  </dict>
	  <dict>
	    <key>position</key>	    <integer>-3</integer>
	    <key>width</key>	    <integer>43</integer>
	  </dict>
	  <dict>
	    <key>position</key>	    <integer>335</integer>
	    <key>width</key>	    <integer>40</integer>
	  </dict>
	  <dict>
	    <key>position</key>	    <integer>639</integer>
	    <key>width</key>	    <integer>42</integer>
	  </dict>
	  <dict>
	    <key>position</key>	    <integer>649</integer>
	    <key>width</key>	    <integer>32</integer>
	  </dict>
	</array>
	<key>vhints</key>
	<array>
	  <dict>
	    <key>position</key>
	    <integer>469</integer>
	    <key>width</key>
	    <integer>132</integer>
	  </dict>
	  <dict>
	    <key>position</key>
	    <integer>530</integer>
	    <key>width</key>
	    <integer>32</integer>
	  </dict>
	</array>
      </dict>
    </dict>
  </lib>
</glyph>
