<?xml version="1.0" encoding="UTF-8"?>
<glyph name="afii10076" format="1">
  <advance width="556"/>
  <unicode hex="043A"/>
  <outline>
    <contour>
      <point x="229" y="469" type="curve"/>
      <point x="239" y="460" type="line"/>
      <point x="235" y="446"/>
      <point x="233" y="438"/>
      <point x="232" y="432" type="curve" smooth="yes"/>
      <point x="227" y="414"/>
      <point x="223" y="401"/>
      <point x="222" y="395" type="curve" smooth="yes"/>
      <point x="184" y="221" type="line"/>
      <point x="224" y="276"/>
      <point x="273" y="330"/>
      <point x="331" y="385" type="curve" smooth="yes"/>
      <point x="394" y="445"/>
      <point x="438" y="469"/>
      <point x="485" y="469" type="curve" smooth="yes"/>
      <point x="497" y="469"/>
      <point x="513" y="466"/>
      <point x="528" y="460" type="curve"/>
      <point x="508" y="390" type="line"/>
      <point x="486" y="396"/>
      <point x="474" y="398"/>
      <point x="459" y="398" type="curve" smooth="yes"/>
      <point x="407" y="398"/>
      <point x="304" y="314"/>
      <point x="248" y="242" type="curve"/>
      <point x="304" y="242"/>
      <point x="340" y="183"/>
      <point x="366" y="132" type="curve"/>
      <point x="384" y="88"/>
      <point x="420" y="65"/>
      <point x="437" y="65" type="curve" smooth="yes"/>
      <point x="447" y="65"/>
      <point x="460" y="71"/>
      <point x="483" y="85" type="curve" smooth="yes"/>
      <point x="510" y="102" type="line"/>
      <point x="520" y="73" type="line"/>
      <point x="476" y="42" type="line" smooth="yes"/>
      <point x="421" y="3"/>
      <point x="379" y="-17"/>
      <point x="354" y="-17" type="curve" smooth="yes"/>
      <point x="331" y="-17"/>
      <point x="302" y="14"/>
      <point x="288" y="80" type="curve"/>
      <point x="267" y="126"/>
      <point x="244" y="171"/>
      <point x="176" y="172" type="curve"/>
      <point x="149" y="4" type="line"/>
      <point x="120" y="2"/>
      <point x="104" y="-1"/>
      <point x="44" y="-14" type="curve"/>
      <point x="34" y="-5" type="line"/>
      <point x="51" y="38"/>
      <point x="59" y="62"/>
      <point x="90" y="227" type="curve" smooth="yes"/>
      <point x="119" y="381"/>
      <point x="116" y="353"/>
      <point x="108" y="374" type="curve" smooth="yes"/>
      <point x="101" y="392"/>
      <point x="92" y="395"/>
      <point x="69" y="395" type="curve" smooth="yes"/>
      <point x="24" y="395" type="line"/>
      <point x="31" y="423" type="line"/>
      <point x="131" y="438"/>
      <point x="180" y="449"/>
    </contour>
  </outline>
  <lib>
    <dict>
      <key>com.fontlab.hintData</key>
      <dict>
	<key>hhints</key>
	<array>
	  <dict>
	    <key>position</key>	    <integer>-17</integer>
	    <key>width</key>	    <integer>82</integer>
	  </dict>
	  <dict>
	    <key>position</key>	    <integer>172</integer>
	    <key>width</key>	    <integer>70</integer>
	  </dict>
	  <dict>
	    <key>position</key>	    <integer>398</integer>
	    <key>width</key>	    <integer>71</integer>
	  </dict>
	</array>
      </dict>
    </dict>
  </lib>
</glyph>
