<?xml version="1.0" encoding="UTF-8"?>
<glyph name="Igrave" format="1">
  <advance width="389"/>
  <unicode hex="00CC"/>
  <outline>
    <contour>
      <point x="408" y="646" type="line"/>
      <point x="363" y="643" type="line" smooth="yes"/>
      <point x="330" y="641"/>
      <point x="324" y="636"/>
      <point x="317" y="599" type="curve" smooth="yes"/>
      <point x="230" y="100" type="line" smooth="yes"/>
      <point x="228" y="89"/>
      <point x="227" y="77"/>
      <point x="227" y="66" type="curve" smooth="yes"/>
      <point x="227" y="45"/>
      <point x="237" y="36"/>
      <point x="264" y="35" type="curve" smooth="yes"/>
      <point x="323" y="32" type="line"/>
      <point x="319" y="-3" type="line"/>
      <point x="171" y="0"/>
      <point x="171" y="0"/>
      <point x="156" y="0" type="curve" smooth="yes"/>
      <point x="139" y="0"/>
      <point x="139" y="0"/>
      <point x="-1" y="-3" type="curve"/>
      <point x="3" y="32" type="line"/>
      <point x="52" y="35" type="line" smooth="yes"/>
      <point x="85" y="37"/>
      <point x="90" y="47"/>
      <point x="106" y="132" type="curve"/>
      <point x="178" y="541" type="line" smooth="yes"/>
      <point x="184" y="575"/>
      <point x="187" y="599"/>
      <point x="187" y="613" type="curve" smooth="yes"/>
      <point x="187" y="632"/>
      <point x="175" y="641"/>
      <point x="149" y="643" type="curve" smooth="yes"/>
      <point x="97" y="646" type="line"/>
      <point x="101" y="681" type="line"/>
      <point x="231" y="678"/>
      <point x="231" y="678"/>
      <point x="253" y="678" type="curve" smooth="yes"/>
      <point x="275" y="678"/>
      <point x="275" y="678"/>
      <point x="412" y="681" type="curve"/>
    </contour>
    <contour>
      <point x="319" y="730" type="line"/>
      <point x="196" y="812" type="line" smooth="yes"/>
      <point x="161" y="835"/>
      <point x="152" y="847"/>
      <point x="152" y="868" type="curve" smooth="yes"/>
      <point x="152" y="890"/>
      <point x="175" y="911"/>
      <point x="199" y="911" type="curve" smooth="yes"/>
      <point x="218" y="911"/>
      <point x="237" y="898"/>
      <point x="260" y="867" type="curve" smooth="yes"/>
      <point x="364" y="730" type="line"/>
    </contour>
  </outline>
  <lib>
    <dict>
      <key>com.fontlab.hintData</key>
      <dict>
	<key>hhints</key>
	<array>
	  <dict>
	    <key>position</key>	    <integer>-3</integer>
	    <key>width</key>	    <integer>20</integer>
	  </dict>
	  <dict>
	    <key>position</key>	    <integer>661</integer>
	    <key>width</key>	    <integer>20</integer>
	  </dict>
	</array>
      </dict>
    </dict>
  </lib>
</glyph>
