<?xml version="1.0" encoding="UTF-8"?>
<glyph name="uni04F1" format="1">
  <advance width="556"/>
  <unicode hex="04F1"/>
  <outline>
    <contour>
      <point x="429" y="700" type="curve" smooth="yes"/>
      <point x="462" y="700"/>
      <point x="485" y="675"/>
      <point x="485" y="640" type="curve" smooth="yes"/>
      <point x="485" y="599"/>
      <point x="456" y="569"/>
      <point x="416" y="569" type="curve" smooth="yes"/>
      <point x="383" y="569"/>
      <point x="362" y="591"/>
      <point x="362" y="626" type="curve" smooth="yes"/>
      <point x="362" y="667"/>
      <point x="392" y="700"/>
    </contour>
    <contour>
      <point x="216" y="700" type="curve" smooth="yes"/>
      <point x="249" y="700"/>
      <point x="272" y="675"/>
      <point x="272" y="640" type="curve" smooth="yes"/>
      <point x="272" y="599"/>
      <point x="243" y="569"/>
      <point x="203" y="569" type="curve" smooth="yes"/>
      <point x="170" y="569"/>
      <point x="149" y="591"/>
      <point x="149" y="626" type="curve" smooth="yes"/>
      <point x="149" y="667"/>
      <point x="179" y="700"/>
    </contour>
    <contour>
      <point x="27" y="329" type="curve"/>
      <point x="13" y="357" type="line"/>
      <point x="93" y="419" type="line" smooth="yes"/>
      <point x="132" y="449"/>
      <point x="173" y="469"/>
      <point x="196" y="469" type="curve" smooth="yes"/>
      <point x="220" y="469"/>
      <point x="235" y="445"/>
      <point x="235" y="406" type="curve" smooth="yes"/>
      <point x="235" y="382"/>
      <point x="233" y="354"/>
      <point x="230" y="326" type="curve" smooth="yes"/>
      <point x="211" y="163" type="line" smooth="yes"/>
      <point x="208" y="138"/>
      <point x="207" y="123"/>
      <point x="207" y="108" type="curve" smooth="yes"/>
      <point x="207" y="82"/>
      <point x="213" y="67"/>
      <point x="224" y="67" type="curve" smooth="yes"/>
      <point x="254" y="67"/>
      <point x="305" y="123"/>
      <point x="347" y="202" type="curve" smooth="yes"/>
      <point x="388" y="279"/>
      <point x="417" y="378"/>
      <point x="419" y="447" type="curve"/>
      <point x="452" y="446"/>
      <point x="486" y="452"/>
      <point x="529" y="465" type="curve"/>
      <point x="541" y="453" type="line"/>
      <point x="522" y="412"/>
      <point x="500" y="340"/>
      <point x="457" y="185" type="curve"/>
      <point x="406" y="-4"/>
      <point x="392" y="-43"/>
      <point x="341" y="-122" type="curve"/>
      <point x="283" y="-214"/>
      <point x="198" y="-271"/>
      <point x="119" y="-271" type="curve" smooth="yes"/>
      <point x="84" y="-271"/>
      <point x="51" y="-254"/>
      <point x="36" y="-227" type="curve"/>
      <point x="27" y="-213"/>
      <point x="24" y="-200"/>
      <point x="21" y="-174" type="curve"/>
      <point x="83" y="-134" type="line"/>
      <point x="101" y="-140" type="line"/>
      <point x="100" y="-147"/>
      <point x="100" y="-156"/>
      <point x="100" y="-159" type="curve" smooth="yes"/>
      <point x="100" y="-201"/>
      <point x="123" y="-225"/>
      <point x="162" y="-225" type="curve" smooth="yes"/>
      <point x="227" y="-225"/>
      <point x="275" y="-154"/>
      <point x="314" y="4" type="curve" smooth="yes"/>
      <point x="355" y="170" type="line"/>
      <point x="316" y="101"/>
      <point x="294" y="73"/>
      <point x="255" y="39" type="curve" smooth="yes"/>
      <point x="215" y="4"/>
      <point x="175" y="-17"/>
      <point x="147" y="-17" type="curve" smooth="yes"/>
      <point x="120" y="-17"/>
      <point x="100" y="20"/>
      <point x="100" y="70" type="curve" smooth="yes"/>
      <point x="100" y="90"/>
      <point x="102" y="114"/>
      <point x="106" y="155" type="curve" smooth="yes"/>
      <point x="125" y="337" type="line" smooth="yes"/>
      <point x="126" y="343"/>
      <point x="126" y="348"/>
      <point x="126" y="351" type="curve" smooth="yes"/>
      <point x="126" y="363"/>
      <point x="119" y="370"/>
      <point x="108" y="370" type="curve" smooth="yes"/>
      <point x="88" y="370"/>
      <point x="61" y="356"/>
    </contour>
  </outline>
  <lib>
    <dict>
      <key>com.fontlab.hintData</key>
      <dict>
	<key>hhints</key>
	<array>
	  <dict>
	    <key>position</key>	    <integer>-271</integer>
	    <key>width</key>	    <integer>46</integer>
	  </dict>
	  <dict>
	    <key>position</key>	    <integer>-17</integer>
	    <key>width</key>	    <integer>21</integer>
	  </dict>
	  <dict>
	    <key>position</key>	    <integer>449</integer>
	    <key>width</key>	    <integer>20</integer>
	  </dict>
	  <dict>
	    <key>position</key>	    <integer>569</integer>
	    <key>width</key>	    <integer>131</integer>
	  </dict>
	</array>
	<key>vhints</key>
	<array>
	  <dict>
	    <key>position</key>
	    <integer>100</integer>
	    <key>width</key>
	    <integer>107</integer>
	  </dict>
	  <dict>
	    <key>position</key>
	    <integer>126</integer>
	    <key>width</key>
	    <integer>109</integer>
	  </dict>
	  <dict>
	    <key>position</key>
	    <integer>149</integer>
	    <key>width</key>
	    <integer>123</integer>
	  </dict>
	  <dict>
	    <key>position</key>
	    <integer>362</integer>
	    <key>width</key>
	    <integer>123</integer>
	  </dict>
	</array>
      </dict>
    </dict>
  </lib>
</glyph>
