<?xml version="1.0" encoding="UTF-8"?>
<glyph name="afii10051" format="1">
  <advance width="669"/>
  <unicode hex="0402"/>
  <outline>
    <contour>
      <point x="333" y="320" type="curve" smooth="yes"/>
      <point x="277" y="120" type="line" smooth="yes"/>
      <point x="267" y="86"/>
      <point x="265" y="74"/>
      <point x="265" y="61" type="curve" smooth="yes"/>
      <point x="265" y="31"/>
      <point x="277" y="22"/>
      <point x="317" y="19" type="curve" smooth="yes"/>
      <point x="323" y="19"/>
      <point x="338" y="17"/>
      <point x="355" y="16" type="curve"/>
      <point x="355" y="0" type="line"/>
      <point x="65" y="0" type="line"/>
      <point x="65" y="16" type="line"/>
      <point x="131" y="21"/>
      <point x="155" y="37"/>
      <point x="171" y="90" type="curve"/>
      <point x="315" y="618" type="line"/>
      <point x="162" y="620"/>
      <point x="130" y="603"/>
      <point x="77" y="495" type="curve"/>
      <point x="59" y="499" type="line"/>
      <point x="101" y="653" type="line"/>
      <point x="633" y="653" type="line"/>
      <point x="589" y="490" type="line"/>
      <point x="572" y="492" type="line"/>
      <point x="574" y="509"/>
      <point x="575" y="524"/>
      <point x="575" y="537" type="curve" smooth="yes"/>
      <point x="575" y="593"/>
      <point x="543" y="618"/>
      <point x="471" y="618" type="curve" smooth="yes"/>
      <point x="416" y="618" type="line"/>
      <point x="345" y="363" type="line"/>
      <point x="391" y="406"/>
      <point x="448" y="440"/>
      <point x="515" y="440" type="curve" smooth="yes"/>
      <point x="602" y="440"/>
      <point x="713" y="411"/>
      <point x="688" y="319" type="curve" smooth="yes"/>
      <point x="611" y="42" type="line" smooth="yes"/>
      <point x="582" y="-64"/>
      <point x="460" y="-146"/>
      <point x="348" y="-146" type="curve" smooth="yes"/>
      <point x="308" y="-146"/>
      <point x="268" y="-127"/>
      <point x="268" y="-99" type="curve" smooth="yes"/>
      <point x="268" y="-74"/>
      <point x="297" y="-52"/>
      <point x="321" y="-52" type="curve" smooth="yes"/>
      <point x="337" y="-52"/>
      <point x="349" y="-61"/>
      <point x="360" y="-84" type="curve" smooth="yes"/>
      <point x="371" y="-105"/>
      <point x="379" y="-112"/>
      <point x="394" y="-112" type="curve" smooth="yes"/>
      <point x="408" y="-112"/>
      <point x="425" y="-104"/>
      <point x="433" y="-94" type="curve" smooth="yes"/>
      <point x="458" y="-64"/>
      <point x="475" y="-32"/>
      <point x="496" y="45" type="curve" smooth="yes"/>
      <point x="570" y="312" type="line" smooth="yes"/>
      <point x="585" y="366"/>
      <point x="522" y="385"/>
      <point x="465" y="385" type="curve" smooth="yes"/>
      <point x="404" y="385"/>
      <point x="339" y="339"/>
    </contour>
  </outline>
  <lib>
    <dict>
      <key>com.fontlab.hintData</key>
      <dict>
	<key>hhints</key>
	<array>
	  <dict>
	    <key>position</key>	    <integer>-146</integer>
	    <key>width</key>	    <integer>34</integer>
	  </dict>
	  <dict>
	    <key>position</key>	    <integer>0</integer>
	    <key>width</key>	    <integer>19</integer>
	  </dict>
	  <dict>
	    <key>position</key>	    <integer>385</integer>
	    <key>width</key>	    <integer>55</integer>
	  </dict>
	  <dict>
	    <key>position</key>	    <integer>618</integer>
	    <key>width</key>	    <integer>35</integer>
	  </dict>
	</array>
      </dict>
    </dict>
  </lib>
</glyph>
