<?xml version="1.0" encoding="UTF-8"?>
<glyph name="afii10846" format="1">
  <advance width="444"/>
  <unicode hex="04D9"/>
  <outline>
    <contour>
      <point x="85" y="321" type="curve"/>
      <point x="73" y="333" type="line"/>
      <point x="132" y="400"/>
      <point x="209" y="441"/>
      <point x="280" y="441" type="curve" smooth="yes"/>
      <point x="358" y="441"/>
      <point x="412" y="385"/>
      <point x="412" y="304" type="curve" smooth="yes"/>
      <point x="412" y="154"/>
      <point x="255" y="-11"/>
      <point x="111" y="-11" type="curve" smooth="yes"/>
      <point x="61" y="-11"/>
      <point x="31" y="15"/>
      <point x="31" y="57" type="curve" smooth="yes"/>
      <point x="31" y="143"/>
      <point x="137" y="219"/>
      <point x="287" y="240" type="curve" smooth="yes"/>
      <point x="315" y="244" type="line"/>
      <point x="323" y="276"/>
      <point x="325" y="291"/>
      <point x="325" y="306" type="curve" smooth="yes"/>
      <point x="325" y="360"/>
      <point x="288" y="396"/>
      <point x="231" y="396" type="curve" smooth="yes"/>
      <point x="188" y="396"/>
      <point x="157" y="380"/>
    </contour>
    <contour>
      <point x="291" y="178" type="curve" smooth="yes"/>
      <point x="308" y="222" type="line"/>
      <point x="222" y="201"/>
      <point x="184" y="183"/>
      <point x="147" y="148" type="curve" smooth="yes"/>
      <point x="116" y="118"/>
      <point x="97" y="82"/>
      <point x="97" y="51" type="curve" smooth="yes"/>
      <point x="97" y="28"/>
      <point x="111" y="12"/>
      <point x="132" y="12" type="curve" smooth="yes"/>
      <point x="183" y="12"/>
      <point x="257" y="89"/>
    </contour>
  </outline>
  <lib>
    <dict>
      <key>com.fontlab.hintData</key>
      <dict>
	<key>hhints</key>
	<array>
	  <dict>
	    <key>position</key>	    <integer>-11</integer>
	    <key>width</key>	    <integer>23</integer>
	  </dict>
	  <dict>
	    <key>position</key>	    <integer>396</integer>
	    <key>width</key>	    <integer>45</integer>
	  </dict>
	</array>
	<key>vhints</key>
	<array>
	  <dict>
	    <key>position</key>
	    <integer>31</integer>
	    <key>width</key>
	    <integer>66</integer>
	  </dict>
	  <dict>
	    <key>position</key>
	    <integer>325</integer>
	    <key>width</key>
	    <integer>87</integer>
	  </dict>
	</array>
      </dict>
    </dict>
  </lib>
</glyph>
