<?xml version="1.0" encoding="UTF-8"?>
<glyph name="at" format="1">
  <advance width="920"/>
  <unicode hex="0040"/>
  <outline>
    <contour>
      <point x="587" y="449" type="curve"/>
      <point x="597" y="486" type="line"/>
      <point x="666" y="486" type="line"/>
      <point x="601" y="234" type="line" smooth="yes"/>
      <point x="599" y="227"/>
      <point x="598" y="218"/>
      <point x="598" y="213" type="curve" smooth="yes"/>
      <point x="598" y="186"/>
      <point x="611" y="171"/>
      <point x="635" y="171" type="curve" smooth="yes"/>
      <point x="660" y="171"/>
      <point x="685" y="183"/>
      <point x="704" y="202" type="curve" smooth="yes"/>
      <point x="741" y="241"/>
      <point x="766" y="307"/>
      <point x="766" y="367" type="curve" smooth="yes"/>
      <point x="766" y="513"/>
      <point x="637" y="635"/>
      <point x="481" y="635" type="curve" smooth="yes"/>
      <point x="318" y="635"/>
      <point x="201" y="500"/>
      <point x="201" y="313" type="curve" smooth="yes"/>
      <point x="201" y="142"/>
      <point x="323" y="21"/>
      <point x="494" y="21" type="curve" smooth="yes"/>
      <point x="559" y="21"/>
      <point x="608" y="33"/>
      <point x="686" y="68" type="curve"/>
      <point x="698" y="39" type="line"/>
      <point x="604" y="-5"/>
      <point x="553" y="-18"/>
      <point x="482" y="-18" type="curve" smooth="yes"/>
      <point x="278" y="-18"/>
      <point x="118" y="130"/>
      <point x="118" y="319" type="curve" smooth="yes"/>
      <point x="118" y="512"/>
      <point x="278" y="666"/>
      <point x="481" y="666" type="curve" smooth="yes"/>
      <point x="664" y="666"/>
      <point x="806" y="539"/>
      <point x="806" y="376" type="curve" smooth="yes"/>
      <point x="806" y="248"/>
      <point x="721" y="138"/>
      <point x="622" y="138" type="curve" smooth="yes"/>
      <point x="575" y="138"/>
      <point x="539" y="167"/>
      <point x="533" y="210" type="curve"/>
      <point x="497" y="165"/>
      <point x="452" y="139"/>
      <point x="410" y="139" type="curve" smooth="yes"/>
      <point x="360" y="139"/>
      <point x="321" y="187"/>
      <point x="321" y="250" type="curve" smooth="yes"/>
      <point x="321" y="321"/>
      <point x="352" y="398"/>
      <point x="403" y="450" type="curve" smooth="yes"/>
      <point x="433" y="482"/>
      <point x="474" y="500"/>
      <point x="516" y="500" type="curve" smooth="yes"/>
      <point x="551" y="500"/>
      <point x="565" y="490"/>
    </contour>
    <contour>
      <point x="530" y="456" type="curve" smooth="yes"/>
      <point x="506" y="458"/>
      <point x="471" y="438"/>
      <point x="443" y="406" type="curve" smooth="yes"/>
      <point x="410" y="368"/>
      <point x="392" y="318"/>
      <point x="392" y="265" type="curve" smooth="yes"/>
      <point x="392" y="213"/>
      <point x="414" y="181"/>
      <point x="451" y="181" type="curve" smooth="yes"/>
      <point x="507" y="181"/>
      <point x="564" y="281"/>
      <point x="570" y="394" type="curve" smooth="yes"/>
      <point x="572" y="431"/>
      <point x="557" y="454"/>
    </contour>
  </outline>
  <lib>
    <dict>
      <key>com.fontlab.hintData</key>
      <dict>
	<key>hhints</key>
	<array>
	  <dict>
	    <key>position</key>	    <integer>-18</integer>
	    <key>width</key>	    <integer>39</integer>
	  </dict>
	  <dict>
	    <key>position</key>	    <integer>138</integer>
	    <key>width</key>	    <integer>33</integer>
	  </dict>
	  <dict>
	    <key>position</key>	    <integer>139</integer>
	    <key>width</key>	    <integer>42</integer>
	  </dict>
	  <dict>
	    <key>position</key>	    <integer>429</integer>
	    <key>width</key>	    <integer>20</integer>
	  </dict>
	  <dict>
	    <key>position</key>	    <integer>635</integer>
	    <key>width</key>	    <integer>31</integer>
	  </dict>
	</array>
	<key>vhints</key>
	<array>
	  <dict>
	    <key>position</key>
	    <integer>118</integer>
	    <key>width</key>
	    <integer>83</integer>
	  </dict>
	  <dict>
	    <key>position</key>
	    <integer>321</integer>
	    <key>width</key>
	    <integer>71</integer>
	  </dict>
	  <dict>
	    <key>position</key>
	    <integer>766</integer>
	    <key>width</key>
	    <integer>40</integer>
	  </dict>
	</array>
      </dict>
    </dict>
  </lib>
</glyph>
