<?xml version="1.0" encoding="UTF-8"?>
<glyph name="brokenbar" format="1">
  <advance width="275"/>
  <unicode hex="00A6"/>
  <outline>
    <contour>
      <point x="105" y="-18" type="line"/>
      <point x="105" y="257" type="line"/>
      <point x="171" y="257" type="line"/>
      <point x="171" y="-18" type="line"/>
    </contour>
    <contour>
      <point x="105" y="391" type="line"/>
      <point x="105" y="666" type="line"/>
      <point x="171" y="666" type="line"/>
      <point x="171" y="391" type="line"/>
    </contour>
  </outline>
  <lib>
    <dict>
      <key>com.fontlab.hintData</key>
      <dict>
	<key>hhints</key>
	<array>
	  <dict>
	    <key>position</key>	    <integer>-18</integer>
	    <key>width</key>	    <integer>20</integer>
	  </dict>
	  <dict>
	    <key>position</key>	    <integer>646</integer>
	    <key>width</key>	    <integer>20</integer>
	  </dict>
	</array>
	<key>vhints</key>
	<array>
	  <dict>
	    <key>position</key>
	    <integer>105</integer>
	    <key>width</key>
	    <integer>66</integer>
	  </dict>
	</array>
      </dict>
    </dict>
  </lib>
</glyph>
