<?xml version="1.0" encoding="UTF-8"?>
<glyph name="Ccaron" format="1">
  <advance width="667"/>
  <unicode hex="010C"/>
  <outline>
    <contour>
      <point x="652" y="465" type="line"/>
      <point x="634" y="468" type="line"/>
      <point x="624" y="576"/>
      <point x="573" y="630"/>
      <point x="481" y="630" type="curve" smooth="yes"/>
      <point x="415" y="630"/>
      <point x="352" y="602"/>
      <point x="304" y="553" type="curve" smooth="yes"/>
      <point x="226" y="472"/>
      <point x="178" y="351"/>
      <point x="178" y="232" type="curve" smooth="yes"/>
      <point x="178" y="103"/>
      <point x="242" y="27"/>
      <point x="353" y="27" type="curve" smooth="yes"/>
      <point x="435" y="27"/>
      <point x="493" y="57"/>
      <point x="583" y="145" type="curve"/>
      <point x="600" y="131" type="line"/>
      <point x="510" y="26"/>
      <point x="430" y="-18"/>
      <point x="327" y="-18" type="curve" smooth="yes"/>
      <point x="174" y="-18"/>
      <point x="66" y="90"/>
      <point x="66" y="243" type="curve" smooth="yes"/>
      <point x="66" y="465"/>
      <point x="259" y="666"/>
      <point x="472" y="666" type="curve" smooth="yes"/>
      <point x="504" y="666"/>
      <point x="544" y="660"/>
      <point x="589" y="649" type="curve" smooth="yes"/>
      <point x="610" y="644"/>
      <point x="622" y="642"/>
      <point x="630" y="642" type="curve" smooth="yes"/>
      <point x="650" y="642"/>
      <point x="660" y="648"/>
      <point x="668" y="664" type="curve"/>
      <point x="689" y="664" type="line"/>
    </contour>
    <contour>
      <point x="663" y="873" type="line"/>
      <point x="500" y="704" type="line"/>
      <point x="454" y="704" type="line"/>
      <point x="358" y="873" type="line"/>
      <point x="395" y="873" type="line"/>
      <point x="485" y="768" type="line"/>
      <point x="627" y="873" type="line"/>
    </contour>
  </outline>
  <lib>
    <dict>
      <key>com.fontlab.hintData</key>
      <dict>
	<key>hhints</key>
	<array>
	  <dict>
	    <key>position</key>	    <integer>-18</integer>
	    <key>width</key>	    <integer>45</integer>
	  </dict>
	  <dict>
	    <key>position</key>	    <integer>630</integer>
	    <key>width</key>	    <integer>36</integer>
	  </dict>
	</array>
	<key>vhints</key>
	<array>
	  <dict>
	    <key>position</key>
	    <integer>66</integer>
	    <key>width</key>
	    <integer>112</integer>
	  </dict>
	</array>
      </dict>
    </dict>
  </lib>
</glyph>
