<?xml version="1.0" encoding="UTF-8"?>
<glyph name="uni0494" format="1">
  <advance width="598"/>
  <unicode hex="0494"/>
  <outline>
    <contour>
      <point x="278" y="350" type="curve"/>
      <point x="211" y="109" type="line" smooth="yes"/>
      <point x="191" y="37"/>
      <point x="201" y="23"/>
      <point x="277" y="19" type="curve"/>
      <point x="272" y="0" type="line"/>
      <point x="-8" y="0" type="line"/>
      <point x="-3" y="19" type="line"/>
      <point x="74" y="24"/>
      <point x="89" y="37"/>
      <point x="112" y="120" type="curve" smooth="yes"/>
      <point x="232" y="553" type="line" smooth="yes"/>
      <point x="251" y="623"/>
      <point x="242" y="637"/>
      <point x="170" y="643" type="curve"/>
      <point x="175" y="662" type="line"/>
      <point x="672" y="662" type="line"/>
      <point x="635" y="519" type="line"/>
      <point x="610" y="519" type="line"/>
      <point x="618" y="609"/>
      <point x="600" y="624"/>
      <point x="487" y="624" type="curve" smooth="yes"/>
      <point x="386" y="624" type="line" smooth="yes"/>
      <point x="359" y="624"/>
      <point x="352" y="618"/>
      <point x="344" y="590" type="curve" smooth="yes"/>
      <point x="286" y="381" type="line"/>
      <point x="332" y="409"/>
      <point x="363" y="424"/>
      <point x="401" y="424" type="curve" smooth="yes"/>
      <point x="533" y="424"/>
      <point x="605" y="286"/>
      <point x="601" y="157" type="curve" smooth="yes"/>
      <point x="594" y="-41"/>
      <point x="465" y="-242"/>
      <point x="314" y="-242" type="curve" smooth="yes"/>
      <point x="253" y="-242"/>
      <point x="187" y="-207"/>
      <point x="187" y="-165" type="curve" smooth="yes"/>
      <point x="187" y="-143"/>
      <point x="207" y="-129"/>
      <point x="226" y="-129" type="curve" smooth="yes"/>
      <point x="251" y="-129"/>
      <point x="264" y="-145"/>
      <point x="276" y="-174" type="curve" smooth="yes"/>
      <point x="288" y="-202"/>
      <point x="298" y="-214"/>
      <point x="319" y="-214" type="curve" smooth="yes"/>
      <point x="401" y="-214"/>
      <point x="518" y="10"/>
      <point x="518" y="165" type="curve" smooth="yes"/>
      <point x="518" y="272"/>
      <point x="464" y="380"/>
      <point x="361" y="380" type="curve" smooth="yes"/>
      <point x="332" y="380"/>
      <point x="308" y="369"/>
    </contour>
  </outline>
  <lib>
    <dict>
      <key>com.fontlab.hintData</key>
      <dict>
	<key>hhints</key>
	<array>
	  <dict>
	    <key>position</key>	    <integer>-242</integer>
	    <key>width</key>	    <integer>28</integer>
	  </dict>
	  <dict>
	    <key>position</key>	    <integer>0</integer>
	    <key>width</key>	    <integer>19</integer>
	  </dict>
	  <dict>
	    <key>position</key>	    <integer>380</integer>
	    <key>width</key>	    <integer>44</integer>
	  </dict>
	  <dict>
	    <key>position</key>	    <integer>624</integer>
	    <key>width</key>	    <integer>38</integer>
	  </dict>
	  <dict>
	    <key>position</key>	    <integer>643</integer>
	    <key>width</key>	    <integer>19</integer>
	  </dict>
	</array>
	<key>vhints</key>
	<array>
	  <dict>
	    <key>position</key>
	    <integer>518</integer>
	    <key>width</key>
	    <integer>83</integer>
	  </dict>
	</array>
      </dict>
    </dict>
  </lib>
</glyph>
