<?xml version="1.0" encoding="UTF-8"?>
<glyph name="w" format="1">
  <advance width="667"/>
  <unicode hex="0077"/>
  <outline>
    <contour>
      <point x="16" y="404" type="line"/>
      <point x="16" y="417" type="line"/>
      <point x="28" y="419"/>
      <point x="38" y="421"/>
      <point x="42" y="421" type="curve" smooth="yes"/>
      <point x="75" y="426"/>
      <point x="99" y="430"/>
      <point x="110" y="434" type="curve" smooth="yes"/>
      <point x="123" y="438"/>
      <point x="134" y="441"/>
      <point x="140" y="441" type="curve" smooth="yes"/>
      <point x="152" y="441"/>
      <point x="154" y="433"/>
      <point x="165" y="371" type="curve"/>
      <point x="176" y="301"/>
      <point x="187" y="196"/>
      <point x="190" y="126" type="curve"/>
      <point x="382" y="430" type="line" smooth="yes"/>
      <point x="387" y="438"/>
      <point x="390" y="440"/>
      <point x="395" y="440" type="curve" smooth="yes"/>
      <point x="401" y="440"/>
      <point x="403" y="437"/>
      <point x="403" y="426" type="curve" smooth="yes"/>
      <point x="435" y="74" type="line"/>
      <point x="566" y="237"/>
      <point x="600" y="291"/>
      <point x="600" y="334" type="curve" smooth="yes"/>
      <point x="600" y="346"/>
      <point x="594" y="356"/>
      <point x="578" y="371" type="curve" smooth="yes"/>
      <point x="562" y="386"/>
      <point x="557" y="394"/>
      <point x="557" y="407" type="curve" smooth="yes"/>
      <point x="557" y="428"/>
      <point x="572" y="441"/>
      <point x="596" y="441" type="curve" smooth="yes"/>
      <point x="626" y="441"/>
      <point x="648" y="419"/>
      <point x="648" y="389" type="curve" smooth="yes"/>
      <point x="648" y="325"/>
      <point x="572" y="199"/>
      <point x="436" y="36" type="curve" smooth="yes"/>
      <point x="432" y="31"/>
      <point x="428" y="26"/>
      <point x="427" y="25" type="curve" smooth="yes"/>
      <point x="400" y="-8"/>
      <point x="390" y="-18"/>
      <point x="382" y="-18" type="curve" smooth="yes"/>
      <point x="375" y="-18"/>
      <point x="373" y="-15"/>
      <point x="371" y="12" type="curve" smooth="yes"/>
      <point x="342" y="331" type="line"/>
      <point x="253" y="175" type="line" smooth="yes"/>
      <point x="223" y="122"/>
      <point x="203" y="87"/>
      <point x="198" y="76" type="curve" smooth="yes"/>
      <point x="162" y="7"/>
      <point x="145" y="-18"/>
      <point x="134" y="-18" type="curve" smooth="yes"/>
      <point x="125" y="-18"/>
      <point x="123" y="-10"/>
      <point x="121" y="29" type="curve" smooth="yes"/>
      <point x="117" y="117" type="line" smooth="yes"/>
      <point x="114" y="196"/>
      <point x="102" y="302"/>
      <point x="90" y="359" type="curve" smooth="yes"/>
      <point x="83" y="397"/>
      <point x="73" y="407"/>
      <point x="45" y="405" type="curve" smooth="yes"/>
      <point x="40" y="404"/>
      <point x="37" y="404"/>
      <point x="36" y="404" type="curve" smooth="yes"/>
    </contour>
  </outline>
  <lib>
    <dict>
      <key>com.fontlab.hintData</key>
      <dict>
	<key>hhints</key>
	<array>
	  <dict>
	    <key>position</key>	    <integer>-18</integer>
	    <key>width</key>	    <integer>20</integer>
	  </dict>
	  <dict>
	    <key>position</key>	    <integer>420</integer>
	    <key>width</key>	    <integer>20</integer>
	  </dict>
	  <dict>
	    <key>position</key>	    <integer>421</integer>
	    <key>width</key>	    <integer>20</integer>
	  </dict>
	</array>
	<key>vhints</key>
	<array>
	  <dict>
	    <key>position</key>
	    <integer>600</integer>
	    <key>width</key>
	    <integer>48</integer>
	  </dict>
	</array>
      </dict>
    </dict>
  </lib>
</glyph>
