<?xml version="1.0" encoding="UTF-8"?>
<glyph name="braceleft" format="1">
  <advance width="348"/>
  <unicode hex="007B"/>
  <outline>
    <contour>
      <point x="436" y="686" type="curve"/>
      <point x="433" y="674" type="line"/>
      <point x="352" y="659"/>
      <point x="315" y="626"/>
      <point x="295" y="550" type="curve" smooth="yes"/>
      <point x="250" y="379" type="line" smooth="yes"/>
      <point x="227" y="294"/>
      <point x="197" y="268"/>
      <point x="99" y="249" type="curve"/>
      <point x="174" y="229"/>
      <point x="191" y="215"/>
      <point x="191" y="173" type="curve" smooth="yes"/>
      <point x="191" y="150"/>
      <point x="181" y="103"/>
      <point x="162" y="43" type="curve" smooth="yes"/>
      <point x="143" y="-20"/>
      <point x="132" y="-71"/>
      <point x="132" y="-97" type="curve" smooth="yes"/>
      <point x="132" y="-143"/>
      <point x="154" y="-164"/>
      <point x="213" y="-175" type="curve"/>
      <point x="210" y="-187" type="line"/>
      <point x="117" y="-185"/>
      <point x="78" y="-177"/>
      <point x="53" y="-156" type="curve" smooth="yes"/>
      <point x="36" y="-141"/>
      <point x="28" y="-122"/>
      <point x="28" y="-96" type="curve" smooth="yes"/>
      <point x="28" y="-67"/>
      <point x="44" y="8"/>
      <point x="63" y="63" type="curve" smooth="yes"/>
      <point x="79" y="111"/>
      <point x="89" y="155"/>
      <point x="89" y="179" type="curve" smooth="yes"/>
      <point x="89" y="214"/>
      <point x="67" y="233"/>
      <point x="5" y="249" type="curve"/>
      <point x="94" y="268"/>
      <point x="122" y="293"/>
      <point x="142" y="365" type="curve"/>
      <point x="188" y="544" type="line"/>
      <point x="219" y="653"/>
      <point x="277" y="686"/>
    </contour>
  </outline>
  <lib>
    <dict>
      <key>com.fontlab.hintData</key>
      <dict>
	<key>hhints</key>
	<array>
	  <dict>
	    <key>position</key>	    <integer>666</integer>
	    <key>width</key>	    <integer>20</integer>
	  </dict>
	</array>
	<key>vhints</key>
	<array>
	  <dict>
	    <key>position</key>
	    <integer>28</integer>
	    <key>width</key>
	    <integer>104</integer>
	  </dict>
	  <dict>
	    <key>position</key>
	    <integer>89</integer>
	    <key>width</key>
	    <integer>102</integer>
	  </dict>
	</array>
      </dict>
    </dict>
  </lib>
</glyph>
