<?xml version="1.0" encoding="UTF-8"?>
<glyph name="c" format="1">
  <advance width="444"/>
  <unicode hex="0063"/>
  <outline>
    <contour>
      <point x="318" y="141" type="curve"/>
      <point x="346" y="123" type="line"/>
      <point x="311" y="73"/>
      <point x="295" y="54"/>
      <point x="269" y="32" type="curve" smooth="yes"/>
      <point x="235" y="3"/>
      <point x="192" y="-13"/>
      <point x="148" y="-13" type="curve" smooth="yes"/>
      <point x="58" y="-13"/>
      <point x="-5" y="49"/>
      <point x="-5" y="138" type="curve" smooth="yes"/>
      <point x="-5" y="298"/>
      <point x="139" y="462"/>
      <point x="280" y="462" type="curve" smooth="yes"/>
      <point x="346" y="462"/>
      <point x="392" y="425"/>
      <point x="392" y="372" type="curve" smooth="yes"/>
      <point x="392" y="331"/>
      <point x="366" y="302"/>
      <point x="330" y="302" type="curve" smooth="yes"/>
      <point x="297" y="302"/>
      <point x="272" y="324"/>
      <point x="272" y="354" type="curve" smooth="yes"/>
      <point x="272" y="366"/>
      <point x="276" y="377"/>
      <point x="285" y="393" type="curve" smooth="yes"/>
      <point x="291" y="402"/>
      <point x="293" y="408"/>
      <point x="293" y="412" type="curve" smooth="yes"/>
      <point x="293" y="422"/>
      <point x="283" y="429"/>
      <point x="271" y="429" type="curve" smooth="yes"/>
      <point x="241" y="429"/>
      <point x="211" y="405"/>
      <point x="185" y="358" type="curve" smooth="yes"/>
      <point x="149" y="293"/>
      <point x="123" y="203"/>
      <point x="123" y="141" type="curve" smooth="yes"/>
      <point x="123" y="87"/>
      <point x="153" y="51"/>
      <point x="196" y="51" type="curve" smooth="yes"/>
      <point x="239" y="51"/>
      <point x="270" y="74"/>
    </contour>
  </outline>
  <lib>
    <dict>
      <key>com.fontlab.hintData</key>
      <dict>
	<key>hhints</key>
	<array>
	  <dict>
	    <key>position</key>	    <integer>-13</integer>
	    <key>width</key>	    <integer>64</integer>
	  </dict>
	  <dict>
	    <key>position</key>	    <integer>429</integer>
	    <key>width</key>	    <integer>33</integer>
	  </dict>
	</array>
	<key>vhints</key>
	<array>
	  <dict>
	    <key>position</key>
	    <integer>-5</integer>
	    <key>width</key>
	    <integer>128</integer>
	  </dict>
	  <dict>
	    <key>position</key>
	    <integer>293</integer>
	    <key>width</key>
	    <integer>99</integer>
	  </dict>
	</array>
      </dict>
    </dict>
  </lib>
</glyph>
