<?xml version="1.0" encoding="UTF-8"?>
<glyph name="Edotaccent" format="1">
  <advance width="667"/>
  <unicode hex="0116"/>
  <outline>
    <contour>
      <point x="586" y="194" type="line"/>
      <point x="527" y="0" type="line"/>
      <point x="-27" y="0" type="line"/>
      <point x="-27" y="25" type="line"/>
      <point x="25" y="33"/>
      <point x="37" y="44"/>
      <point x="53" y="97" type="curve"/>
      <point x="176" y="546" type="line" smooth="yes"/>
      <point x="182" y="568"/>
      <point x="186" y="591"/>
      <point x="186" y="606" type="curve" smooth="yes"/>
      <point x="186" y="627"/>
      <point x="175" y="635"/>
      <point x="144" y="639" type="curve" smooth="yes"/>
      <point x="139" y="640"/>
      <point x="127" y="642"/>
      <point x="113" y="644" type="curve"/>
      <point x="113" y="669" type="line"/>
      <point x="653" y="669" type="line"/>
      <point x="610" y="479" type="line"/>
      <point x="583" y="484" type="line"/>
      <point x="583" y="546"/>
      <point x="576" y="571"/>
      <point x="553" y="595" type="curve" smooth="yes"/>
      <point x="526" y="622"/>
      <point x="472" y="637"/>
      <point x="399" y="637" type="curve" smooth="yes"/>
      <point x="358" y="637"/>
      <point x="346" y="628"/>
      <point x="336" y="593" type="curve" smooth="yes"/>
      <point x="275" y="370" type="line"/>
      <point x="407" y="369"/>
      <point x="433" y="382"/>
      <point x="480" y="476" type="curve"/>
      <point x="508" y="472" type="line"/>
      <point x="434" y="199" type="line"/>
      <point x="406" y="204" type="line"/>
      <point x="409" y="223"/>
      <point x="410" y="234"/>
      <point x="410" y="248" type="curve" smooth="yes"/>
      <point x="410" y="317"/>
      <point x="380" y="336"/>
      <point x="266" y="338" type="curve"/>
      <point x="210" y="129" type="line"/>
      <point x="208" y="123" type="line"/>
      <point x="207" y="115"/>
      <point x="205" y="109"/>
      <point x="203" y="104" type="curve" smooth="yes"/>
      <point x="198" y="84"/>
      <point x="195" y="73"/>
      <point x="195" y="66" type="curve" smooth="yes"/>
      <point x="195" y="42"/>
      <point x="213" y="32"/>
      <point x="256" y="32" type="curve" smooth="yes"/>
      <point x="342" y="32"/>
      <point x="410" y="51"/>
      <point x="466" y="90" type="curve" smooth="yes"/>
      <point x="505" y="117"/>
      <point x="526" y="142"/>
      <point x="561" y="199" type="curve"/>
    </contour>
    <contour>
      <point x="394" y="865" type="curve" smooth="yes"/>
      <point x="430" y="865"/>
      <point x="460" y="835"/>
      <point x="460" y="799" type="curve" smooth="yes"/>
      <point x="460" y="765"/>
      <point x="429" y="735"/>
      <point x="394" y="735" type="curve" smooth="yes"/>
      <point x="360" y="735"/>
      <point x="330" y="765"/>
      <point x="330" y="799" type="curve" smooth="yes"/>
      <point x="330" y="835"/>
      <point x="359" y="865"/>
    </contour>
  </outline>
  <lib>
    <dict>
      <key>com.fontlab.hintData</key>
      <dict>
	<key>hhints</key>
	<array>
	  <dict>
	    <key>position</key>	    <integer>0</integer>
	    <key>width</key>	    <integer>32</integer>
	  </dict>
	  <dict>
	    <key>position</key>	    <integer>637</integer>
	    <key>width</key>	    <integer>32</integer>
	  </dict>
	</array>
	<key>vhints</key>
	<array>
	  <dict>
	    <key>position</key>
	    <integer>-27</integer>
	    <key>width</key>
	    <integer>140</integer>
	  </dict>
	</array>
      </dict>
    </dict>
  </lib>
</glyph>
