<?xml version="1.0" encoding="UTF-8"?>
<glyph name="Aacute" format="1">
  <advance width="667"/>
  <unicode hex="00C1"/>
  <outline>
    <contour>
      <point x="474" y="219" type="line"/>
      <point x="193" y="219" type="line"/>
      <point x="116" y="0" type="line"/>
      <point x="17" y="0" type="line"/>
      <point x="277" y="729" type="line"/>
      <point x="397" y="729" type="line"/>
      <point x="653" y="0" type="line"/>
      <point x="549" y="0" type="line"/>
    </contour>
    <contour>
      <point x="448" y="297" type="line"/>
      <point x="336" y="629" type="line"/>
      <point x="216" y="297" type="line"/>
    </contour>
    <contour>
      <point x="370" y="939" type="line"/>
      <point x="483" y="939" type="line"/>
      <point x="334" y="791" type="line"/>
      <point x="274" y="791" type="line"/>
    </contour>
  </outline>
  <lib>
    <dict>
      <key>com.fontlab.hintData</key>
      <dict>
	<key>hhints</key>
	<array>
	  <dict>
	    <key>position</key>	    <integer>0</integer>
	    <key>width</key>	    <integer>21</integer>
	  </dict>
	  <dict>
	    <key>position</key>	    <integer>219</integer>
	    <key>width</key>	    <integer>78</integer>
	  </dict>
	  <dict>
	    <key>position</key>	    <integer>709</integer>
	    <key>width</key>	    <integer>20</integer>
	  </dict>
	</array>
      </dict>
    </dict>
  </lib>
</glyph>
