<?xml version="1.0" encoding="UTF-8"?>
<glyph name="afii10068" format="1">
  <advance width="430"/>
  <unicode hex="0433"/>
  <outline>
    <contour>
      <point x="70" y="524" type="line"/>
      <point x="380" y="524" type="line"/>
      <point x="380" y="448" type="line"/>
      <point x="154" y="448" type="line"/>
      <point x="154" y="0" type="line"/>
      <point x="70" y="0" type="line"/>
    </contour>
  </outline>
  <lib>
    <dict>
      <key>com.fontlab.hintData</key>
      <dict>
	<key>hhints</key>
	<array>
	  <dict>
	    <key>position</key>	    <integer>0</integer>
	    <key>width</key>	    <integer>21</integer>
	  </dict>
	  <dict>
	    <key>position</key>	    <integer>448</integer>
	    <key>width</key>	    <integer>76</integer>
	  </dict>
	</array>
	<key>vhints</key>
	<array>
	  <dict>
	    <key>position</key>
	    <integer>70</integer>
	    <key>width</key>
	    <integer>84</integer>
	  </dict>
	</array>
      </dict>
    </dict>
  </lib>
</glyph>
