<?xml version="1.0" encoding="UTF-8"?>
<glyph name="dollar" format="1">
  <advance width="556"/>
  <unicode hex="0024"/>
  <outline>
    <contour>
      <point x="243" y="770" type="line"/>
      <point x="302" y="770" type="line"/>
      <point x="302" y="716" type="line"/>
      <point x="423" y="707"/>
      <point x="496" y="633"/>
      <point x="496" y="519" type="curve"/>
      <point x="417" y="519" type="line"/>
      <point x="416" y="592"/>
      <point x="369" y="643"/>
      <point x="302" y="646" type="curve"/>
      <point x="302" y="397" type="line"/>
      <point x="394" y="369"/>
      <point x="407" y="364"/>
      <point x="433" y="349" type="curve" smooth="yes"/>
      <point x="491" y="316"/>
      <point x="518" y="266"/>
      <point x="518" y="195" type="curve" smooth="yes"/>
      <point x="518" y="117"/>
      <point x="484" y="48"/>
      <point x="426" y="12" type="curve" smooth="yes"/>
      <point x="393" y="-8"/>
      <point x="356" y="-19"/>
      <point x="302" y="-23" type="curve"/>
      <point x="302" y="-126" type="line"/>
      <point x="243" y="-126" type="line"/>
      <point x="243" y="-23" type="line"/>
      <point x="102" y="-14"/>
      <point x="26" y="69"/>
      <point x="33" y="208" type="curve"/>
      <point x="112" y="208" type="line"/>
      <point x="118" y="143"/>
      <point x="122" y="126"/>
      <point x="137" y="103" type="curve"/>
      <point x="160" y="72"/>
      <point x="198" y="52"/>
      <point x="243" y="46" type="curve"/>
      <point x="243" y="318" type="line"/>
      <point x="170" y="340"/>
      <point x="143" y="351"/>
      <point x="117" y="370" type="curve" smooth="yes"/>
      <point x="70" y="404"/>
      <point x="46" y="453"/>
      <point x="46" y="516" type="curve" smooth="yes"/>
      <point x="46" y="630"/>
      <point x="115" y="700"/>
      <point x="243" y="716" type="curve"/>
    </contour>
    <contour>
      <point x="243" y="405" type="curve"/>
      <point x="243" y="645" type="line"/>
      <point x="169" y="635"/>
      <point x="127" y="592"/>
      <point x="127" y="526" type="curve" smooth="yes"/>
      <point x="127" y="465"/>
      <point x="164" y="426"/>
    </contour>
    <contour>
      <point x="302" y="309" type="curve"/>
      <point x="302" y="46" type="line"/>
      <point x="345" y="51"/>
      <point x="370" y="60"/>
      <point x="394" y="83" type="curve" smooth="yes"/>
      <point x="421" y="109"/>
      <point x="436" y="144"/>
      <point x="436" y="183" type="curve" smooth="yes"/>
      <point x="436" y="249"/>
      <point x="404" y="279"/>
    </contour>
  </outline>
  <lib>
    <dict>
      <key>com.fontlab.hintData</key>
      <dict>
	<key>hhints</key>
	<array>
	  <dict>
	    <key>position</key>	    <integer>-126</integer>
	    <key>width</key>	    <integer>896</integer>
	  </dict>
	</array>
	<key>vhints</key>
	<array>
	  <dict>
	    <key>position</key>
	    <integer>46</integer>
	    <key>width</key>
	    <integer>81</integer>
	  </dict>
	  <dict>
	    <key>position</key>
	    <integer>243</integer>
	    <key>width</key>
	    <integer>59</integer>
	  </dict>
	  <dict>
	    <key>position</key>
	    <integer>417</integer>
	    <key>width</key>
	    <integer>79</integer>
	  </dict>
	  <dict>
	    <key>position</key>
	    <integer>436</integer>
	    <key>width</key>
	    <integer>82</integer>
	  </dict>
	</array>
      </dict>
    </dict>
  </lib>
</glyph>
