<?xml version="1.0" encoding="UTF-8"?>
<glyph name="ohungarumlaut" format="1">
  <advance width="556"/>
  <unicode hex="0151"/>
  <outline>
    <contour>
      <point x="272" y="539" type="curve" smooth="yes"/>
      <point x="423" y="539"/>
      <point x="510" y="435"/>
      <point x="510" y="254" type="curve" smooth="yes"/>
      <point x="510" y="82"/>
      <point x="420" y="-23"/>
      <point x="273" y="-23" type="curve" smooth="yes"/>
      <point x="124" y="-23"/>
      <point x="36" y="82"/>
      <point x="36" y="258" type="curve" smooth="yes"/>
      <point x="36" y="434"/>
      <point x="125" y="539"/>
    </contour>
    <contour>
      <point x="273" y="462" type="curve" smooth="yes"/>
      <point x="180" y="462"/>
      <point x="123" y="384"/>
      <point x="123" y="258" type="curve" smooth="yes"/>
      <point x="123" y="131"/>
      <point x="180" y="54"/>
      <point x="273" y="54" type="curve" smooth="yes"/>
      <point x="365" y="54"/>
      <point x="423" y="132"/>
      <point x="423" y="255" type="curve" smooth="yes"/>
      <point x="423" y="385"/>
      <point x="367" y="462"/>
    </contour>
    <contour>
      <point x="239" y="740" type="line"/>
      <point x="352" y="740" type="line"/>
      <point x="203" y="590" type="line"/>
      <point x="143" y="590" type="line"/>
    </contour>
    <contour>
      <point x="413" y="740" type="line"/>
      <point x="526" y="740" type="line"/>
      <point x="377" y="590" type="line"/>
      <point x="317" y="590" type="line"/>
    </contour>
  </outline>
  <lib>
    <dict>
      <key>com.fontlab.hintData</key>
      <dict>
	<key>hhints</key>
	<array>
	  <dict>
	    <key>position</key>	    <integer>-23</integer>
	    <key>width</key>	    <integer>77</integer>
	  </dict>
	  <dict>
	    <key>position</key>	    <integer>462</integer>
	    <key>width</key>	    <integer>77</integer>
	  </dict>
	  <dict>
	    <key>position</key>	    <integer>720</integer>
	    <key>width</key>	    <integer>20</integer>
	  </dict>
	</array>
	<key>vhints</key>
	<array>
	  <dict>
	    <key>position</key>
	    <integer>36</integer>
	    <key>width</key>
	    <integer>87</integer>
	  </dict>
	  <dict>
	    <key>position</key>
	    <integer>423</integer>
	    <key>width</key>
	    <integer>87</integer>
	  </dict>
	</array>
      </dict>
    </dict>
  </lib>
</glyph>
