<?xml version="1.0" encoding="UTF-8"?>
<glyph name="percent" format="1">
  <advance width="889"/>
  <unicode hex="0025"/>
  <outline>
    <contour>
      <point x="199" y="685" type="curve" smooth="yes"/>
      <point x="295" y="685"/>
      <point x="370" y="609"/>
      <point x="370" y="512" type="curve" smooth="yes"/>
      <point x="370" y="420"/>
      <point x="293" y="343"/>
      <point x="200" y="343" type="curve" smooth="yes"/>
      <point x="106" y="343"/>
      <point x="29" y="420"/>
      <point x="29" y="514" type="curve" smooth="yes"/>
      <point x="29" y="608"/>
      <point x="106" y="685"/>
    </contour>
    <contour>
      <point x="199" y="615" type="curve" smooth="yes"/>
      <point x="144" y="615"/>
      <point x="98" y="570"/>
      <point x="98" y="514" type="curve" smooth="yes"/>
      <point x="98" y="459"/>
      <point x="144" y="413"/>
      <point x="200" y="413" type="curve" smooth="yes"/>
      <point x="255" y="413"/>
      <point x="301" y="458"/>
      <point x="301" y="513" type="curve" smooth="yes"/>
      <point x="301" y="570"/>
      <point x="256" y="615"/>
    </contour>
    <contour>
      <point x="609" y="709" type="line"/>
      <point x="675" y="709" type="line"/>
      <point x="280" y="-20" type="line"/>
      <point x="214" y="-20" type="line"/>
    </contour>
    <contour>
      <point x="688" y="322" type="curve" smooth="yes"/>
      <point x="784" y="322"/>
      <point x="859" y="246"/>
      <point x="859" y="150" type="curve" smooth="yes"/>
      <point x="859" y="58"/>
      <point x="781" y="-19"/>
      <point x="689" y="-19" type="curve" smooth="yes"/>
      <point x="595" y="-19"/>
      <point x="518" y="58"/>
      <point x="518" y="152" type="curve" smooth="yes"/>
      <point x="518" y="245"/>
      <point x="595" y="322"/>
    </contour>
    <contour>
      <point x="688" y="252" type="curve" smooth="yes"/>
      <point x="633" y="252"/>
      <point x="587" y="207"/>
      <point x="587" y="152" type="curve" smooth="yes"/>
      <point x="587" y="96"/>
      <point x="633" y="51"/>
      <point x="689" y="51" type="curve" smooth="yes"/>
      <point x="744" y="51"/>
      <point x="790" y="96"/>
      <point x="790" y="150" type="curve" smooth="yes"/>
      <point x="790" y="207"/>
      <point x="745" y="252"/>
    </contour>
  </outline>
  <lib>
    <dict>
      <key>com.fontlab.hintData</key>
      <dict>
	<key>hhints</key>
	<array>
	  <dict>
	    <key>position</key>	    <integer>-19</integer>
	    <key>width</key>	    <integer>70</integer>
	  </dict>
	  <dict>
	    <key>position</key>	    <integer>252</integer>
	    <key>width</key>	    <integer>70</integer>
	  </dict>
	  <dict>
	    <key>position</key>	    <integer>343</integer>
	    <key>width</key>	    <integer>70</integer>
	  </dict>
	  <dict>
	    <key>position</key>	    <integer>615</integer>
	    <key>width</key>	    <integer>70</integer>
	  </dict>
	  <dict>
	    <key>position</key>	    <integer>689</integer>
	    <key>width</key>	    <integer>20</integer>
	  </dict>
	</array>
	<key>vhints</key>
	<array>
	  <dict>
	    <key>position</key>
	    <integer>29</integer>
	    <key>width</key>
	    <integer>69</integer>
	  </dict>
	  <dict>
	    <key>position</key>
	    <integer>301</integer>
	    <key>width</key>
	    <integer>69</integer>
	  </dict>
	  <dict>
	    <key>position</key>
	    <integer>518</integer>
	    <key>width</key>
	    <integer>69</integer>
	  </dict>
	  <dict>
	    <key>position</key>
	    <integer>790</integer>
	    <key>width</key>
	    <integer>69</integer>
	  </dict>
	</array>
      </dict>
    </dict>
  </lib>
</glyph>
