<?xml version="1.0" encoding="UTF-8"?>
<glyph name="s" format="1">
  <advance width="500"/>
  <unicode hex="0073"/>
  <outline>
    <contour>
      <point x="438" y="378" type="curve"/>
      <point x="350" y="378" type="line"/>
      <point x="348" y="433"/>
      <point x="312" y="462"/>
      <point x="245" y="462" type="curve" smooth="yes"/>
      <point x="177" y="462"/>
      <point x="134" y="431"/>
      <point x="134" y="383" type="curve" smooth="yes"/>
      <point x="134" y="346"/>
      <point x="163" y="324"/>
      <point x="231" y="308" type="curve" smooth="yes"/>
      <point x="311" y="289" type="line" smooth="yes"/>
      <point x="415" y="264"/>
      <point x="459" y="221"/>
      <point x="459" y="143" type="curve" smooth="yes"/>
      <point x="459" y="42"/>
      <point x="375" y="-23"/>
      <point x="243" y="-23" type="curve" smooth="yes"/>
      <point x="106" y="-23"/>
      <point x="38" y="35"/>
      <point x="34" y="156" type="curve"/>
      <point x="122" y="156" type="line"/>
      <point x="127" y="119"/>
      <point x="133" y="104"/>
      <point x="146" y="89" type="curve" smooth="yes"/>
      <point x="167" y="67"/>
      <point x="205" y="54"/>
      <point x="250" y="54" type="curve" smooth="yes"/>
      <point x="323" y="54"/>
      <point x="372" y="87"/>
      <point x="372" y="136" type="curve" smooth="yes"/>
      <point x="372" y="174"/>
      <point x="349" y="195"/>
      <point x="291" y="209" type="curve" smooth="yes"/>
      <point x="213" y="228" type="line" smooth="yes"/>
      <point x="89" y="258"/>
      <point x="47" y="297"/>
      <point x="47" y="379" type="curve" smooth="yes"/>
      <point x="47" y="476"/>
      <point x="126" y="539"/>
      <point x="248" y="539" type="curve" smooth="yes"/>
      <point x="369" y="539"/>
      <point x="437" y="481"/>
    </contour>
  </outline>
  <lib>
    <dict>
      <key>com.fontlab.hintData</key>
      <dict>
	<key>hhints</key>
	<array>
	  <dict>
	    <key>position</key>	    <integer>-23</integer>
	    <key>width</key>	    <integer>77</integer>
	  </dict>
	  <dict>
	    <key>position</key>	    <integer>462</integer>
	    <key>width</key>	    <integer>77</integer>
	  </dict>
	</array>
	<key>vhints</key>
	<array>
	  <dict>
	    <key>position</key>
	    <integer>47</integer>
	    <key>width</key>
	    <integer>87</integer>
	  </dict>
	  <dict>
	    <key>position</key>
	    <integer>372</integer>
	    <key>width</key>
	    <integer>87</integer>
	  </dict>
	</array>
      </dict>
    </dict>
  </lib>
</glyph>
