<?xml version="1.0" encoding="UTF-8"?>
<glyph name="afii10070" format="1">
  <advance width="456"/>
  <unicode hex="0435"/>
  <outline>
    <contour>
      <point x="373" y="164" type="curve"/>
      <point x="445" y="164" type="line"/>
      <point x="407" y="51"/>
      <point x="326" y="-15"/>
      <point x="226" y="-15" type="curve" smooth="yes"/>
      <point x="126" y="-15"/>
      <point x="69" y="53"/>
      <point x="69" y="172" type="curve" smooth="yes"/>
      <point x="69" y="269"/>
      <point x="102" y="375"/>
      <point x="153" y="443" type="curve" smooth="yes"/>
      <point x="199" y="505"/>
      <point x="261" y="538"/>
      <point x="329" y="538" type="curve" smooth="yes"/>
      <point x="380" y="538"/>
      <point x="421" y="518"/>
      <point x="442" y="482" type="curve" smooth="yes"/>
      <point x="461" y="449"/>
      <point x="474" y="399"/>
      <point x="474" y="354" type="curve" smooth="yes"/>
      <point x="474" y="323"/>
      <point x="470" y="282"/>
      <point x="463" y="233" type="curve"/>
      <point x="150" y="233" type="line"/>
      <point x="146" y="208"/>
      <point x="144" y="187"/>
      <point x="144" y="171" type="curve" smooth="yes"/>
      <point x="144" y="103"/>
      <point x="181" y="61"/>
      <point x="242" y="61" type="curve" smooth="yes"/>
      <point x="300" y="61"/>
      <point x="355" y="104"/>
    </contour>
    <contour>
      <point x="162" y="303" type="curve"/>
      <point x="401" y="303" type="line"/>
      <point x="402" y="321"/>
      <point x="403" y="337"/>
      <point x="403" y="350" type="curve" smooth="yes"/>
      <point x="403" y="417"/>
      <point x="368" y="459"/>
      <point x="312" y="459" type="curve" smooth="yes"/>
      <point x="243" y="459"/>
      <point x="183" y="396"/>
    </contour>
  </outline>
  <lib>
    <dict>
      <key>com.fontlab.hintData</key>
      <dict>
	<key>hhints</key>
	<array>
	  <dict>
	    <key>position</key>	    <integer>-15</integer>
	    <key>width</key>	    <integer>76</integer>
	  </dict>
	  <dict>
	    <key>position</key>	    <integer>233</integer>
	    <key>width</key>	    <integer>70</integer>
	  </dict>
	  <dict>
	    <key>position</key>	    <integer>459</integer>
	    <key>width</key>	    <integer>79</integer>
	  </dict>
	</array>
	<key>vhints</key>
	<array>
	  <dict>
	    <key>position</key>
	    <integer>69</integer>
	    <key>width</key>
	    <integer>75</integer>
	  </dict>
	  <dict>
	    <key>position</key>
	    <integer>403</integer>
	    <key>width</key>
	    <integer>71</integer>
	  </dict>
	</array>
      </dict>
    </dict>
  </lib>
</glyph>
