<?xml version="1.0" encoding="UTF-8"?>
<glyph name="Lcommaaccent" format="1">
  <advance width="456"/>
  <unicode hex="013B"/>
  <outline>
    <contour>
      <point x="267" y="718" type="line"/>
      <point x="157" y="86" type="line"/>
      <point x="455" y="86" type="line"/>
      <point x="440" y="0" type="line"/>
      <point x="62" y="0" type="line"/>
      <point x="187" y="718" type="line"/>
    </contour>
    <contour>
      <point x="198" y="-60" type="line"/>
      <point x="275" y="-60" type="line"/>
      <point x="259" y="-154" type="line" smooth="yes"/>
      <point x="245" y="-234"/>
      <point x="208" y="-282"/>
      <point x="159" y="-286" type="curve"/>
      <point x="166" y="-247" type="line"/>
      <point x="194" y="-244"/>
      <point x="212" y="-215"/>
      <point x="220" y="-161" type="curve"/>
      <point x="180" y="-161" type="line"/>
    </contour>
  </outline>
  <lib>
    <dict>
      <key>com.fontlab.hintData</key>
      <dict>
	<key>hhints</key>
	<array>
	  <dict>
	    <key>position</key>	    <integer>-161</integer>
	    <key>width</key>	    <integer>101</integer>
	  </dict>
	  <dict>
	    <key>position</key>	    <integer>0</integer>
	    <key>width</key>	    <integer>86</integer>
	  </dict>
	  <dict>
	    <key>position</key>	    <integer>698</integer>
	    <key>width</key>	    <integer>20</integer>
	  </dict>
	</array>
      </dict>
    </dict>
  </lib>
</glyph>
