<?xml version="1.0" encoding="UTF-8"?>
<glyph name="Lslash" format="1">
  <advance width="456"/>
  <unicode hex="0141"/>
  <outline>
    <contour>
      <point x="329" y="520" type="line"/>
      <point x="319" y="462" type="line"/>
      <point x="211" y="395" type="line"/>
      <point x="157" y="86" type="line"/>
      <point x="455" y="86" type="line"/>
      <point x="440" y="0" type="line"/>
      <point x="62" y="0" type="line"/>
      <point x="122" y="344" type="line"/>
      <point x="34" y="289" type="line"/>
      <point x="44" y="347" type="line"/>
      <point x="132" y="402" type="line"/>
      <point x="187" y="718" type="line"/>
      <point x="267" y="718" type="line"/>
      <point x="221" y="453" type="line"/>
    </contour>
  </outline>
  <lib>
    <dict>
      <key>com.fontlab.hintData</key>
      <dict>
	<key>hhints</key>
	<array>
	  <dict>
	    <key>position</key>	    <integer>0</integer>
	    <key>width</key>	    <integer>86</integer>
	  </dict>
	  <dict>
	    <key>position</key>	    <integer>698</integer>
	    <key>width</key>	    <integer>20</integer>
	  </dict>
	</array>
      </dict>
    </dict>
  </lib>
</glyph>
