<?xml version="1.0" encoding="UTF-8"?>
<glyph name="n" format="1">
  <advance width="456"/>
  <unicode hex="006E"/>
  <outline>
    <contour>
      <point x="212" y="523" type="line"/>
      <point x="199" y="446" type="line"/>
      <point x="249" y="511"/>
      <point x="293" y="538"/>
      <point x="352" y="538" type="curve" smooth="yes"/>
      <point x="426" y="538"/>
      <point x="470" y="490"/>
      <point x="470" y="410" type="curve" smooth="yes"/>
      <point x="470" y="393"/>
      <point x="468" y="375"/>
      <point x="465" y="356" type="curve" smooth="yes"/>
      <point x="403" y="0" type="line"/>
      <point x="331" y="0" type="line"/>
      <point x="387" y="322" type="line" smooth="yes"/>
      <point x="390" y="342"/>
      <point x="392" y="362"/>
      <point x="392" y="382" type="curve" smooth="yes"/>
      <point x="392" y="433"/>
      <point x="369" y="459"/>
      <point x="323" y="459" type="curve" smooth="yes"/>
      <point x="250" y="459"/>
      <point x="194" y="393"/>
      <point x="175" y="285" type="curve" smooth="yes"/>
      <point x="125" y="0" type="line"/>
      <point x="53" y="0" type="line"/>
      <point x="144" y="523" type="line"/>
    </contour>
  </outline>
  <lib>
    <dict>
      <key>com.fontlab.hintData</key>
      <dict>
	<key>hhints</key>
	<array>
	  <dict>
	    <key>position</key>	    <integer>0</integer>
	    <key>width</key>	    <integer>20</integer>
	  </dict>
	  <dict>
	    <key>position</key>	    <integer>459</integer>
	    <key>width</key>	    <integer>79</integer>
	  </dict>
	  <dict>
	    <key>position</key>	    <integer>503</integer>
	    <key>width</key>	    <integer>20</integer>
	  </dict>
	</array>
	<key>vhints</key>
	<array>
	  <dict>
	    <key>position</key>
	    <integer>392</integer>
	    <key>width</key>
	    <integer>78</integer>
	  </dict>
	</array>
      </dict>
    </dict>
  </lib>
</glyph>
