<?xml version="1.0" encoding="UTF-8"?>
<glyph name="afii10034" format="1">
  <advance width="600"/>
  <unicode hex="0420"/>
  <outline>
    <contour>
      <point x="177" y="231" type="line"/>
      <point x="177" y="41" type="line"/>
      <point x="314" y="41" type="line" smooth="yes"/>
      <point x="334" y="41"/>
      <point x="344" y="35"/>
      <point x="344" y="20" type="curve" smooth="yes"/>
      <point x="344" y="8"/>
      <point x="334" y="0"/>
      <point x="314" y="0" type="curve" smooth="yes"/>
      <point x="84" y="0" type="line" smooth="yes"/>
      <point x="64" y="0"/>
      <point x="54" y="8"/>
      <point x="54" y="20" type="curve" smooth="yes"/>
      <point x="54" y="35"/>
      <point x="64" y="41"/>
      <point x="84" y="41" type="curve" smooth="yes"/>
      <point x="136" y="41" type="line"/>
      <point x="136" y="522" type="line"/>
      <point x="84" y="522" type="line" smooth="yes"/>
      <point x="64" y="522"/>
      <point x="54" y="530"/>
      <point x="54" y="542" type="curve" smooth="yes"/>
      <point x="54" y="557"/>
      <point x="64" y="563"/>
      <point x="84" y="563" type="curve" smooth="yes"/>
      <point x="358" y="563" type="line" smooth="yes"/>
      <point x="462" y="563"/>
      <point x="547" y="492"/>
      <point x="547" y="398" type="curve" smooth="yes"/>
      <point x="547" y="305"/>
      <point x="458" y="231"/>
      <point x="344" y="231" type="curve" smooth="yes"/>
    </contour>
    <contour>
      <point x="177" y="272" type="line"/>
      <point x="346" y="272" type="line" smooth="yes"/>
      <point x="434" y="272"/>
      <point x="506" y="329"/>
      <point x="506" y="398" type="curve" smooth="yes"/>
      <point x="506" y="465"/>
      <point x="440" y="522"/>
      <point x="360" y="522" type="curve" smooth="yes"/>
      <point x="177" y="522" type="line"/>
    </contour>
  </outline>
  <lib>
    <dict>
      <key>com.fontlab.hintData</key>
      <dict>
	<key>hhints</key>
	<array>
	  <dict>
	    <key>position</key>	    <integer>0</integer>
	    <key>width</key>	    <integer>41</integer>
	  </dict>
	  <dict>
	    <key>position</key>	    <integer>231</integer>
	    <key>width</key>	    <integer>41</integer>
	  </dict>
	  <dict>
	    <key>position</key>	    <integer>522</integer>
	    <key>width</key>	    <integer>41</integer>
	  </dict>
	</array>
	<key>vhints</key>
	<array>
	  <dict>
	    <key>position</key>
	    <integer>136</integer>
	    <key>width</key>
	    <integer>41</integer>
	  </dict>
	  <dict>
	    <key>position</key>
	    <integer>506</integer>
	    <key>width</key>
	    <integer>41</integer>
	  </dict>
	</array>
      </dict>
    </dict>
  </lib>
</glyph>
