<?xml version="1.0" encoding="UTF-8"?>
<glyph name="uni0496" format="1">
  <advance width="600"/>
  <unicode hex="0496"/>
  <outline>
    <contour>
      <point x="592" y="-98" type="line" smooth="yes"/>
      <point x="592" y="-116"/>
      <point x="584" y="-125"/>
      <point x="572" y="-125" type="curve" smooth="yes"/>
      <point x="558" y="-125"/>
      <point x="550" y="-116"/>
      <point x="550" y="-98" type="curve" smooth="yes"/>
      <point x="550" y="0" type="line"/>
      <point x="508" y="0" type="line"/>
      <point x="466" y="190"/>
      <point x="414" y="244"/>
      <point x="320" y="287" type="curve"/>
      <point x="320" y="41" type="line"/>
      <point x="350" y="41" type="line" smooth="yes"/>
      <point x="368" y="41"/>
      <point x="378" y="34"/>
      <point x="378" y="21" type="curve" smooth="yes"/>
      <point x="378" y="7"/>
      <point x="368" y="0"/>
      <point x="350" y="0" type="curve" smooth="yes"/>
      <point x="250" y="0" type="line" smooth="yes"/>
      <point x="232" y="0"/>
      <point x="222" y="7"/>
      <point x="222" y="21" type="curve" smooth="yes"/>
      <point x="222" y="34"/>
      <point x="232" y="41"/>
      <point x="250" y="41" type="curve" smooth="yes"/>
      <point x="280" y="41" type="line"/>
      <point x="280" y="287" type="line"/>
      <point x="186" y="244"/>
      <point x="134" y="190"/>
      <point x="92" y="0" type="curve"/>
      <point x="36" y="0" type="line" smooth="yes"/>
      <point x="18" y="0"/>
      <point x="8" y="7"/>
      <point x="8" y="21" type="curve" smooth="yes"/>
      <point x="8" y="34"/>
      <point x="18" y="41"/>
      <point x="36" y="41" type="curve" smooth="yes"/>
      <point x="62" y="41" type="line"/>
      <point x="96" y="224"/>
      <point x="158" y="274"/>
      <point x="246" y="317" type="curve"/>
      <point x="58" y="522" type="line"/>
      <point x="39" y="522" type="line" smooth="yes"/>
      <point x="19" y="522"/>
      <point x="11" y="529"/>
      <point x="11" y="543" type="curve" smooth="yes"/>
      <point x="11" y="556"/>
      <point x="19" y="563"/>
      <point x="39" y="563" type="curve" smooth="yes"/>
      <point x="125" y="563" type="line" smooth="yes"/>
      <point x="143" y="563"/>
      <point x="153" y="556"/>
      <point x="153" y="543" type="curve" smooth="yes"/>
      <point x="153" y="529"/>
      <point x="143" y="522"/>
      <point x="125" y="522" type="curve" smooth="yes"/>
      <point x="109" y="522" type="line"/>
      <point x="280" y="336" type="line"/>
      <point x="280" y="522" type="line"/>
      <point x="250" y="522" type="line" smooth="yes"/>
      <point x="232" y="522"/>
      <point x="222" y="529"/>
      <point x="222" y="543" type="curve" smooth="yes"/>
      <point x="222" y="556"/>
      <point x="232" y="563"/>
      <point x="250" y="563" type="curve" smooth="yes"/>
      <point x="350" y="563" type="line" smooth="yes"/>
      <point x="368" y="563"/>
      <point x="378" y="556"/>
      <point x="378" y="543" type="curve" smooth="yes"/>
      <point x="378" y="529"/>
      <point x="368" y="522"/>
      <point x="350" y="522" type="curve" smooth="yes"/>
      <point x="320" y="522" type="line"/>
      <point x="320" y="336" type="line"/>
      <point x="491" y="522" type="line"/>
      <point x="475" y="522" type="line" smooth="yes"/>
      <point x="457" y="522"/>
      <point x="447" y="529"/>
      <point x="447" y="543" type="curve" smooth="yes"/>
      <point x="447" y="556"/>
      <point x="457" y="563"/>
      <point x="475" y="563" type="curve" smooth="yes"/>
      <point x="561" y="563" type="line" smooth="yes"/>
      <point x="581" y="563"/>
      <point x="589" y="556"/>
      <point x="589" y="543" type="curve" smooth="yes"/>
      <point x="589" y="529"/>
      <point x="581" y="522"/>
      <point x="561" y="522" type="curve" smooth="yes"/>
      <point x="542" y="522" type="line"/>
      <point x="354" y="317" type="line"/>
      <point x="442" y="274"/>
      <point x="504" y="224"/>
      <point x="538" y="41" type="curve"/>
      <point x="564" y="41" type="line" smooth="yes"/>
      <point x="582" y="41"/>
      <point x="592" y="33"/>
      <point x="592" y="21" type="curve" smooth="yes"/>
    </contour>
  </outline>
  <lib>
    <dict>
      <key>com.fontlab.hintData</key>
      <dict>
	<key>hhints</key>
	<array>
	  <dict>
	    <key>position</key>	    <integer>0</integer>
	    <key>width</key>	    <integer>41</integer>
	  </dict>
	  <dict>
	    <key>position</key>	    <integer>522</integer>
	    <key>width</key>	    <integer>41</integer>
	  </dict>
	</array>
	<key>vhints</key>
	<array>
	  <dict>
	    <key>position</key>
	    <integer>280</integer>
	    <key>width</key>
	    <integer>40</integer>
	  </dict>
	  <dict>
	    <key>position</key>
	    <integer>550</integer>
	    <key>width</key>
	    <integer>42</integer>
	  </dict>
	</array>
      </dict>
    </dict>
  </lib>
</glyph>
