<?xml version="1.0" encoding="UTF-8"?>
<glyph name="uni04B3" format="1">
  <advance width="600"/>
  <unicode hex="04B3"/>
  <outline>
    <contour>
      <point x="390" y="0" type="line" smooth="yes"/>
      <point x="374" y="0"/>
      <point x="364" y="8"/>
      <point x="364" y="20" type="curve" smooth="yes"/>
      <point x="364" y="35"/>
      <point x="374" y="41"/>
      <point x="390" y="41" type="curve" smooth="yes"/>
      <point x="454" y="41" type="line"/>
      <point x="300" y="190" type="line"/>
      <point x="144" y="41" type="line"/>
      <point x="212" y="41" type="line" smooth="yes"/>
      <point x="230" y="41"/>
      <point x="237" y="35"/>
      <point x="237" y="20" type="curve" smooth="yes"/>
      <point x="237" y="8"/>
      <point x="230" y="0"/>
      <point x="212" y="0" type="curve" smooth="yes"/>
      <point x="78" y="0" type="line" smooth="yes"/>
      <point x="60" y="0"/>
      <point x="50" y="8"/>
      <point x="50" y="20" type="curve" smooth="yes"/>
      <point x="50" y="35"/>
      <point x="60" y="41"/>
      <point x="78" y="41" type="curve" smooth="yes"/>
      <point x="88" y="41" type="line"/>
      <point x="270" y="219" type="line"/>
      <point x="108" y="376" type="line"/>
      <point x="102" y="376" type="line" smooth="yes"/>
      <point x="82" y="376"/>
      <point x="74" y="384"/>
      <point x="74" y="396" type="curve" smooth="yes"/>
      <point x="74" y="410"/>
      <point x="82" y="418"/>
      <point x="102" y="418" type="curve" smooth="yes"/>
      <point x="212" y="418" type="line" smooth="yes"/>
      <point x="232" y="418"/>
      <point x="239" y="412"/>
      <point x="239" y="396" type="curve" smooth="yes"/>
      <point x="239" y="384"/>
      <point x="232" y="376"/>
      <point x="212" y="376" type="curve" smooth="yes"/>
      <point x="168" y="376" type="line"/>
      <point x="300" y="247" type="line"/>
      <point x="438" y="376" type="line"/>
      <point x="390" y="376" type="line" smooth="yes"/>
      <point x="372" y="376"/>
      <point x="362" y="384"/>
      <point x="362" y="396" type="curve" smooth="yes"/>
      <point x="362" y="410"/>
      <point x="372" y="418"/>
      <point x="390" y="418" type="curve" smooth="yes"/>
      <point x="498" y="418" type="line" smooth="yes"/>
      <point x="518" y="418"/>
      <point x="525" y="410"/>
      <point x="525" y="396" type="curve" smooth="yes"/>
      <point x="525" y="384"/>
      <point x="518" y="376"/>
      <point x="498" y="376" type="curve" smooth="yes"/>
      <point x="492" y="376" type="line"/>
      <point x="330" y="219" type="line"/>
      <point x="514" y="41" type="line"/>
      <point x="522" y="41" type="line" smooth="yes"/>
      <point x="540" y="41"/>
      <point x="550" y="35"/>
      <point x="550" y="20" type="curve" smooth="yes"/>
      <point x="550" y="-91" type="line" smooth="yes"/>
      <point x="550" y="-108"/>
      <point x="544" y="-118"/>
      <point x="528" y="-118" type="curve" smooth="yes"/>
      <point x="516" y="-118"/>
      <point x="510" y="-108"/>
      <point x="510" y="-91" type="curve" smooth="yes"/>
      <point x="510" y="0" type="line"/>
    </contour>
  </outline>
  <lib>
    <dict>
      <key>com.fontlab.hintData</key>
      <dict>
	<key>hhints</key>
	<array>
	  <dict>
	    <key>position</key>	    <integer>0</integer>
	    <key>width</key>	    <integer>41</integer>
	  </dict>
	  <dict>
	    <key>position</key>	    <integer>376</integer>
	    <key>width</key>	    <integer>42</integer>
	  </dict>
	</array>
	<key>vhints</key>
	<array>
	  <dict>
	    <key>position</key>
	    <integer>510</integer>
	    <key>width</key>
	    <integer>40</integer>
	  </dict>
	</array>
      </dict>
    </dict>
  </lib>
</glyph>
