<?xml version="1.0" encoding="UTF-8"?>
<glyph name="afii10034" format="1">
  <advance width="540"/>
  <unicode hex="0420"/>
  <outline>
    <contour>
      <point x="78" y="42" type="line"/>
      <point x="221" y="42" type="line"/>
      <point x="259" y="174"/>
      <point x="310" y="381"/>
      <point x="345" y="538" type="curve"/>
      <point x="279" y="531"/>
      <point x="245" y="519"/>
      <point x="211" y="493" type="curve" smooth="yes"/>
      <point x="174" y="464"/>
      <point x="151" y="413"/>
      <point x="151" y="360" type="curve" smooth="yes"/>
      <point x="151" y="336"/>
      <point x="154" y="320"/>
      <point x="166" y="285" type="curve"/>
      <point x="91" y="240" type="line"/>
      <point x="78" y="272"/>
      <point x="74" y="292"/>
      <point x="74" y="321" type="curve" smooth="yes"/>
      <point x="74" y="400"/>
      <point x="117" y="468"/>
      <point x="196" y="516" type="curve" smooth="yes"/>
      <point x="245" y="545"/>
      <point x="290" y="559"/>
      <point x="369" y="567" type="curve"/>
      <point x="436" y="601" type="line"/>
      <point x="430" y="576" type="line"/>
      <point x="453" y="577"/>
      <point x="464" y="577"/>
      <point x="474" y="577" type="curve" smooth="yes"/>
      <point x="589" y="577"/>
      <point x="645" y="544"/>
      <point x="645" y="476" type="curve" smooth="yes"/>
      <point x="645" y="402"/>
      <point x="600" y="332"/>
      <point x="528" y="293" type="curve" smooth="yes"/>
      <point x="467" y="260"/>
      <point x="412" y="244"/>
      <point x="346" y="240" type="curve"/>
      <point x="335" y="199"/>
      <point x="334" y="193"/>
      <point x="321" y="139" type="curve" smooth="yes"/>
      <point x="316" y="114"/>
      <point x="312" y="97"/>
      <point x="308" y="80" type="curve" smooth="yes"/>
      <point x="305" y="68"/>
      <point x="302" y="55"/>
      <point x="299" y="42" type="curve"/>
      <point x="387" y="43"/>
      <point x="411" y="44"/>
      <point x="467" y="50" type="curve"/>
      <point x="465" y="41" type="line"/>
      <point x="382" y="1"/>
      <point x="379" y="1"/>
      <point x="107" y="1" type="curve" smooth="yes"/>
      <point x="37" y="1" type="line"/>
    </contour>
    <contour>
      <point x="422" y="546" type="curve"/>
      <point x="356" y="279" type="line"/>
      <point x="372" y="276"/>
      <point x="380" y="275"/>
      <point x="391" y="275" type="curve" smooth="yes"/>
      <point x="487" y="275"/>
      <point x="558" y="353"/>
      <point x="558" y="459" type="curve" smooth="yes"/>
      <point x="558" y="517"/>
      <point x="524" y="548"/>
      <point x="461" y="548" type="curve" smooth="yes"/>
      <point x="453" y="548"/>
      <point x="437" y="547"/>
    </contour>
  </outline>
  <lib>
    <dict>
      <key>com.fontlab.hintData</key>
      <dict>
	<key>hhints</key>
	<array>
	  <dict>
	    <key>position</key>	    <integer>1</integer>
	    <key>width</key>	    <integer>41</integer>
	  </dict>
	  <dict>
	    <key>position</key>	    <integer>548</integer>
	    <key>width</key>	    <integer>28</integer>
	  </dict>
	</array>
	<key>vhints</key>
	<array>
	  <dict>
	    <key>position</key>
	    <integer>74</integer>
	    <key>width</key>
	    <integer>77</integer>
	  </dict>
	  <dict>
	    <key>position</key>
	    <integer>558</integer>
	    <key>width</key>
	    <integer>87</integer>
	  </dict>
	</array>
      </dict>
    </dict>
  </lib>
</glyph>
