<?xml version="1.0" encoding="UTF-8"?>
<glyph name="edotaccent" format="1">
  <advance width="340"/>
  <unicode hex="0117"/>
  <outline>
    <contour>
      <point x="380" y="137" type="curve"/>
      <point x="380" y="108" type="line"/>
      <point x="301" y="29"/>
      <point x="228" y="-13"/>
      <point x="169" y="-13" type="curve" smooth="yes"/>
      <point x="118" y="-13"/>
      <point x="87" y="24"/>
      <point x="87" y="83" type="curve" smooth="yes"/>
      <point x="87" y="164"/>
      <point x="121" y="274"/>
      <point x="159" y="320" type="curve" smooth="yes"/>
      <point x="180" y="344"/>
      <point x="214" y="371"/>
      <point x="252" y="393" type="curve" smooth="yes"/>
      <point x="275" y="406"/>
      <point x="291" y="411"/>
      <point x="313" y="411" type="curve" smooth="yes"/>
      <point x="348" y="411"/>
      <point x="370" y="390"/>
      <point x="370" y="355" type="curve" smooth="yes"/>
      <point x="370" y="310"/>
      <point x="349" y="277"/>
      <point x="295" y="236" type="curve" smooth="yes"/>
      <point x="236" y="192"/>
      <point x="206" y="171"/>
      <point x="161" y="143" type="curve"/>
      <point x="161" y="114"/>
      <point x="162" y="103"/>
      <point x="166" y="87" type="curve" smooth="yes"/>
      <point x="173" y="61"/>
      <point x="194" y="44"/>
      <point x="219" y="44" type="curve" smooth="yes"/>
      <point x="257" y="44"/>
      <point x="305" y="72"/>
    </contour>
    <contour>
      <point x="164" y="179" type="curve"/>
      <point x="271" y="248"/>
      <point x="298" y="278"/>
      <point x="298" y="328" type="curve" smooth="yes"/>
      <point x="298" y="352"/>
      <point x="287" y="369"/>
      <point x="270" y="369" type="curve" smooth="yes"/>
      <point x="227" y="369"/>
      <point x="181" y="286"/>
    </contour>
    <contour>
      <point x="304" y="489" type="line"/>
      <point x="281" y="523"/>
      <point x="274" y="535"/>
      <point x="266" y="559" type="curve"/>
      <point x="292" y="577"/>
      <point x="294" y="578"/>
      <point x="321" y="601" type="curve" smooth="yes"/>
      <point x="325" y="604"/>
      <point x="329" y="607"/>
      <point x="335" y="612" type="curve"/>
      <point x="337" y="608"/>
      <point x="339" y="603"/>
      <point x="340" y="599" type="curve" smooth="yes"/>
      <point x="350" y="576"/>
      <point x="351" y="573"/>
      <point x="369" y="544" type="curve"/>
      <point x="346" y="526"/>
      <point x="343" y="523"/>
      <point x="337" y="519" type="curve"/>
    </contour>
  </outline>
  <lib>
    <dict>
      <key>com.fontlab.hintData</key>
      <dict>
	<key>hhints</key>
	<array>
	  <dict>
	    <key>position</key>	    <integer>-13</integer>
	    <key>width</key>	    <integer>57</integer>
	  </dict>
	  <dict>
	    <key>position</key>	    <integer>369</integer>
	    <key>width</key>	    <integer>42</integer>
	  </dict>
	</array>
	<key>vhints</key>
	<array>
	  <dict>
	    <key>position</key>
	    <integer>87</integer>
	    <key>width</key>
	    <integer>74</integer>
	  </dict>
	  <dict>
	    <key>position</key>
	    <integer>298</integer>
	    <key>width</key>
	    <integer>72</integer>
	  </dict>
	</array>
      </dict>
    </dict>
  </lib>
</glyph>
