<?xml version="1.0" encoding="UTF-8"?>
<glyph name="ogonek" format="1">
  <advance width="280"/>
  <unicode hex="02DB"/>
  <outline>
    <contour>
      <point x="143" y="0" type="curve"/>
      <point x="177" y="0" type="line"/>
      <point x="168" y="-8"/>
      <point x="159" y="-16"/>
      <point x="150" y="-23" type="curve" smooth="yes"/>
      <point x="125" y="-44"/>
      <point x="115" y="-58"/>
      <point x="115" y="-72" type="curve" smooth="yes"/>
      <point x="115" y="-90"/>
      <point x="133" y="-106"/>
      <point x="154" y="-106" type="curve" smooth="yes"/>
      <point x="170" y="-106"/>
      <point x="182" y="-99"/>
      <point x="203" y="-77" type="curve"/>
      <point x="216" y="-82" type="line"/>
      <point x="184" y="-130"/>
      <point x="150" y="-153"/>
      <point x="111" y="-153" type="curve" smooth="yes"/>
      <point x="79" y="-153"/>
      <point x="58" y="-132"/>
      <point x="58" y="-101" type="curve" smooth="yes"/>
      <point x="58" y="-64"/>
      <point x="82" y="-36"/>
    </contour>
  </outline>
  <lib>
    <dict>
      <key>com.fontlab.hintData</key>
      <dict>
	<key>hhints</key>
	<array>
	  <dict>
	    <key>position</key>	    <integer>-153</integer>
	    <key>width</key>	    <integer>47</integer>
	  </dict>
	  <dict>
	    <key>position</key>	    <integer>-20</integer>
	    <key>width</key>	    <integer>20</integer>
	  </dict>
	</array>
	<key>vhints</key>
	<array>
	  <dict>
	    <key>position</key>
	    <integer>58</integer>
	    <key>width</key>
	    <integer>57</integer>
	  </dict>
	</array>
      </dict>
    </dict>
  </lib>
</glyph>
