<?xml version="1.0" encoding="UTF-8"?>
<glyph name="uniF6C7" format="1">
  <advance width="460"/>
  <unicode hex="F6C7"/>
  <outline>
    <contour>
      <point x="183" y="520" type="line"/>
      <point x="192" y="529" type="line"/>
      <point x="204" y="544" type="line" smooth="yes"/>
      <point x="208" y="548"/>
      <point x="211" y="552"/>
      <point x="215" y="555" type="curve"/>
      <point x="216" y="557"/>
      <point x="221" y="562"/>
      <point x="226" y="568" type="curve"/>
      <point x="515" y="568" type="line"/>
      <point x="503" y="556"/>
      <point x="490" y="540"/>
      <point x="475" y="520" type="curve"/>
    </contour>
    <contour>
      <point x="82" y="300" type="curve"/>
      <point x="89" y="327" type="line"/>
      <point x="161" y="372"/>
      <point x="234" y="411"/>
      <point x="244" y="411" type="curve" smooth="yes"/>
      <point x="251" y="411"/>
      <point x="256" y="406"/>
      <point x="256" y="398" type="curve" smooth="yes"/>
      <point x="256" y="391"/>
      <point x="254" y="382"/>
      <point x="251" y="371" type="curve" smooth="yes"/>
      <point x="249" y="364"/>
      <point x="242" y="338"/>
      <point x="233" y="301" type="curve" smooth="yes"/>
      <point x="230" y="287"/>
      <point x="223" y="259"/>
      <point x="212" y="219" type="curve" smooth="yes"/>
      <point x="195" y="155"/>
      <point x="187" y="115"/>
      <point x="187" y="92" type="curve" smooth="yes"/>
      <point x="187" y="73"/>
      <point x="195" y="59"/>
      <point x="206" y="59" type="curve" smooth="yes"/>
      <point x="218" y="59"/>
      <point x="253" y="79"/>
      <point x="330" y="132" type="curve"/>
      <point x="363" y="270"/>
      <point x="383" y="350"/>
      <point x="389" y="373" type="curve"/>
      <point x="400" y="379"/>
      <point x="406" y="382"/>
      <point x="409" y="383" type="curve" smooth="yes"/>
      <point x="422" y="389"/>
      <point x="434" y="395"/>
      <point x="446" y="401" type="curve" smooth="yes"/>
      <point x="450" y="403"/>
      <point x="459" y="408"/>
      <point x="472" y="415" type="curve"/>
      <point x="429" y="288"/>
      <point x="392" y="139"/>
      <point x="392" y="88" type="curve" smooth="yes"/>
      <point x="392" y="72"/>
      <point x="396" y="64"/>
      <point x="403" y="64" type="curve" smooth="yes"/>
      <point x="414" y="64"/>
      <point x="440" y="78"/>
      <point x="518" y="124" type="curve"/>
      <point x="511" y="94" type="line"/>
      <point x="443" y="43"/>
      <point x="348" y="-13"/>
      <point x="328" y="-13" type="curve" smooth="yes"/>
      <point x="318" y="-13"/>
      <point x="310" y="-3"/>
      <point x="310" y="10" type="curve" smooth="yes"/>
      <point x="310" y="28"/>
      <point x="316" y="64"/>
      <point x="324" y="96" type="curve"/>
      <point x="221" y="29" type="line" smooth="yes"/>
      <point x="171" y="-4"/>
      <point x="153" y="-13"/>
      <point x="138" y="-13" type="curve" smooth="yes"/>
      <point x="122" y="-13"/>
      <point x="110" y="8"/>
      <point x="110" y="36" type="curve" smooth="yes"/>
      <point x="110" y="65"/>
      <point x="116" y="93"/>
      <point x="141" y="186" type="curve" smooth="yes"/>
      <point x="159" y="254"/>
      <point x="169" y="297"/>
      <point x="169" y="310" type="curve" smooth="yes"/>
      <point x="169" y="321"/>
      <point x="163" y="329"/>
      <point x="155" y="329" type="curve" smooth="yes"/>
      <point x="143" y="329"/>
      <point x="124" y="321"/>
    </contour>
  </outline>
  <lib>
    <dict>
      <key>com.fontlab.hintData</key>
      <dict>
	<key>hhints</key>
	<array>
	  <dict>
	    <key>position</key>	    <integer>-13</integer>
	    <key>width</key>	    <integer>21</integer>
	  </dict>
	  <dict>
	    <key>position</key>	    <integer>391</integer>
	    <key>width</key>	    <integer>20</integer>
	  </dict>
	  <dict>
	    <key>position</key>	    <integer>520</integer>
	    <key>width</key>	    <integer>48</integer>
	  </dict>
	</array>
	<key>vhints</key>
	<array>
	  <dict>
	    <key>position</key>
	    <integer>110</integer>
	    <key>width</key>
	    <integer>77</integer>
	  </dict>
	  <dict>
	    <key>position</key>
	    <integer>310</integer>
	    <key>width</key>
	    <integer>82</integer>
	  </dict>
	</array>
      </dict>
    </dict>
  </lib>
</glyph>
